Index, Level, Gleichung, 1-norm, 2-norm, varianz, primal, dual, status, eps, b
Gleichung: 1 - CHSH, 2 - 33,33, 3-44,1111
0,1+AB,1,1.0,0.353553390593,0.0,0.42677669433719756,0.42677669423124287,optimal,0.0,"[0.125, 0.125, 0.125, 0.125, 0.125, 0.125, 0.125, 0.125]"
1,1+AB,1,0.9999999999999999,0.353700673828,0.0102062072616,0.4269680037351782,0.4269680037346212,optimal,0.05,"[0.11875, 0.12708333333333333, 0.11875, 0.12708333333333333, 0.12708333333333333, 0.12708333333333333, 0.12708333333333333, 0.12708333333333333]"
2,1+AB,1,1.0,0.354142156015,0.0204124145232,0.42754008606384875,0.4275400860558642,optimal,0.1,"[0.1125, 0.12916666666666668, 0.1125, 0.12916666666666668, 0.12916666666666668, 0.12916666666666668, 0.12916666666666668, 0.12916666666666668]"
3,1+AB,1,0.9999999999999999,0.354876739164,0.0306186217848,0.4284931713510426,0.42849317132075293,optimal,0.15000000000000002,"[0.10625, 0.13125, 0.10625, 0.13125, 0.13125, 0.13125, 0.13125, 0.13125]"
4,1+AB,1,0.9999999999999999,0.355902608401,0.0408248290464,0.429830116961662,0.4298301169558147,optimal,0.2,"[0.1, 0.13333333333333333, 0.1, 0.13333333333333333, 0.13333333333333333, 0.13333333333333333, 0.13333333333333333, 0.13333333333333333]"
5,1+AB,1,0.9999999999999998,0.357217254156,0.051031036308,0.4315549953648711,0.43155499321937124,optimal,0.25,"[0.09375, 0.13541666666666666, 0.09375, 0.13541666666666666, 0.13541666666666666, 0.13541666666666666, 0.13541666666666666, 0.13541666666666666]"
6,1+AB,1,1.0,0.35881750236,0.0612372435696,0.4336720650463882,0.4336720650123174,optimal,0.30000000000000004,"[0.0875, 0.1375, 0.0875, 0.1375, 0.1375, 0.1375, 0.1375, 0.1375]"
7,1+AB,1,1.0000000000000002,0.360699551797,0.0714434508312,0.436184521454385,0.43618452115104295,optimal,0.35000000000000003,"[0.08124999999999999, 0.13958333333333334, 0.08124999999999999, 0.13958333333333334, 0.13958333333333334, 0.13958333333333334, 0.13958333333333334, 0.13958333333333334]"
8,1+AB,1,0.9999999999999998,0.362859017618,0.0816496580928,0.43909382975188505,0.4390938297301134,optimal,0.4,"[0.075, 0.14166666666666666, 0.075, 0.14166666666666666, 0.14166666666666666, 0.14166666666666666, 0.14166666666666666, 0.14166666666666666]"
9,1+AB,1,1.0,0.365290979905,0.0918558653544,0.4423987376027436,0.4423987376014953,optimal,0.45,"[0.06875, 0.14375, 0.06875, 0.14375, 0.14375, 0.14375, 0.14375, 0.14375]"
10,1+AB,1,1.0000000000000002,0.367990036097,0.102062072616,0.4460945376575847,0.4460945362968855,optimal,0.5,"[0.0625, 0.14583333333333334, 0.0625, 0.14583333333333334, 0.14583333333333334, 0.14583333333333334, 0.14583333333333334, 0.14583333333333334]"
11,1+AB,1,1.0,0.370950356068,0.112268279878,0.4501724198801481,0.45017241984395956,optimal,0.55,"[0.056249999999999994, 0.14791666666666667, 0.056249999999999994, 0.14791666666666667, 0.14791666666666667, 0.14791666666666667, 0.14791666666666667, 0.14791666666666667]"
12,1+AB,1,1.0,0.374165738677,0.122474487139,0.4546187008487078,0.4546186944996778,optimal,0.6000000000000001,"[0.04999999999999999, 0.15, 0.04999999999999999, 0.15, 0.15, 0.15, 0.15, 0.15]"
13,1+AB,1,1.0,0.377629668679,0.132680694401,0.4594147203294743,0.4594147202533053,optimal,0.65,"[0.04375, 0.15208333333333335, 0.04375, 0.15208333333333335, 0.15208333333333335, 0.15208333333333335, 0.15208333333333335, 0.15208333333333335]"
14,1+AB,1,1.0,0.381335372955,0.142886901662,0.46455017272660976,0.4645501596328154,optimal,0.7000000000000001,"[0.03749999999999999, 0.15416666666666667, 0.03749999999999999, 0.15416666666666667, 0.15416666666666667, 0.15416666666666667, 0.15416666666666667, 0.15416666666666667]"
15,1+AB,1,1.0,0.385275875186,0.153093108924,0.4700087692044373,0.47000875888585514,optimal,0.75,"[0.03125, 0.15625, 0.03125, 0.15625, 0.15625, 0.15625, 0.15625, 0.15625]"
16,1+AB,1,0.9999999999999999,0.389444048185,0.163299316186,0.47571568444771195,0.4757156716256575,optimal,0.8,"[0.024999999999999994, 0.15833333333333333, 0.024999999999999994, 0.15833333333333333, 0.15833333333333333, 0.15833333333333333, 0.15833333333333333, 0.15833333333333333]"
17,1+AB,1,1.0,0.393832663281,0.173505523447,0.48160959958443456,0.48160959329494774,optimal,0.8500000000000001,"[0.01874999999999999, 0.16041666666666668, 0.01874999999999999, 0.16041666666666668, 0.16041666666666668, 0.16041666666666668, 0.16041666666666668, 0.16041666666666668]"
18,1+AB,1,0.9999999999999999,0.398434436263,0.183711730709,0.4876434036682774,0.487643391852993,optimal,0.9,"[0.012499999999999997, 0.1625, 0.012499999999999997, 0.1625, 0.1625, 0.1625, 0.1625, 0.1625]"
19,1+AB,1,0.9999999999999999,0.403242069565,0.19391793797,0.4937823397434154,0.49378233700634805,optimal,0.9500000000000001,"[0.006249999999999992, 0.16458333333333333, 0.006249999999999992, 0.16458333333333333, 0.16458333333333333, 0.16458333333333333, 0.16458333333333333, 0.16458333333333333]"
20,1+AB,1,0.9999999999999999,0.408248290464,0.204124145232,0.4999999748821617,0.4999999705218847,optimal,1.0,"[0.0, 0.16666666666666666, 0.0, 0.16666666666666666, 0.16666666666666666, 0.16666666666666666, 0.16666666666666666, 0.16666666666666666]"
