0,1+AB,1,1.0,0.353553390593,0.0,0.42677669433719756,0.42677669423124287,optimal,0.0,"[0.125, 0.125, 0.125, 0.125, 0.125, 0.125, 0.125, 0.125]"
1,1+AB,1,1.0,0.353698741237,0.0101390114311,0.426932330585206,0.4269323305849405,optimal,0.05,"[0.12432600289211412, 0.12962411807280327, 0.12945660806317005, 0.11927187152013514, 0.12378779363503925, 0.12041809566445245, 0.12725543267738904, 0.12586007747489666]"
2,1+AB,1,1.0,0.354134435224,0.0202780228622,0.4273768485142801,0.4273768419471601,optimal,0.1,"[0.12365200578422823, 0.13424823614560658, 0.13391321612634011, 0.11354374304027029, 0.1225755872700785, 0.11583619132890491, 0.12951086535477807, 0.12672015494979333]"
3,1+AB,1,1.0,0.354859403109,0.0304170342932,0.4280835925868107,0.4280835918938205,optimal,0.15000000000000002,"[0.12297800867634236, 0.13887235421840988, 0.13836982418951016, 0.10781561456040543, 0.12136338090511775, 0.11125428699335736, 0.13176629803216708, 0.12758023242468999]"
4,1+AB,1,1.0,0.355871877007,0.0405560457243,0.42903250927898534,0.42903250924348774,optimal,0.2,"[0.12230401156845648, 0.14349647229121315, 0.14282643225268019, 0.10208748608054058, 0.120151174540157, 0.10667238265780982, 0.13402173070955611, 0.12844030989958666]"
5,1+AB,1,1.0,0.357169411932,0.0506950571554,0.43020907183311463,0.4302090718282068,optimal,0.25,"[0.12163001446057059, 0.14812059036401642, 0.14728304031585024, 0.096359357600675738, 0.11893896817519625, 0.10209047832226227, 0.13627716338694515, 0.12930038737448335]"
6,1+AB,1,1.0,0.358748914843,0.0608340685865,0.431602932936621,0.4316029327209101,optimal,0.30000000000000004,"[0.12095601735268471, 0.15274470843681973, 0.15173964837902029, 0.090631229120810869, 0.1177267618102355, 0.097508573986714725, 0.13853259606433418, 0.13016046484938001]"
7,1+AB,1,1.0,0.360606680591,0.0709730800176,0.4332072573289031,0.4332072552456938,optimal,0.35000000000000003,"[0.12028202024479884, 0.15736882650962303, 0.15619625644219035, 0.084903100640946028, 0.11651455544527475, 0.092926669651167165, 0.14078802874172322, 0.13102054232427668]"
8,1+AB,1,1.0,0.362738433832,0.0811120914487,0.43501842842380173,0.4350184284198337,optimal,0.4,"[0.11960802313691295, 0.1619929445824263, 0.16065286450536037, 0.079174972161081159, 0.115302349080314, 0.088344765315619633, 0.14304346141911223, 0.13188061979917334]"
9,1+AB,1,1.0,0.365139375823,0.0912511028797,0.43703567582419484,0.43703566199729704,optimal,0.45,"[0.11893402602902707, 0.16661706265522958, 0.16510947256853042, 0.073446843681216317, 0.11409014271535325, 0.083762860980072074, 0.14529889409650126, 0.13274069727407001]"
10,1+AB,1,1.0,0.367804234995,0.101390114311,0.4392623715856932,0.4392623706783504,optimal,0.5,"[0.11826002892114118, 0.17124118072803288, 0.16956608063170048, 0.067718715201351462, 0.1128779363503925, 0.079180956644524542, 0.1475543267738903, 0.13360077474896667]"
11,1+AB,1,1.0,0.370727320127,0.111529125742,0.4417056164172619,0.44170561641580597,optimal,0.55,"[0.1175860318132553, 0.17586529880083618, 0.17402268869487053, 0.061990586721486607, 0.11166572998543174, 0.074599052308976982, 0.14980975945127933, 0.13446085222386334]"
12,1+AB,1,1.0,0.373902575015,0.121668137173,0.44438042072168993,0.444380420717407,optimal,0.6000000000000001,"[0.11691203470536943, 0.18048941687363945, 0.17847929675804058, 0.056262458241621738, 0.11045352362047099, 0.070017147973429436, 0.15206519212866837, 0.13532092969876]"
13,1+AB,1,1.0,0.377323633534,0.131807148604,0.44867546893401267,0.44867546791370994,optimal,0.65,"[0.11623803759748354, 0.18511353494644273, 0.18293590482121064, 0.050534329761756897, 0.10924131725551024, 0.06543524363788189, 0.15432062480605738, 0.13618100717365667]"
14,1+AB,1,1.0,0.380983874132,0.141946160035,0.45434282123422676,0.45434282121130587,optimal,0.7000000000000001,"[0.11556404048959766, 0.18973765301924603, 0.18739251288438069, 0.044806201281892041, 0.10802911089054949, 0.060853339302334344, 0.15657605748344641, 0.13704108464855333]"
15,1+AB,1,1.0,0.384876472884,0.152085171466,0.46001012702602456,0.4600101212171145,optimal,0.75,"[0.11489004338171178, 0.19436177109204933, 0.19184912094755072, 0.039078072802027186, 0.10681690452558874, 0.056271434966786799, 0.15883149016083545, 0.13790116212344999]"
16,1+AB,1,1.0,0.388994454352,0.162224182897,0.46567750973993255,0.46567750967999566,optimal,0.8,"[0.11421604627382589, 0.1989858891648526, 0.19630572901072077, 0.033349944322162331, 0.10560469816062799, 0.051689530631239253, 0.16108692283822448, 0.13876123959834669]"
17,1+AB,1,1.0,0.393330739657,0.172363194328,0.4713448542380966,0.4713448541968247,optimal,0.8500000000000001,"[0.11354204916594002, 0.2036100072376559, 0.20076233707389082, 0.027621815842297476, 0.10439249179566724, 0.047107626295691707, 0.16334235551561352, 0.13962131707324335]"
18,1+AB,1,1.0,0.397878191294,0.182502205759,0.4770121758958513,0.4770121723050044,optimal,0.9,"[0.11286805205805414, 0.20823412531045918, 0.20521894513706085, 0.021893687362432634, 0.10318028543070649, 0.042525721960144161, 0.16559778819300253, 0.14048139454814002]"
19,1+AB,1,1.0,0.402629654348,0.192641217191,0.48267950541492827,0.48267949941849225,optimal,0.9500000000000001,"[0.11219405495016825, 0.21285824338326248, 0.2096755532002309, 0.016165558882567765, 0.10196807906574575, 0.037943817624596615, 0.16785322087039156, 0.14134147202303668]"
20,1+AB,1,1.0,0.40757799391,0.202780228622,0.48834688428098916,0.4883468837399312,optimal,1.0,"[0.11152005784228237, 0.21748236145606575, 0.21413216126340096, 0.010437430402702924, 0.100755872700785, 0.033361913289049069, 0.1701086535477806, 0.14220154949793334]"
