Index, Level, Gleichung, 1-norm, 2-norm, varianz, primal, dual, status, eps, b
Gleichung: 1 - CHSH, 2 - 33,33, 3-44,1111
0,1+AB,2,1.0,0.353553390593,0.0,0.42677669453896233,0.4267766944549204,optimal,0.0,"[0.125, 0.125, 0.125, 0.125, 0.125, 0.125, 0.125, 0.125]"
1,1+AB,2,1.0,0.353556219009,0.00141421356237,0.4267815233414234,0.4267815232943715,optimal,0.001,"[0.126, 0.125, 0.125, 0.125, 0.124, 0.125, 0.125, 0.125]"
2,1+AB,2,1.0,0.353564704121,0.00282842712475,0.42679600961975095,0.4267960096081713,optimal,0.002,"[0.127, 0.125, 0.125, 0.125, 0.123, 0.125, 0.125, 0.125]"
3,1+AB,2,1.0,0.353578845521,0.00424264068712,0.4268201547670673,0.42682015476334434,optimal,0.003,"[0.128, 0.125, 0.125, 0.125, 0.122, 0.125, 0.125, 0.125]"
4,1+AB,2,1.0,0.353598642531,0.00565685424949,0.4268539616727883,0.42685396167033657,optimal,0.004,"[0.129, 0.125, 0.125, 0.125, 0.121, 0.125, 0.125, 0.125]"
5,1+AB,2,1.0,0.353624094202,0.00707106781187,0.4268974341661616,0.4268974341643104,optimal,0.005,"[0.13, 0.125, 0.125, 0.125, 0.12, 0.125, 0.125, 0.125]"
6,1+AB,2,1.0,0.353655199311,0.00848528137424,0.4269505770889892,0.4269505770887512,optimal,0.006,"[0.131, 0.125, 0.125, 0.125, 0.119, 0.125, 0.125, 0.125]"
7,1+AB,2,1.0,0.353691956369,0.00989949493661,0.42701338147459444,0.42701337993452493,optimal,0.007,"[0.132, 0.125, 0.125, 0.125, 0.118, 0.125, 0.125, 0.125]"
8,1+AB,2,1.0,0.353734363612,0.011313708499,0.4270858598055703,0.42708585547274397,optimal,0.008,"[0.133, 0.125, 0.125, 0.125, 0.11699999999999999, 0.125, 0.125, 0.125]"
9,1+AB,2,1.0,0.353782419009,0.0127279220614,0.42716809224285496,0.42716809224208946,optimal,0.009000000000000001,"[0.134, 0.125, 0.125, 0.125, 0.11599999999999999, 0.125, 0.125, 0.125]"
10,1+AB,2,1.0,0.353836120259,0.0141421356237,0.42725998573888874,0.4272599857384667,optimal,0.01,"[0.135, 0.125, 0.125, 0.125, 0.115, 0.125, 0.125, 0.125]"
11,1+AB,2,1.0,0.353895464792,0.0155563491861,0.42736158901492477,0.4273615890137586,optimal,0.011,"[0.136, 0.125, 0.125, 0.125, 0.114, 0.125, 0.125, 0.125]"
12,1+AB,2,1.0,0.353960449768,0.0169705627485,0.4274729127298867,0.42747291271943183,optimal,0.012,"[0.137, 0.125, 0.125, 0.125, 0.113, 0.125, 0.125, 0.125]"
13,1+AB,2,1.0,0.354031072083,0.0183847763109,0.4275939687648067,0.4275939687626721,optimal,0.013000000000000001,"[0.138, 0.125, 0.125, 0.125, 0.112, 0.125, 0.125, 0.125]"
14,1+AB,2,1.0,0.354107328362,0.0197989898732,0.42772476927010344,0.42772476926556635,optimal,0.014,"[0.139, 0.125, 0.125, 0.125, 0.111, 0.125, 0.125, 0.125]"
15,1+AB,2,1.0,0.354189214968,0.0212132034356,0.4278653217844172,0.4278653211733433,optimal,0.015,"[0.14, 0.125, 0.125, 0.125, 0.11, 0.125, 0.125, 0.125]"
16,1+AB,2,1.0,0.354276727997,0.022627416998,0.42801565764293864,0.428015657622044,optimal,0.016,"[0.14100000000000001, 0.125, 0.125, 0.125, 0.109, 0.125, 0.125, 0.125]"
17,1+AB,2,1.0,0.354369863278,0.0240416305603,0.42817577447148947,0.42817577446411925,optimal,0.017,"[0.14200000000000002, 0.125, 0.125, 0.125, 0.108, 0.125, 0.125, 0.125]"
18,1+AB,2,1.0,0.354468616382,0.0254558441227,0.42834569276178275,0.42834569272632683,optimal,0.018000000000000002,"[0.14300000000000002, 0.125, 0.125, 0.125, 0.107, 0.125, 0.125, 0.125]"
19,1+AB,2,1.0,0.354572982614,0.0268700576851,0.42852542896596263,0.42852542892027967,optimal,0.019,"[0.144, 0.125, 0.125, 0.125, 0.106, 0.125, 0.125, 0.125]"
20,1+AB,2,1.0,0.354682957019,0.0282842712475,0.4287149998773384,0.42871499986304956,optimal,0.02,"[0.145, 0.125, 0.125, 0.125, 0.105, 0.125, 0.125, 0.125]"
21,1+AB,2,1.0,0.354798534383,0.0296984848098,0.4289144214131024,0.42891442137138514,optimal,0.021,"[0.146, 0.125, 0.125, 0.125, 0.104, 0.125, 0.125, 0.125]"
22,1+AB,2,1.0,0.35491970923,0.0311126983722,0.42912371216833334,0.42912371216805845,optimal,0.022,"[0.147, 0.125, 0.125, 0.125, 0.10300000000000001, 0.125, 0.125, 0.125]"
23,1+AB,2,1.0,0.355046475831,0.0325269119346,0.42934286858918,0.42934286669987815,optimal,0.023,"[0.148, 0.125, 0.125, 0.125, 0.10200000000000001, 0.125, 0.125, 0.125]"
24,1+AB,2,1.0,0.355178828198,0.033941125497,0.4295719695723471,0.4295719695711672,optimal,0.024,"[0.149, 0.125, 0.125, 0.125, 0.101, 0.125, 0.125, 0.125]"
25,1+AB,2,1.0,0.355316760089,0.0353553390593,0.42981095977552364,0.4298109583416519,optimal,0.025,"[0.15, 0.125, 0.125, 0.125, 0.1, 0.125, 0.125, 0.125]"
26,1+AB,2,1.0,0.355460265009,0.0367695526217,0.4300598471699881,0.4300598395716325,optimal,0.026000000000000002,"[0.151, 0.125, 0.125, 0.125, 0.099, 0.125, 0.125, 0.125]"
27,1+AB,2,1.0,0.35560933621,0.0381837661841,0.43031879226889064,0.43031878922952865,optimal,0.027,"[0.152, 0.125, 0.125, 0.125, 0.098, 0.125, 0.125, 0.125]"
28,1+AB,2,1.0,0.355763966697,0.0395979797464,0.43058765013268147,0.4305876447154628,optimal,0.028,"[0.153, 0.125, 0.125, 0.125, 0.097, 0.125, 0.125, 0.125]"
29,1+AB,2,1.0,0.355924149223,0.0410121933088,0.4308665183855349,0.43086651259547737,optimal,0.029,"[0.154, 0.125, 0.125, 0.125, 0.096, 0.125, 0.125, 0.125]"
30,1+AB,2,1.0,0.356089876295,0.0424264068712,0.4311554645708889,0.4311554645706001,optimal,0.03,"[0.155, 0.125, 0.125, 0.125, 0.095, 0.125, 0.125, 0.125]"
31,1+AB,2,1.0,0.356261140177,0.0438406204336,0.4314543487211381,0.43145434512691816,optimal,0.031,"[0.156, 0.125, 0.125, 0.125, 0.094, 0.125, 0.125, 0.125]"
32,1+AB,2,1.0,0.356437932886,0.0452548339959,0.4317633510494181,0.4317633507735357,optimal,0.032,"[0.157, 0.125, 0.125, 0.125, 0.093, 0.125, 0.125, 0.125]"
33,1+AB,2,1.0,0.3566202462,0.0466690475583,0.43208233074902525,0.4320823252563422,optimal,0.033,"[0.158, 0.125, 0.125, 0.125, 0.092, 0.125, 0.125, 0.125]"
34,1+AB,2,1.0,0.356808071658,0.0480832611207,0.43241150370339515,0.43241150369389236,optimal,0.034,"[0.159, 0.125, 0.125, 0.125, 0.091, 0.125, 0.125, 0.125]"
35,1+AB,2,1.0,0.357001400557,0.0494974746831,0.4327507168847316,0.4327507168839937,optimal,0.035,"[0.16, 0.125, 0.125, 0.125, 0.09, 0.125, 0.125, 0.125]"
36,1+AB,2,1.0,0.357200223964,0.0509116882454,0.4331000420364857,0.43310004202546387,optimal,0.036000000000000004,"[0.161, 0.125, 0.125, 0.125, 0.089, 0.125, 0.125, 0.125]"
37,1+AB,2,1.0,0.357404532708,0.0523259018078,0.433459484209537,0.4334594831344251,optimal,0.037,"[0.162, 0.125, 0.125, 0.125, 0.088, 0.125, 0.125, 0.125]"
38,1+AB,2,1.0,0.357614317387,0.0537401153702,0.4338290839990352,0.4338290839704461,optimal,0.038,"[0.163, 0.125, 0.125, 0.125, 0.087, 0.125, 0.125, 0.125]"
39,1+AB,2,1.0,0.35782956837,0.0551543289326,0.43420882097999414,0.4342088204540904,optimal,0.039,"[0.164, 0.125, 0.125, 0.125, 0.086, 0.125, 0.125, 0.125]"
40,1+AB,2,1.0,0.358050275799,0.0565685424949,0.4345987304646873,0.4345987304637824,optimal,0.04,"[0.165, 0.125, 0.125, 0.125, 0.08499999999999999, 0.125, 0.125, 0.125]"
41,1+AB,2,1.0,0.35827642959,0.0579827560573,0.4349988047141129,0.4349988045260542,optimal,0.041,"[0.166, 0.125, 0.125, 0.125, 0.08399999999999999, 0.125, 0.125, 0.125]"
42,1+AB,2,1.0,0.358508019436,0.0593969696197,0.43540906269364626,0.43540906269345986,optimal,0.042,"[0.167, 0.125, 0.125, 0.125, 0.08299999999999999, 0.125, 0.125, 0.125]"
43,1+AB,2,1.0,0.358745034809,0.060811183182,0.43582950584718944,0.43582950584613833,optimal,0.043000000000000003,"[0.168, 0.125, 0.125, 0.125, 0.08199999999999999, 0.125, 0.125, 0.125]"
44,1+AB,2,1.0,0.358987464962,0.0622253967444,0.4362601410761727,0.4362601410558476,optimal,0.044,"[0.16899999999999998, 0.125, 0.125, 0.125, 0.081, 0.125, 0.125, 0.125]"
45,1+AB,2,0.9999999999999999,0.359235298934,0.0636396103068,0.436700890201748,0.4367008820794396,optimal,0.045,"[0.16999999999999998, 0.125, 0.125, 0.125, 0.08, 0.125, 0.125, 0.125]"
46,1+AB,2,1.0,0.359488525547,0.0650538238692,0.43715194976946137,0.4371519445890872,optimal,0.046,"[0.17099999999999999, 0.125, 0.125, 0.125, 0.079, 0.125, 0.125, 0.125]"
47,1+AB,2,0.9999999999999999,0.359747133415,0.0664680374315,0.43761317620169254,0.4376131708260887,optimal,0.047,"[0.172, 0.125, 0.125, 0.125, 0.078, 0.125, 0.125, 0.125]"
48,1+AB,2,1.0,0.36001111094,0.0678822509939,0.4380846347650909,0.43808463315356816,optimal,0.048,"[0.173, 0.125, 0.125, 0.125, 0.077, 0.125, 0.125, 0.125]"
49,1+AB,2,0.9999999999999999,0.360280446319,0.0692964645563,0.43856620575879895,0.43856620033069343,optimal,0.049,"[0.174, 0.125, 0.125, 0.125, 0.076, 0.125, 0.125, 0.125]"
50,1+AB,2,1.0,0.360555127546,0.0707106781187,0.4390580161730301,0.4390580117564103,optimal,0.05,"[0.175, 0.125, 0.125, 0.125, 0.075, 0.125, 0.125, 0.125]"
51,1+AB,2,0.9999999999999999,0.360835142413,0.072124891681,0.43956004425964096,0.4395600442532944,optimal,0.051000000000000004,"[0.176, 0.125, 0.125, 0.125, 0.074, 0.125, 0.125, 0.125]"
52,1+AB,2,1.0,0.361120478511,0.0735391052434,0.4400721255138478,0.44007211984460476,optimal,0.052000000000000005,"[0.177, 0.125, 0.125, 0.125, 0.073, 0.125, 0.125, 0.125]"
53,1+AB,2,1.0,0.361411123238,0.0749533188058,0.44059440333956124,0.4405943958107054,optimal,0.053,"[0.178, 0.125, 0.125, 0.125, 0.07200000000000001, 0.125, 0.125, 0.125]"
54,1+AB,2,1.0,0.361707063796,0.0763675323681,0.441126800005231,0.4411267888285017,optimal,0.054,"[0.179, 0.125, 0.125, 0.125, 0.07100000000000001, 0.125, 0.125, 0.125]"
55,1+AB,2,1.0,0.362008287198,0.0777817459305,0.4416694760277154,0.4416694760275086,optimal,0.055,"[0.18, 0.125, 0.125, 0.125, 0.07, 0.125, 0.125, 0.125]"
56,1+AB,2,1.0,0.362314780267,0.0791959594929,0.44222212866544536,0.4422221286631979,optimal,0.056,"[0.181, 0.125, 0.125, 0.125, 0.069, 0.125, 0.125, 0.125]"
57,1+AB,2,1.0,0.362626529642,0.0806101730553,0.4427848555971126,0.4427848555967111,optimal,0.057,"[0.182, 0.125, 0.125, 0.125, 0.068, 0.125, 0.125, 0.125]"
58,1+AB,2,1.0,0.362943521777,0.0820243866176,0.4433574936509894,0.44335748101383304,optimal,0.058,"[0.183, 0.125, 0.125, 0.125, 0.067, 0.125, 0.125, 0.125]"
59,1+AB,2,1.0,0.363265742949,0.08343860018,0.44394042208072665,0.44394042207992124,optimal,0.059000000000000004,"[0.184, 0.125, 0.125, 0.125, 0.066, 0.125, 0.125, 0.125]"
60,1+AB,2,1.0,0.363593179254,0.0848528137424,0.4445331990375903,0.4445331990312764,optimal,0.06,"[0.185, 0.125, 0.125, 0.125, 0.065, 0.125, 0.125, 0.125]"
61,1+AB,2,1.0,0.363925816617,0.0862670273048,0.44513592031764676,0.44513591981750034,optimal,0.061,"[0.186, 0.125, 0.125, 0.125, 0.064, 0.125, 0.125, 0.125]"
62,1+AB,2,1.0,0.364263640788,0.0876812408671,0.4457485512073455,0.44574855024768323,optimal,0.062,"[0.187, 0.125, 0.125, 0.125, 0.063, 0.125, 0.125, 0.125]"
63,1+AB,2,1.0,0.36460663735,0.0890954544295,0.44637101787677547,0.4463710136746327,optimal,0.063,"[0.188, 0.125, 0.125, 0.125, 0.062, 0.125, 0.125, 0.125]"
64,1+AB,2,1.0,0.364954791721,0.0905096679919,0.44700329163344316,0.4470032822473129,optimal,0.064,"[0.189, 0.125, 0.125, 0.125, 0.061, 0.125, 0.125, 0.125]"
65,1+AB,2,1.0,0.365308089152,0.0919238815543,0.447645407062504,0.4476453993366455,optimal,0.065,"[0.19, 0.125, 0.125, 0.125, 0.06, 0.125, 0.125, 0.125]"
66,1+AB,2,1.0,0.365666514737,0.0933380951166,0.4482972077321488,0.44829719822065245,optimal,0.066,"[0.191, 0.125, 0.125, 0.125, 0.059, 0.125, 0.125, 0.125]"
67,1+AB,2,1.0,0.366030053411,0.094752308679,0.4489586995010775,0.4489586908179107,optimal,0.067,"[0.192, 0.125, 0.125, 0.125, 0.057999999999999996, 0.125, 0.125, 0.125]"
68,1+AB,2,1.0,0.366398689954,0.0961665222414,0.44962987238540875,0.44962987238243635,optimal,0.068,"[0.193, 0.125, 0.125, 0.125, 0.056999999999999995, 0.125, 0.125, 0.125]"
69,1+AB,2,1.0,0.366772408995,0.0975807358037,0.45031049948760254,0.45031049948725865,optimal,0.069,"[0.194, 0.125, 0.125, 0.125, 0.055999999999999994, 0.125, 0.125, 0.125]"
70,1+AB,2,1.0,0.367151195014,0.0989949493661,0.45100060073538395,0.4510006007346371,optimal,0.07,"[0.195, 0.125, 0.125, 0.125, 0.05499999999999999, 0.125, 0.125, 0.125]"
71,1+AB,2,1.0,0.367535032344,0.100409162928,0.4517001055691821,0.45170010556878193,optimal,0.07100000000000001,"[0.196, 0.125, 0.125, 0.125, 0.05399999999999999, 0.125, 0.125, 0.125]"
72,1+AB,2,1.0,0.367923905176,0.101823376491,0.4524089396662458,0.4524089396661193,optimal,0.07200000000000001,"[0.197, 0.125, 0.125, 0.125, 0.05299999999999999, 0.125, 0.125, 0.125]"
73,1+AB,2,1.0,0.368317797561,0.103237590053,0.4531270246495351,0.4531270246126549,optimal,0.073,"[0.198, 0.125, 0.125, 0.125, 0.052000000000000005, 0.125, 0.125, 0.125]"
74,1+AB,2,1.0,0.368716693411,0.104651803616,0.45385427954443125,0.45385427954371454,optimal,0.074,"[0.199, 0.125, 0.125, 0.125, 0.051000000000000004, 0.125, 0.125, 0.125]"
75,1+AB,2,1.0,0.369120576506,0.106066017178,0.45459061779579396,0.4545906177947371,optimal,0.075,"[0.2, 0.125, 0.125, 0.125, 0.05, 0.125, 0.125, 0.125]"
76,1+AB,2,1.0,0.369529430492,0.10748023074,0.4553358698454611,0.45533586191313813,optimal,0.076,"[0.201, 0.125, 0.125, 0.125, 0.049, 0.125, 0.125, 0.125]"
77,1+AB,2,1.0,0.369943238889,0.108894444303,0.45609018316943184,0.4560901831417649,optimal,0.077,"[0.202, 0.125, 0.125, 0.125, 0.048, 0.125, 0.125, 0.125]"
78,1+AB,2,1.0,0.37036198509,0.110308657865,0.45685321517886296,0.45685321463198375,optimal,0.078,"[0.203, 0.125, 0.125, 0.125, 0.047, 0.125, 0.125, 0.125]"
79,1+AB,2,1.0,0.370785652365,0.111722871427,0.4576249573065874,0.45762495709057244,optimal,0.079,"[0.20400000000000001, 0.125, 0.125, 0.125, 0.046, 0.125, 0.125, 0.125]"
80,1+AB,2,1.0,0.371214223865,0.11313708499,0.45840512538803146,0.4584051124762546,optimal,0.08,"[0.20500000000000002, 0.125, 0.125, 0.125, 0.045, 0.125, 0.125, 0.125]"
81,1+AB,2,1.0,0.371647682624,0.114551298552,0.45919407339246016,0.4591940698120241,optimal,0.081,"[0.20600000000000002, 0.125, 0.125, 0.125, 0.044, 0.125, 0.125, 0.125]"
82,1+AB,2,1.0,0.372086011562,0.115965512115,0.4599915500421209,0.45999154262294367,optimal,0.082,"[0.20700000000000002, 0.125, 0.125, 0.125, 0.043, 0.125, 0.125, 0.125]"
83,1+AB,2,1.0,0.372529193487,0.117379725677,0.46079869440728966,0.4607986824325717,optimal,0.083,"[0.20800000000000002, 0.125, 0.125, 0.125, 0.041999999999999996, 0.125, 0.125, 0.125]"
84,1+AB,2,1.0,0.3729772111,0.118793939239,0.46161548596619656,0.46161548201326535,optimal,0.084,"[0.20900000000000002, 0.125, 0.125, 0.125, 0.040999999999999995, 0.125, 0.125, 0.125]"
85,1+AB,2,1.0,0.373430046997,0.120208152802,0.4624412564251437,0.4624412491527444,optimal,0.085,"[0.21000000000000002, 0.125, 0.125, 0.125, 0.039999999999999994, 0.125, 0.125, 0.125]"
86,1+AB,2,1.0,0.37388768367,0.121622366364,0.46327592690773717,0.46327592391536193,optimal,0.08600000000000001,"[0.21100000000000002, 0.125, 0.125, 0.125, 0.03899999999999999, 0.125, 0.125, 0.125]"
87,1+AB,2,1.0,0.374350103513,0.123036579926,0.4641189005447033,0.46411888670151197,optimal,0.08700000000000001,"[0.21200000000000002, 0.125, 0.125, 0.125, 0.03799999999999999, 0.125, 0.125, 0.125]"
88,1+AB,2,1.0,0.374817288822,0.124450793489,0.4649702089940388,0.4649701967020641,optimal,0.088,"[0.213, 0.125, 0.125, 0.125, 0.037000000000000005, 0.125, 0.125, 0.125]"
89,1+AB,2,1.0,0.375289221801,0.125865007051,0.4658293951066684,0.46582939046552657,optimal,0.089,"[0.214, 0.125, 0.125, 0.125, 0.036000000000000004, 0.125, 0.125, 0.125]"
90,1+AB,2,1.0,0.375765884561,0.127279220614,0.4666960361141521,0.4666960299134191,optimal,0.09,"[0.215, 0.125, 0.125, 0.125, 0.035, 0.125, 0.125, 0.125]"
91,1+AB,2,1.0,0.376247259126,0.128693434176,0.46756994226225074,0.467569934896696,optimal,0.091,"[0.216, 0.125, 0.125, 0.125, 0.034, 0.125, 0.125, 0.125]"
92,1+AB,2,1.0,0.376733327435,0.130107647738,0.4684508976607831,0.4684508961902872,optimal,0.092,"[0.217, 0.125, 0.125, 0.125, 0.033, 0.125, 0.125, 0.125]"
93,1+AB,2,1.0,0.377224071342,0.131521861301,0.4693383640992743,0.4693383560739235,optimal,0.093,"[0.218, 0.125, 0.125, 0.125, 0.032, 0.125, 0.125, 0.125]"
94,1+AB,2,1.0,0.377719472625,0.132936074863,0.4702324140151714,0.47023241276863226,optimal,0.094,"[0.219, 0.125, 0.125, 0.125, 0.031, 0.125, 0.125, 0.125]"
95,1+AB,2,1.0,0.378219512982,0.134350288425,0.47113250318071725,0.4711325012690858,optimal,0.095,"[0.22, 0.125, 0.125, 0.125, 0.03, 0.125, 0.125, 0.125]"
96,1+AB,2,1.0,0.378724174037,0.135764501988,0.47203848989439684,0.4720384884677143,optimal,0.096,"[0.221, 0.125, 0.125, 0.125, 0.028999999999999998, 0.125, 0.125, 0.125]"
97,1+AB,2,1.0,0.379233437344,0.13717871555,0.47294999225842455,0.4729499826784794,optimal,0.097,"[0.222, 0.125, 0.125, 0.125, 0.027999999999999997, 0.125, 0.125, 0.125]"
98,1+AB,2,1.0,0.379747284388,0.138592929113,0.47386707454436483,0.4738670711837013,optimal,0.098,"[0.223, 0.125, 0.125, 0.125, 0.026999999999999996, 0.125, 0.125, 0.125]"
99,1+AB,2,1.0,0.380265696586,0.140007142675,0.47478926319882836,0.474789262030347,optimal,0.099,"[0.224, 0.125, 0.125, 0.125, 0.025999999999999995, 0.125, 0.125, 0.125]"
100,1+AB,2,1.0,0.380788655293,0.141421356237,0.47571636006539303,0.47571635849525246,optimal,0.1,"[0.225, 0.125, 0.125, 0.125, 0.024999999999999994, 0.125, 0.125, 0.125]"
101,1+AB,2,1.0,0.381316141804,0.1428355698,0.47664815542282724,0.47664815066560456,optimal,0.101,"[0.226, 0.125, 0.125, 0.125, 0.023999999999999994, 0.125, 0.125, 0.125]"
102,1+AB,2,1.0,0.381848137353,0.144249783362,0.47758448381223917,0.4775844792754592,optimal,0.10200000000000001,"[0.227, 0.125, 0.125, 0.125, 0.022999999999999993, 0.125, 0.125, 0.125]"
103,1+AB,2,1.0,0.382384623122,0.145663996924,0.47852519439126645,0.4785251933892208,optimal,0.10300000000000001,"[0.228, 0.125, 0.125, 0.125, 0.021999999999999992, 0.125, 0.125, 0.125]"
104,1+AB,2,1.0,0.382925580237,0.147078210487,0.47946998865849094,0.47946998805989616,optimal,0.10400000000000001,"[0.229, 0.125, 0.125, 0.125, 0.02099999999999999, 0.125, 0.125, 0.125]"
105,1+AB,2,1.0,0.383470989776,0.148492424049,0.4804186941413674,0.48041869079636956,optimal,0.105,"[0.22999999999999998, 0.125, 0.125, 0.125, 0.020000000000000004, 0.125, 0.125, 0.125]"
106,1+AB,2,1.0,0.384020832768,0.149906637612,0.48137113594351194,0.4813711271049623,optimal,0.106,"[0.23099999999999998, 0.125, 0.125, 0.125, 0.019000000000000003, 0.125, 0.125, 0.125]"
107,1+AB,2,1.0,0.384575090197,0.151320851174,0.4823273416848971,0.4823273408044985,optimal,0.107,"[0.23199999999999998, 0.125, 0.125, 0.125, 0.018000000000000002, 0.125, 0.125, 0.125]"
108,1+AB,2,1.0,0.385133743004,0.152735064736,0.48328684382802695,0.48328683886604,optimal,0.108,"[0.23299999999999998, 0.125, 0.125, 0.125, 0.017, 0.125, 0.125, 0.125]"
109,1+AB,2,1.0,0.385696772089,0.154149278299,0.4842495822390031,0.4842495692133396,optimal,0.109,"[0.23399999999999999, 0.125, 0.125, 0.125, 0.016, 0.125, 0.125, 0.125]"
110,1+AB,2,1.0,0.386264158317,0.155563491861,0.48521570259559144,0.4852156999416218,optimal,0.11,"[0.235, 0.125, 0.125, 0.125, 0.015, 0.125, 0.125, 0.125]"
111,1+AB,2,1.0,0.386835882514,0.156977705423,0.4861846834975971,0.48618468007146404,optimal,0.111,"[0.236, 0.125, 0.125, 0.125, 0.013999999999999999, 0.125, 0.125, 0.125]"
112,1+AB,2,1.0,0.387411925475,0.158391918986,0.4871565251027338,0.4871565209155383,optimal,0.112,"[0.237, 0.125, 0.125, 0.125, 0.012999999999999998, 0.125, 0.125, 0.125]"
113,1+AB,2,1.0,0.387992267964,0.159806132548,0.4881310733242724,0.4881310642891242,optimal,0.113,"[0.238, 0.125, 0.125, 0.125, 0.011999999999999997, 0.125, 0.125, 0.125]"
114,1+AB,2,1.0,0.388576890718,0.161220346111,0.4891082956382197,0.489108289089734,optimal,0.114,"[0.239, 0.125, 0.125, 0.125, 0.010999999999999996, 0.125, 0.125, 0.125]"
115,1+AB,2,1.0,0.389165774446,0.162634559673,0.4900879727244644,0.49008796105409075,optimal,0.115,"[0.24, 0.125, 0.125, 0.125, 0.009999999999999995, 0.125, 0.125, 0.125]"
116,1+AB,2,1.0,0.389758899834,0.164048773235,0.49107001924622695,0.491070005803915,optimal,0.116,"[0.241, 0.125, 0.125, 0.125, 0.008999999999999994, 0.125, 0.125, 0.125]"
117,1+AB,2,1.0,0.390356247548,0.165462986798,0.49205450471295514,0.4920545019829748,optimal,0.117,"[0.242, 0.125, 0.125, 0.125, 0.007999999999999993, 0.125, 0.125, 0.125]"
118,1+AB,2,1.0,0.390957798234,0.16687720036,0.4930410200020958,0.4930410150533446,optimal,0.11800000000000001,"[0.243, 0.125, 0.125, 0.125, 0.006999999999999992, 0.125, 0.125, 0.125]"
119,1+AB,2,1.0,0.391563532521,0.168291413922,0.4940296794477686,0.4940296780180591,optimal,0.11900000000000001,"[0.244, 0.125, 0.125, 0.125, 0.0059999999999999915, 0.125, 0.125, 0.125]"
120,1+AB,2,1.0,0.392173431023,0.169705627485,0.49502021486780384,0.49502020892618825,optimal,0.12,"[0.245, 0.125, 0.125, 0.125, 0.0050000000000000044, 0.125, 0.125, 0.125]"
121,1+AB,2,1.0,0.392787474342,0.171119841047,0.49601269032451806,0.49601268193669457,optimal,0.121,"[0.246, 0.125, 0.125, 0.125, 0.0040000000000000036, 0.125, 0.125, 0.125]"
122,1+AB,2,1.0,0.393405643071,0.17253405461,0.49700691956631676,0.4970069069633086,optimal,0.122,"[0.247, 0.125, 0.125, 0.125, 0.0030000000000000027, 0.125, 0.125, 0.125]"
123,1+AB,2,1.0,0.394027917793,0.173948268172,0.4980029867161449,0.4980029778574921,optimal,0.123,"[0.248, 0.125, 0.125, 0.125, 0.0020000000000000018, 0.125, 0.125, 0.125]"
124,1+AB,2,1.0,0.394654279085,0.175362481734,0.499000626999202,0.49900061416388336,optimal,0.124,"[0.249, 0.125, 0.125, 0.125, 0.0010000000000000009, 0.125, 0.125, 0.125]"
125,1+AB,2,1.0,0.395284707521,0.176776695297,0.49999998579486993,0.49999998214279956,optimal,0.125,"[0.25, 0.125, 0.125, 0.125, 0.0, 0.125, 0.125, 0.125]"
