Index, Level, Gleichung, 1-norm, 2-norm, varianz, primal, dual, status, eps, b
Gleichung: 1 - CHSH; 2 - 33,33; 3-44,1111; 4-44,43; 5-44,33_1; 6-44,311; 7-44,411;
0,1+AB,1,1.0,0.353553390593,0.0,0.42677669433719756,0.42677669423124287,optimal,0.0,"[0.125, 0.125, 0.125, 0.125, 0.125, 0.125, 0.125, 0.125]"
1,1+AB,1,1.0,0.353672203153,0.00916663968072,0.42682695228718764,0.4268269522748157,optimal,0.05,"[0.12788876842550709, 0.13052320611078175, 0.12652159861454712, 0.12454177472372233, 0.11879057388413569, 0.12446720420938967, 0.12343923517687792, 0.1238276388550384]"
2,1+AB,1,1.0,0.35402840159,0.0183332793614,0.42697365808814997,0.4269736580814894,optimal,0.1,"[0.1307775368510142, 0.13604641222156352, 0.12804319722909424, 0.12408354944744467, 0.11258114776827138, 0.12393440841877934, 0.12187847035375585, 0.12265527771007681]"
3,1+AB,1,1.0,0.354621270579,0.0274999190422,0.427211064354756,0.427211056208934,optimal,0.15000000000000002,"[0.13366630527652129, 0.14156961833234527, 0.12956479584364139, 0.12362532417116699, 0.10637172165240706, 0.123401612628169, 0.12031770553063377, 0.12148291656511521]"
4,1+AB,1,1.0,0.355449625866,0.0366665587229,0.42753431867145814,0.4275343185837373,optimal,0.2,"[0.13655507370202841, 0.14709282444312705, 0.13108639445818851, 0.12316709889488932, 0.10016229553654275, 0.12286881683755867, 0.11875694070751169, 0.12031055542015362]"
5,1+AB,1,1.0,0.356511825997,0.0458331984036,0.4279384627281716,0.4279384627279009,optimal,0.25,"[0.13944384212753549, 0.15261603055390879, 0.13260799307273563, 0.12270887361861166, 0.093952869420678445, 0.12233602104694834, 0.1171961758843896, 0.11913819427519204]"
6,1+AB,1,1.0,0.357805788368,0.0549998380843,0.42841931592584215,0.42841931592570803,optimal,0.30000000000000004,"[0.14233261055304261, 0.15813923666469054, 0.13412959168728275, 0.12225064834233398, 0.087743443304814123, 0.12180322525633799, 0.11563541106126753, 0.11796583313023043]"
7,1+AB,1,1.0,0.359329009222,0.064166477765,0.4289729844313754,0.42897298443065257,optimal,0.35000000000000003,"[0.1452213789785497, 0.16366244277547232, 0.13565119030182987, 0.12179242306605631, 0.081534017188949814, 0.12127042946572766, 0.11407464623814545, 0.11679347198526885]"
8,1+AB,1,1.0,0.361078587172,0.0733331174458,0.4295959335467969,0.4295959335466233,optimal,0.4,"[0.14811014740405681, 0.16918564888625406, 0.13717278891637702, 0.12133419778977864, 0.075324591073085506, 0.12073763367511733, 0.11251388141502337, 0.11562111084030725]"
9,1+AB,1,1.0,0.363051249724,0.0824997571265,0.4302849849295204,0.4302849849292678,optimal,0.45,"[0.1509989158295639, 0.17470885499703581, 0.13869438753092414, 0.12087597251350098, 0.069115164957221198, 0.120204837884507, 0.1109531165919013, 0.11444874969534566]"
10,1+AB,1,1.0,0.365243382286,0.0916663968072,0.43103732798373323,0.43103732794982214,optimal,0.5,"[0.15388768425507099, 0.18023206110781759, 0.14021598614547126, 0.1204177472372233, 0.06290573884135689, 0.11967204209389667, 0.10939235176877922, 0.11327638855038406]"
11,1+AB,1,1.0,0.367651059086,0.100833036488,0.4318505494450975,0.431850549008019,optimal,0.55,"[0.1567764526805781, 0.18575526721859933, 0.14173758476001838, 0.11995952196094563, 0.056696312725492568, 0.11913924630328633, 0.10783158694565714, 0.11210402740542247]"
12,1+AB,1,1.0,0.370270075428,0.109999676169,0.4327226899572236,0.43272268754204696,optimal,0.6000000000000001,"[0.15966522110608522, 0.19127847332938108, 0.1432591833745655, 0.11950129668466797, 0.050486886609628259, 0.118606450512676, 0.10627082212253505, 0.11093166626046087]"
13,1+AB,1,1.0,0.373095980725,0.119166315849,0.43365243309997403,0.4336524330991404,optimal,0.65,"[0.16255398953159231, 0.19680167944016286, 0.14478078198911265, 0.11904307140839029, 0.044277460493763951, 0.11807365472206567, 0.10471005729941299, 0.10975930511549928]"
14,1+AB,1,1.0,0.376124111797,0.12833295553,0.4346390978030832,0.43463909556903013,optimal,0.7000000000000001,"[0.1654427579570994, 0.20232488555094461, 0.14630238060365977, 0.11858484613211262, 0.038068034377899643, 0.11754085893145533, 0.1031492924762909, 0.10858694397053768]"
15,1+AB,1,1.0,0.379349625917,0.137499595211,0.43568331062658244,0.43568331023630325,optimal,0.75,"[0.16833152638260651, 0.20784809166172635, 0.14782397921820689, 0.11812662085583495, 0.031858608262035334, 0.117008063140845, 0.10158852765316884, 0.10741458282557609]"
16,1+AB,1,1.0,0.382767533181,0.146666234892,0.43725287004707264,0.43725286919769274,optimal,0.8,"[0.1712202948081136, 0.21337129777250813, 0.14934557783275401, 0.11766839557955729, 0.025649182146171012, 0.11647526735023467, 0.10002776283004675, 0.10624222168061451]"
17,1+AB,1,1.0,0.386372727813,0.155832874572,0.44091862965248674,0.440918619386113,optimal,0.8500000000000001,"[0.17410906323362071, 0.2188945038832899, 0.15086717644730113, 0.11721017030327961, 0.019439756030306704, 0.11594247155962434, 0.098466998006924669, 0.1050698605356529]"
18,1+AB,1,1.0,0.390160018074,0.164999514253,0.4447962824241819,0.44479628241539954,optimal,0.9,"[0.1769978316591278, 0.22441770999407162, 0.15238877506184828, 0.11675194502700194, 0.013230329914442396, 0.11540967576901401, 0.096906233183802593, 0.10389749939069132]"
19,1+AB,1,1.0,0.39412415452,0.174166153934,0.4486737778428063,0.4486737665746318,optimal,0.9500000000000001,"[0.17988660008463492, 0.2299409161048534, 0.1539103736763954, 0.11629371975072428, 0.0070209037985780876, 0.11487687997840366, 0.095345468360680516, 0.10272513824572972]"
20,1+AB,1,1.0,0.398259856393,0.183332793614,0.452551424829019,0.452551424804285,optimal,1.0,"[0.18277536851014201, 0.23546412221563515, 0.15543197229094252, 0.1158354944744466, 0.00081147768271377929, 0.11434408418779334, 0.093784703537558439, 0.10155277710076813]"
