0,1+AB,5,1.0,0.3535533905932738,0.0,0.4267766952808919,0.42677669527953704,optimal,0.0,"[0.125, 0.125, 0.125, 0.125, 0.125, 0.125, 0.125, 0.125]"
1,1+AB,5,1.0,0.35410405745130946,0.01974040281960531,0.42717190618884027,0.42717190618830325,optimal,0.05,"[0.12240582855102891, 0.12672347076473472, 0.12244603689261155, 0.13380529970859092, 0.13836936408303388, 0.11875, 0.11875, 0.11875]"
2,1+AB,5,1.0000000000000002,0.35575094379905886,0.03948080563921062,0.4283004665183334,0.4283004664765289,optimal,0.1,"[0.11981165710205782, 0.12844694152946945, 0.1198920737852231, 0.14261059941718188, 0.15173872816606776, 0.1125, 0.1125, 0.1125]"
3,1+AB,5,0.9999999999999998,0.3584789415451381,0.059221208458815934,0.4301105424882485,0.4301105424864281,optimal,0.15000000000000002,"[0.11721748565308673, 0.13017041229420415, 0.11733811067783464, 0.1514158991257728, 0.16510809224910164, 0.10625, 0.10625, 0.10625]"
4,1+AB,5,1.0,0.36226362783984334,0.07896161127842125,0.4325851883442659,0.432585188341207,optimal,0.2,"[0.11462331420411564, 0.13189388305893887, 0.1147841475704462, 0.16022119883436375, 0.17847745633213552, 0.1, 0.1, 0.1]"
5,1+AB,5,1.0,0.36707231928736744,0.09870201409802655,0.43573465209637763,0.43573464622555497,optimal,0.25,"[0.11202914275514456, 0.1336173538236736, 0.11223018446305774, 0.16902649854295468, 0.1918468204151694, 0.09375, 0.09375, 0.09375]"
6,1+AB,5,1.0,0.37286539947451564,0.11844241691763188,0.4395930450972231,0.43959304501453395,optimal,0.30000000000000004,"[0.10943497130617345, 0.13534082458840832, 0.10967622135566929, 0.17783179825154563, 0.20521618449820328, 0.0875, 0.0875, 0.0875]"
7,1+AB,5,1.0,0.3795978025101486,0.1381828197372372,0.44421663169583897,0.4442166217289219,optimal,0.35000000000000003,"[0.10684079985720236, 0.13706429535314305, 0.10712225824828084, 0.18663709796013656, 0.2185855485812372, 0.08124999999999999, 0.08124999999999999, 0.08124999999999999]"
8,1+AB,5,0.9999999999999998,0.3872205369330738,0.1579232225568425,0.44968617594280286,0.4496861737789569,optimal,0.4,"[0.10424662840823128, 0.13878776611787774, 0.10456829514089239, 0.1954423976687275, 0.23195491266427104, 0.075, 0.075, 0.075]"
9,1+AB,5,0.9999999999999999,0.39568214994096307,0.17766362537644778,0.4561091400192534,0.4561091400176922,optimal,0.45,"[0.10165245695926019, 0.14051123688261247, 0.10201433203350393, 0.2042476973773184, 0.24532427674730492, 0.06875, 0.06875, 0.06875]"
10,1+AB,5,1.0,0.4049300561183723,0.1974040281960531,0.4636265016269164,0.46362650130595195,optimal,0.5,"[0.0990582855102891, 0.1422347076473472, 0.09946036892611548, 0.21305299708590936, 0.2586936408303388, 0.0625, 0.0625, 0.0625]"
11,1+AB,5,1.0,0.4149116820735637,0.21714443101565842,0.47227103281737753,0.47227100719252263,optimal,0.55,"[0.09646411406131801, 0.14395817841208192, 0.09690640581872703, 0.2218582967945003, 0.27206300491337265, 0.056249999999999994, 0.056249999999999994, 0.056249999999999994]"
12,1+AB,5,1.0,0.42557540401339045,0.23688483383526376,0.48111401671651394,0.48111401647618174,optimal,0.6000000000000001,"[0.09386994261234691, 0.14568164917681664, 0.09435244271133858, 0.23066359650309126, 0.28543236899640656, 0.04999999999999999, 0.04999999999999999, 0.04999999999999999]"
13,1+AB,5,0.9999999999999998,0.43687127633682615,0.2566252366548691,0.4899568515016043,0.4899568512453992,optimal,0.65,"[0.09127577116337582, 0.14740511994155134, 0.09179847960395013, 0.23946889621168216, 0.29880173307944047, 0.04375, 0.04375, 0.04375]"
14,1+AB,5,0.9999999999999999,0.44875156454561266,0.2763656394744744,0.49879968692273924,0.4987996867612177,optimal,0.7000000000000001,"[0.08868159971440473, 0.14912859070628606, 0.08924451649656168, 0.2482741959202731, 0.3121710971624744, 0.03749999999999999, 0.03749999999999999, 0.03749999999999999]"
15,1+AB,5,0.9999999999999998,0.46117110521265664,0.2961060422940796,0.5076425226546238,0.5076425226455076,optimal,0.75,"[0.08608742826543364, 0.1508520614710208, 0.08669055338917324, 0.257079495628864, 0.3255404612455082, 0.03125, 0.03125, 0.03125]"
16,1+AB,5,1.0,0.4740875202860248,0.315846445113685,0.51648532857542,0.5164853228104975,optimal,0.8,"[0.08349325681646255, 0.1525755322357555, 0.08413659028178477, 0.265884795337455, 0.3389098253285421, 0.024999999999999994, 0.024999999999999994, 0.024999999999999994]"
17,1+AB,5,1.0,0.4874613138555729,0.3355868479332903,0.5253281871218157,0.5253281861145508,optimal,0.8500000000000001,"[0.08089908536749146, 0.15429900300049024, 0.08158262717439632, 0.2746900950460459, 0.352279189411576, 0.01874999999999999, 0.01874999999999999, 0.01874999999999999]"
18,1+AB,5,0.9999999999999998,0.5012558778983157,0.35532725075289556,0.5341708901661376,0.5341708686645635,optimal,0.9,"[0.07830491391852037, 0.15602247376522493, 0.07902866406700788, 0.2834953947546368, 0.36564855349460984, 0.012499999999999997, 0.012499999999999997, 0.012499999999999997]"
19,1+AB,5,0.9999999999999999,0.5154374304960609,0.37506765357250094,0.5430138620475543,0.5430138620388923,optimal,0.9500000000000001,"[0.07571074246954929, 0.15774594452995966, 0.07647470095961942, 0.2923006944632278, 0.37901791757764375, 0.006249999999999992, 0.006249999999999992, 0.006249999999999992]"
20,1+AB,5,0.9999999999999999,0.5299749063796441,0.3948080563921062,0.5518566969485843,0.5518566969474099,optimal,1.0,"[0.0731165710205782, 0.15946941529469438, 0.07392073785223098, 0.3011059941718187, 0.3923872816606776, 0.0, 0.0, 0.0]"
