Index, Level, Gleichung, 1-norm, 2-norm, varianz, primal, dual, status, eps, b
Gleichung: 1 - CHSH; 2 - 33,33; 3-44,1111; 4-44,43; 5-44,33_1; 6-44,311; 7-44,411; 8-43,311; 9-411,33; 10-43,43_1; 11-43,411; 12-43,33_1; 13-43,33_2; 14-44,33_2; 15-43,43_2
0,1+AB,1,1.0,0.353553390593,0.0,0.42677669433719756,0.42677669423124287,optimal,0.0,"[0.125, 0.125, 0.125, 0.125, 0.125, 0.125, 0.125, 0.125]"
1,1+AB,1,1.0,0.353609252426,0.0062851731472,0.42679834155255,0.42679833144579205,optimal,0.02,"[0.1225, 0.1225, 0.12816323321749623, 0.12488397632872507, 0.12527778304844284, 0.1261022654648925, 0.12807274194044332, 0.1225]"
2,1+AB,1,1.0,0.353776785001,0.0125703462944,0.4268616813519121,0.42686168134904745,optimal,0.04,"[0.12, 0.12, 0.13132646643499246, 0.12476795265745014, 0.1255555660968857, 0.12720453092978504, 0.13114548388088668, 0.12]"
3,1+AB,1,1.0,0.354055829797,0.0188555194416,0.4269638123618221,0.4269638120839264,optimal,0.06,"[0.1175, 0.1175, 0.13448969965248869, 0.12465192898617521, 0.12583334914532854, 0.12830679639467754, 0.13421822582133, 0.1175]"
4,1+AB,1,1.0,0.354446123443,0.0251406925888,0.4271024701123398,0.42710246454299755,optimal,0.08,"[0.115, 0.115, 0.13765293286998492, 0.12453590531490027, 0.1261111321937714, 0.12940906185957007, 0.13729096776177332, 0.115]"
5,1+AB,1,1.0,0.354947298958,0.031425865736,0.4272757836011839,0.4272757835996791,optimal,0.1,"[0.1125, 0.1125, 0.14081616608748118, 0.12441988164362534, 0.12638891524221424, 0.13051132732446258, 0.14036370970221665, 0.1125]"
6,1+AB,1,1.0,0.355558887463,0.0377110388832,0.42748181742505903,0.42748181742165103,optimal,0.12,"[0.11, 0.11, 0.14397939930497741, 0.12430385797235041, 0.12666669829065708, 0.13161359278935511, 0.14343645164266, 0.11]"
7,1+AB,1,1.0,0.356280320356,0.0439962120304,0.42771906156614053,0.4277190615390071,optimal,0.14,"[0.1075, 0.1075, 0.14714263252247364, 0.12418783430107547, 0.12694448133909994, 0.13271585825424762, 0.14650919358310333, 0.1075]"
8,1+AB,1,1.0,0.357110931918,0.0502813851776,0.4279860849987317,0.42798607856295956,optimal,0.16,"[0.105, 0.105, 0.15030586573996987, 0.12407181062980054, 0.12722226438754278, 0.13381812371914015, 0.14958193552354665, 0.105]"
9,1+AB,1,1.0,0.358049962325,0.0565665583248,0.42828182125486614,0.42828181840158686,optimal,0.18,"[0.10250000000000001, 0.10250000000000001, 0.1534690989574661, 0.1239557869585256, 0.12750004743598561, 0.13492038918403265, 0.15265467746398997, 0.10250000000000001]"
10,1+AB,1,1.0,0.359096561038,0.062851731472,0.4286051161221274,0.42860511588040845,optimal,0.2,"[0.1, 0.1, 0.15663233217496234, 0.12383976328725067, 0.12777783048442848, 0.13602265464892518, 0.15572741940443333, 0.1]"
11,1+AB,1,1.0,0.360249790535,0.0691369046191,0.42895497856094844,0.42895497311644154,optimal,0.22,"[0.0975, 0.0975, 0.15979556539245857, 0.12372373961597574, 0.12805561353287132, 0.13712492011381769, 0.15880016134487665, 0.0975]"
12,1+AB,1,1.0,0.361508630346,0.0754220777663,0.42933077220866067,0.4293307722015761,optimal,0.24,"[0.095, 0.095, 0.16295879860995482, 0.12360771594470081, 0.12833339658131418, 0.13822718557871022, 0.16187290328531997, 0.095]"
13,1+AB,1,1.0,0.362871981354,0.0817072509135,0.42973165202071156,0.4297316520093121,optimal,0.26,"[0.0925, 0.0925, 0.16612203182745106, 0.12349169227342588, 0.12861117962975702, 0.13932945104360273, 0.16494564522576333, 0.0925]"
14,1+AB,1,1.0,0.364338670322,0.0879924240607,0.4301570735238796,0.43015707351773774,optimal,0.28,"[0.09, 0.09, 0.16928526504494729, 0.12337566860215095, 0.12888896267819985, 0.14043171650849526, 0.16801838716620665, 0.09]"
15,1+AB,1,1.0,0.365907454605,0.0942775972079,0.4306064304407829,0.43060641976528946,optimal,0.3,"[0.0875, 0.0875, 0.17244849826244352, 0.12325964493087602, 0.12916674572664272, 0.14153398197338776, 0.17109112910664998, 0.0875]"
16,1+AB,1,1.0,0.367577027005,0.100562770355,0.43107962226781144,0.43107962226605845,optimal,0.32,"[0.08499999999999999, 0.08499999999999999, 0.17561173147993975, 0.12314362125960109, 0.12944452877508555, 0.14263624743828029, 0.1741638710470933, 0.08499999999999999]"
17,1+AB,1,1.0,0.369346020732,0.106847943502,0.4315759060813903,0.43157589642835886,optimal,0.34,"[0.08249999999999999, 0.08249999999999999, 0.17877496469743598, 0.12302759758832615, 0.12972231182352839, 0.1437385129031728, 0.17723661298753665, 0.08249999999999999]"
18,1+AB,1,1.0,0.371213014431,0.11313311665,0.43209541913205574,0.432095418899684,optimal,0.36,"[0.08, 0.08, 0.18193819791493221, 0.12291157391705122, 0.13000009487197126, 0.14484077836806533, 0.18030935492797998, 0.08]"
19,1+AB,1,1.0,0.373176537229,0.119418289797,0.4326376969504908,0.43263769694967996,optimal,0.38,"[0.0775, 0.0775, 0.18510143113242844, 0.12279555024577628, 0.13027787792041409, 0.14594304383295784, 0.1833820968684233, 0.0775]"
20,1+AB,1,1.0,0.375235073782,0.125703462944,0.43320272028638884,0.4332027202854893,optimal,0.4,"[0.075, 0.075, 0.18826466434992467, 0.12267952657450135, 0.13055566096885696, 0.14704530929785037, 0.18645483880886665, 0.075]"
21,1+AB,1,1.0,0.377387069277,0.131988636091,0.4337904506692489,0.43379045066658495,optimal,0.42,"[0.07250000000000001, 0.07250000000000001, 0.1914278975674209, 0.12256350290322642, 0.13083344401729979, 0.14814757476274287, 0.18952758074930998, 0.07250000000000001]"
22,1+AB,1,1.0,0.379630934358,0.138273809238,0.43440091372360135,0.4344009135543217,optimal,0.44,"[0.07, 0.07, 0.19459113078491713, 0.12244747923195148, 0.13111122706574263, 0.14924984022763541, 0.1926003226897533, 0.07]"
23,1+AB,1,1.0,0.381965049957,0.144558982385,0.4350342085243366,0.4350342085227356,optimal,0.46,"[0.0675, 0.0675, 0.19775436400241339, 0.12233145556067655, 0.13138901011418549, 0.15035210569252791, 0.19567306463019662, 0.0675]"
24,1+AB,1,1.0,0.384387771994,0.150844155533,0.43569049086072165,0.4356904908606043,optimal,0.48,"[0.065, 0.065, 0.20091759721990962, 0.12221543188940162, 0.13166679316262833, 0.15145437115742044, 0.19874580657063995, 0.065]"
25,1+AB,1,1.0,0.386897435933,0.15712932868,0.43636998604653815,0.4363699856595984,optimal,0.5,"[0.0625, 0.0625, 0.20408083043740585, 0.12209940821812669, 0.1319445762110712, 0.15255663662231295, 0.2018185485110833, 0.0625]"
26,1+AB,1,1.0,0.389492361167,0.163414501827,0.4370730007743769,0.43707300073271355,optimal,0.52,"[0.06, 0.06, 0.20724406365490208, 0.12198338454685176, 0.13222235925951403, 0.15365890208720545, 0.20489129045152665, 0.06]"
27,1+AB,1,1.0,0.392170855223,0.169699674974,0.437799888152227,0.4377998880861858,optimal,0.54,"[0.057499999999999996, 0.057499999999999996, 0.21040729687239834, 0.12186736087557683, 0.13250014230795687, 0.15476116755209798, 0.20796403239196998, 0.057499999999999996]"
28,1+AB,1,1.0,0.394931217769,0.175984848121,0.43855108747626803,0.4385510873988235,optimal,0.56,"[0.05499999999999999, 0.05499999999999999, 0.21357053008989457, 0.1217513372043019, 0.13277792535639973, 0.15586343301699052, 0.2110367743324133, 0.05499999999999999]"
29,1+AB,1,1.0,0.397771744413,0.182270021269,0.4393271074810451,0.43932710740493486,optimal,0.58,"[0.052500000000000005, 0.052500000000000005, 0.2167337633073908, 0.12163531353302696, 0.13305570840484257, 0.15696569848188302, 0.21410951627285663, 0.052500000000000005]"
30,1+AB,1,1.0,0.400690730291,0.188555194416,0.44012847146565137,0.44012846502713143,optimal,0.6,"[0.05, 0.05, 0.21989699652488703, 0.12151928986175203, 0.13333349145328541, 0.15806796394677552, 0.21718225821329995, 0.05]"
31,1+AB,1,1.0,0.403686473432,0.194840367563,0.4409560311994269,0.44095603114459114,optimal,0.62,"[0.0475, 0.0475, 0.22306022974238326, 0.1214032661904771, 0.13361127450172827, 0.15917022941166806, 0.22025500015374327, 0.0475]"
32,1+AB,1,1.0,0.406757277902,0.20112554071,0.44181030253343395,0.44181029738586886,optimal,0.64,"[0.045, 0.045, 0.2262234629598795, 0.12128724251920216, 0.13388905755017111, 0.16027249487656059, 0.22332774209418663, 0.045]"
33,1+AB,1,1.0,0.409901456722,0.207410713857,0.4426923334694016,0.4426923334679602,optimal,0.66,"[0.042499999999999996, 0.042499999999999996, 0.22938669617737573, 0.12117121884792723, 0.13416684059861397, 0.16137476034145309, 0.22640048403462998, 0.042499999999999996]"
34,1+AB,1,1.0,0.413117334571,0.213695887005,0.44360291463324303,0.4436029146294569,optimal,0.68,"[0.039999999999999994, 0.039999999999999994, 0.23254992939487196, 0.12105519517665229, 0.13444462364705681, 0.1624770258063456, 0.2294732259750733, 0.039999999999999994]"
35,1+AB,1,1.0,0.416403250258,0.219981060152,0.4445431343553897,0.4445431343517652,optimal,0.7000000000000001,"[0.03749999999999999, 0.03749999999999999, 0.23571316261236819, 0.12093917150537736, 0.13472240669549965, 0.16357929127123813, 0.23254596791551663, 0.03749999999999999]"
36,1+AB,1,1.0,0.419757558992,0.226266233299,0.445514143063361,0.44551414305292925,optimal,0.72,"[0.035, 0.035, 0.23887639582986442, 0.12082314783410243, 0.13500018974394251, 0.16468155673613064, 0.23561870985595995, 0.035]"
37,1+AB,1,1.0,0.423178634432,0.232551406446,0.4465172115221406,0.4465172115163692,optimal,0.74,"[0.0325, 0.0325, 0.24203962904736065, 0.1207071241628275, 0.13527797279238535, 0.16578382220102317, 0.23869145179640328, 0.0325]"
38,1+AB,1,1.0,0.426664870539,0.238836579593,0.4475537395581285,0.44755373942112286,optimal,0.76,"[0.03, 0.03, 0.24520286226485688, 0.12059110049155257, 0.13555575584082818, 0.16688608766591567, 0.2417641937368466, 0.03]"
39,1+AB,1,1.0,0.43021468323,0.245121752741,0.4486252629025309,0.44862526181165396,optimal,0.78,"[0.027499999999999997, 0.027499999999999997, 0.24836609548235314, 0.12047507682027764, 0.13583353888927105, 0.1679883531308082, 0.24483693567728995, 0.027499999999999997]"
40,1+AB,1,1.0,0.43382651185,0.251406925888,0.4497334921980631,0.449733490187731,optimal,0.8,"[0.024999999999999994, 0.024999999999999994, 0.25152932869984934, 0.12035905314900271, 0.13611132193771389, 0.16909061859570071, 0.2479096776177333, 0.024999999999999994]"
41,1+AB,1,1.0,0.437498820461,0.257692099035,0.4508803267313144,0.45088032671822265,optimal,0.8200000000000001,"[0.022499999999999992, 0.022499999999999992, 0.25469256191734557, 0.12024302947772778, 0.13638910498615675, 0.17019288406059324, 0.25098241955817663, 0.022499999999999992]"
42,1+AB,1,1.0,0.441230098961,0.263977272182,0.45206776468486387,0.45206776347049255,optimal,0.84,"[0.020000000000000004, 0.020000000000000004, 0.2578557951348418, 0.12012700580645284, 0.13666688803459959, 0.17129514952548575, 0.25405516149861995, 0.020000000000000004]"
43,1+AB,1,1.0,0.445018864044,0.270262445329,0.45329812878557185,0.45329812818472276,optimal,0.86,"[0.0175, 0.0175, 0.26101902835233803, 0.12001098213517791, 0.13694467108304242, 0.17239741499037825, 0.25712790343906328, 0.0175]"
44,1+AB,1,1.0,0.448863660018,0.276547618477,0.4545739015320881,0.4545739015296604,optimal,0.88,"[0.015, 0.015, 0.26418226156983426, 0.11989495846390297, 0.13722245413148529, 0.17349968045527078, 0.2602006453795066, 0.015]"
45,1+AB,1,1.0,0.452763059467,0.282832791624,0.4558978409296716,0.4558978409045446,optimal,0.9,"[0.012499999999999997, 0.012499999999999997, 0.26734549478733055, 0.11977893479262804, 0.13750023717992813, 0.17460194592016332, 0.26327338731994998, 0.012499999999999997]"
46,1+AB,1,1.0,0.456715663792,0.289117964771,0.45727300530877213,0.4572730052407711,optimal,0.92,"[0.009999999999999995, 0.009999999999999995, 0.27050872800482678, 0.1196629111213531, 0.13777802022837099, 0.17570421138505582, 0.26634612926039325, 0.009999999999999995]"
47,1+AB,1,1.0,0.460720103633,0.295403137918,0.4587027738057869,0.45870277377695506,optimal,0.9400000000000001,"[0.007499999999999993, 0.007499999999999993, 0.27367196122232301, 0.11954688745007817, 0.13805580327681383, 0.17680647684994835, 0.26941887120083663, 0.007499999999999993]"
48,1+AB,1,1.0,0.464775039168,0.301688311065,0.4601908041852514,0.4601907958606343,optimal,0.96,"[0.0050000000000000044, 0.0050000000000000044, 0.27683519443981924, 0.11943086377880324, 0.13833358632525666, 0.17790874231484086, 0.2724916131412799, 0.0050000000000000044]"
49,1+AB,1,1.0,0.468879160315,0.307973484213,0.4617414878775585,0.4617414853830943,optimal,0.98,"[0.0025000000000000022, 0.0025000000000000022, 0.27999842765731547, 0.11931484010752831, 0.13861136937369953, 0.17901100777973339, 0.27556435508172328, 0.0025000000000000022]"
50,1+AB,1,1.0,0.473031186842,0.31425865736,0.4633592575271435,0.46335925552842555,optimal,1.0,"[0.0, 0.0, 0.2831616608748117, 0.11919881643625338, 0.13888915242214236, 0.18011327324462589, 0.2786370970221666, 0.0]"
