Index, Level, Gleichung, 1-norm, 2-norm, varianz, primal, dual, status, eps, b
Gleichung: 1 - CHSH; 2 - 33,33; 3-44,1111; 4-44,43; 5-44,33_1; 6-44,311; 7-44,411; 8-43,311; 9-411,33; 10-43,43_1; 11-43,411; 12-43,33_1; 13-43,33_2; 14-44,33_2; 15-43,43_2
0,1+AB,3,1.0,0.353553390593,0.0,0.42677669528951856,0.42677669528914186,optimal,0.0,"[0.125, 0.125, 0.125, 0.125, 0.125, 0.125, 0.125, 0.125]"
1,1+AB,3,1.0,0.353602235413,0.00587714975008,0.4268035845383061,0.4268035722159663,optimal,0.02,"[0.1225, 0.1225, 0.12751828084722933, 0.12752306440211919, 0.1249965409837737, 0.1263927397779406, 0.12606937398893719, 0.1225]"
2,1+AB,3,1.0,0.353748729407,0.0117542995002,0.4268815461739611,0.4268815359378254,optimal,0.04,"[0.12, 0.12, 0.13003656169445868, 0.13004612880423835, 0.12499308196754742, 0.12778547955588118, 0.12713874797787436, 0.12]"
3,1+AB,3,1.0,0.353992751342,0.0176314492502,0.4270063816810028,0.42700638167840627,optimal,0.06,"[0.1175, 0.1175, 0.13255484254168801, 0.13256919320635754, 0.12498962295132113, 0.12917821933382179, 0.12820812196681156, 0.1175]"
4,1+AB,3,1.0,0.354334099724,0.0235085990003,0.4271742798694944,0.42717427986333956,optimal,0.08,"[0.115, 0.115, 0.13507312338891733, 0.13509225760847673, 0.12498616393509485, 0.13057095911176236, 0.12927749595574872, 0.115]"
5,1+AB,3,1.0,0.35477249362,0.0293857487504,0.4273821061350139,0.42738210613385635,optimal,0.1,"[0.1125, 0.1125, 0.13759140423614666, 0.13761532201059593, 0.12498270491886855, 0.13196369888970297, 0.13034686994468592, 0.1125]"
6,1+AB,3,1.0,0.355307573815,0.0352628985005,0.42762698804271626,0.4276269878827241,optimal,0.12,"[0.11, 0.11, 0.14010968508337601, 0.14013838641271509, 0.12497924590264227, 0.13335643866764357, 0.13141624393362308, 0.11]"
7,1+AB,3,1.0,0.355938904266,0.0411400482505,0.42790636336364113,0.4279063633470552,optimal,0.14,"[0.1075, 0.1075, 0.14262796593060534, 0.14266145081483428, 0.12497578688641597, 0.13474917844558415, 0.13248561792256028, 0.1075]"
8,1+AB,3,1.0,0.356665973858,0.0470171980006,0.42821792305046663,0.4282179230413548,optimal,0.16,"[0.105, 0.105, 0.14514624677783466, 0.14518451521695347, 0.12497232787018969, 0.13614191822352475, 0.13355499191149744, 0.105]"
9,1+AB,3,1.0,0.35748819844,0.0528943477507,0.4285595906088151,0.42855959059473697,optimal,0.18,"[0.10250000000000001, 0.10250000000000001, 0.14766452762506399, 0.14770757961907266, 0.1249688688539634, 0.13753465800146536, 0.13462436590043464, 0.10250000000000001]"
10,1+AB,3,1.0,0.358404923123,0.0587714975008,0.4289294868748877,0.4289294868700521,optimal,0.2,"[0.1, 0.1, 0.15018280847229334, 0.15023064402119182, 0.1249654098377371, 0.13892739777940594, 0.13569373988937181, 0.1]"
11,1+AB,3,1.0,0.35941542481,0.0646486472508,0.42932590616121385,0.42932590615861543,optimal,0.22,"[0.0975, 0.0975, 0.15270108931952267, 0.15275370842331101, 0.12496195082151082, 0.14032013755734654, 0.136763113878309, 0.0975]"
12,1+AB,3,1.0,0.360518914958,0.0705257970009,0.4297472956231475,0.42974729553350555,optimal,0.24,"[0.095, 0.095, 0.155219370166752, 0.1552767728254302, 0.12495849180528452, 0.14171287733528712, 0.13783248786724617, 0.095]"
13,1+AB,3,1.0,0.361714542522,0.076402946751,0.43019223112880883,0.43019222992706047,optimal,0.26,"[0.0925, 0.0925, 0.15773765101398135, 0.15779983722754937, 0.12495503278905824, 0.14310561711322772, 0.13890186185618336, 0.0925]"
14,1+AB,3,1.0,0.363001397078,0.0822800965011,0.43065944716635746,0.4306594471658652,optimal,0.28,"[0.09, 0.09, 0.16025593186121068, 0.16032290162966856, 0.12495157377283195, 0.14449835689116833, 0.13997123584512053, 0.09]"
15,1+AB,3,1.0,0.364378512081,0.0881572462512,0.43114772571596366,0.431147725714938,optimal,0.3,"[0.0875, 0.0875, 0.16277421270844, 0.16284596603178775, 0.12494811475660567, 0.14589109666910891, 0.14104060983405772, 0.0875]"
16,1+AB,3,1.0,0.365844868259,0.0940343960012,0.431655987775615,0.4316559877750532,optimal,0.32,"[0.08499999999999999, 0.08499999999999999, 0.16529249355566933, 0.16536903043390694, 0.12494465574037937, 0.14728383644704951, 0.14210998382299489, 0.08499999999999999]"
17,1+AB,3,1.0,0.36739939708,0.0999115457513,0.4321832310006104,0.43218323099601574,optimal,0.34,"[0.08249999999999999, 0.08249999999999999, 0.16781077440289868, 0.1678920948360261, 0.12494119672415308, 0.14867657622499011, 0.14317935781193208, 0.08249999999999999]"
18,1+AB,3,1.0,0.369040984304,0.105788695501,0.4327285322287272,0.4327285322265099,optimal,0.36,"[0.08, 0.08, 0.17032905525012801, 0.17041515923814529, 0.12493773770792679, 0.15006931600293069, 0.14424873180086925, 0.08]"
19,1+AB,3,1.0,0.370768473573,0.111665845251,0.4332910396742995,0.43329103966707405,optimal,0.38,"[0.0775, 0.0775, 0.17284733609735733, 0.17293822364026448, 0.1249342786917005, 0.1514620557808713, 0.14531810578980645, 0.0775]"
20,1+AB,3,1.0,0.372580670022,0.117542995002,0.4338699670669695,0.4338699670668504,optimal,0.4,"[0.075, 0.075, 0.17536561694458669, 0.17546128804238365, 0.12493081967547422, 0.15285479555881187, 0.14638747977874361, 0.075]"
21,1+AB,3,1.0,0.374476343886,0.123420144752,0.43446458719570447,0.4344645871956457,optimal,0.42,"[0.07250000000000001, 0.07250000000000001, 0.17788389779181601, 0.17798435244450284, 0.12492736065924792, 0.15424753533675248, 0.14745685376768081, 0.07250000000000001]"
22,1+AB,3,1.0,0.376454234092,0.129297294502,0.43507422754324926,0.4350742275428089,optimal,0.44,"[0.07, 0.07, 0.18040217863904534, 0.18050741684662203, 0.12492390164302164, 0.15564027511469308, 0.148526227756618, 0.07]"
23,1+AB,3,1.0,0.378513051794,0.135174444252,0.4356982654579615,0.43569826545369755,optimal,0.46,"[0.0675, 0.0675, 0.18292045948627467, 0.18303048124874122, 0.12492044262679534, 0.15703301489263366, 0.14959560174555517, 0.0675]"
24,1+AB,3,1.0,0.380651483867,0.141051594002,0.4363361140539016,0.4363361128907092,optimal,0.48,"[0.065, 0.065, 0.18543874033350402, 0.18555354565086038, 0.12491698361056906, 0.15842575467057426, 0.15066497573449233, 0.065]"
25,1+AB,3,1.0,0.382868196303,0.146928743752,0.43698727024442674,0.4369872702425909,optimal,0.5,"[0.0625, 0.0625, 0.18795702118073335, 0.18807661005297957, 0.12491352459434277, 0.15981849444851487, 0.15173434972342953, 0.0625]"
26,1+AB,3,1.0,0.385161837529,0.152805893502,0.4376511762509117,0.4376511728070371,optimal,0.52,"[0.06, 0.06, 0.1904753020279627, 0.19059967445509876, 0.12491006557811647, 0.16121123422645545, 0.15280372371236672, 0.06]"
27,1+AB,3,1.0,0.387531041616,0.158683043252,0.4383274800906631,0.43832748008839045,optimal,0.54,"[0.057499999999999996, 0.057499999999999996, 0.19299358287519203, 0.19312273885721792, 0.12490660656189019, 0.16260397400439605, 0.15387309770130389, 0.057499999999999996]"
28,1+AB,3,1.0,0.389974431368,0.164560193002,0.4390156618670184,0.43901566186113666,optimal,0.56,"[0.05499999999999999, 0.05499999999999999, 0.19551186372242135, 0.19564580325933711, 0.1249031475456639, 0.16399671378233666, 0.15494247169024108, 0.05499999999999999]"
29,1+AB,3,1.0,0.392490621295,0.170437342752,0.4397153614174216,0.4397153614102969,optimal,0.58,"[0.052500000000000005, 0.052500000000000005, 0.19803014456965068, 0.1981688676614563, 0.12489968852943761, 0.16538945356027723, 0.15601184567917825, 0.052500000000000005]"
30,1+AB,3,1.0,0.39507822044,0.176314492502,0.44042621653511993,0.44042621652997666,optimal,0.6,"[0.05, 0.05, 0.20054842541688001, 0.2006919320635755, 0.12489622951321132, 0.16678219333821781, 0.15708121966811545, 0.05]"
31,1+AB,3,1.0,0.39773583508,0.182191642252,0.44114789299929374,0.44114789297843676,optimal,0.62,"[0.0475, 0.0475, 0.20306670626410933, 0.20321499646569469, 0.12489277049698504, 0.16817493311615841, 0.15815059365705261, 0.0475]"
32,1+AB,3,1.0,0.400462071269,0.188068792002,0.441880082877903,0.4418800827612094,optimal,0.64,"[0.045, 0.045, 0.20558498711133869, 0.20573806086781385, 0.12488931148075874, 0.16956767289409902, 0.15921996764598981, 0.045]"
33,1+AB,3,1.0,0.403255537249,0.193945941753,0.4426225050813714,0.4426225048899725,optimal,0.66,"[0.042499999999999996, 0.042499999999999996, 0.20810326795856804, 0.20826112526993304, 0.12488585246453246, 0.1709604126720396, 0.16028934163492697, 0.042499999999999996]"
34,1+AB,3,1.0,0.4061148457,0.199823091503,0.44337490287533526,0.443374902752027,optimal,0.68,"[0.039999999999999994, 0.039999999999999994, 0.21062154880579737, 0.2107841896720522, 0.12488239344830616, 0.1723531524499802, 0.16135871562386417, 0.039999999999999994]"
35,1+AB,3,1.0,0.409038615844,0.205700241253,0.4441370399711921,0.4441370398965216,optimal,0.7000000000000001,"[0.03749999999999999, 0.03749999999999999, 0.21313982965302669, 0.21330725407417139, 0.12487893443207987, 0.17374589222792081, 0.16242808961280134, 0.03749999999999999]"
36,1+AB,3,1.0,0.412025475406,0.211577391003,0.44490869869657984,0.4449086980969403,optimal,0.72,"[0.035, 0.035, 0.21565811050025602, 0.21583031847629058, 0.12487547541585359, 0.17513863200586138, 0.16349746360173853, 0.035]"
37,1+AB,3,1.0,0.41507406242,0.217454540753,0.4456896992755022,0.44568969890169785,optimal,0.74,"[0.0325, 0.0325, 0.21817639134748534, 0.21835338287840977, 0.12487201639962729, 0.17653137178380199, 0.1645668375906757, 0.0325]"
38,1+AB,3,1.0,0.418183026895,0.223331690503,0.44647986782488536,0.4464798678107357,optimal,0.76,"[0.03, 0.03, 0.22069467219471467, 0.22087644728052896, 0.12486855738340101, 0.17792411156174259, 0.16563621157961289, 0.03]"
39,1+AB,3,1.0,0.421351032335,0.229208840253,0.44727902393850905,0.44727902134527225,optimal,0.78,"[0.027499999999999997, 0.027499999999999997, 0.22321295304194402, 0.22339951168264813, 0.12486509836717471, 0.17931685133968317, 0.16670558556855006, 0.027499999999999997]"
40,1+AB,3,1.0,0.424576757131,0.235085990003,0.44808704789311876,0.44808704095603435,optimal,0.8,"[0.024999999999999994, 0.024999999999999994, 0.22573123388917338, 0.22592257608476732, 0.12486163935094843, 0.18070959111762377, 0.16777495955748725, 0.024999999999999994]"
41,1+AB,3,1.0,0.427858895805,0.240963139753,0.44890387068260273,0.4489038630513312,optimal,0.8200000000000001,"[0.022499999999999992, 0.022499999999999992, 0.2282495147364027, 0.22844564048688651, 0.12485818033472214, 0.18210233089556438, 0.16884433354642442, 0.022499999999999992]"
42,1+AB,3,1.0,0.431196160143,0.246840289503,0.4497294413520592,0.4497294373256983,optimal,0.84,"[0.020000000000000004, 0.020000000000000004, 0.23076779558363203, 0.23096870488900567, 0.12485472131849584, 0.18349507067350496, 0.16991370753536161, 0.020000000000000004]"
43,1+AB,3,1.0,0.43458728019,0.252717439253,0.45056352677244244,0.450563517910462,optimal,0.86,"[0.0175, 0.0175, 0.23328607643086136, 0.23349176929112486, 0.12485126230226956, 0.18488781045144556, 0.17098308152429878, 0.0175]"
44,1+AB,3,1.0,0.438031005138,0.258594589003,0.45140634209451447,0.4514063420874115,optimal,0.88,"[0.015, 0.015, 0.23580435727809068, 0.23601483369324405, 0.12484780328604327, 0.18628055022938614, 0.17205245551323597, 0.015]"
45,1+AB,3,1.0,0.441526104097,0.264471738753,0.45225757668349137,0.45225757541607214,optimal,0.9,"[0.012499999999999997, 0.012499999999999997, 0.23832263812532001, 0.23853789809536324, 0.12484434426981698, 0.18767329000732674, 0.17312182950217314, 0.012499999999999997]"
46,1+AB,3,1.0,0.445071366766,0.270348888504,0.4531173364857198,0.45311733371892315,optimal,0.92,"[0.009999999999999995, 0.009999999999999995, 0.24084091897254936, 0.24106096249748243, 0.12484088525359069, 0.18906602978526732, 0.17419120349111034, 0.009999999999999995]"
47,1+AB,3,1.0,0.448665603996,0.276226038254,0.4539856817443782,0.45398568171410286,optimal,0.9400000000000001,"[0.007499999999999993, 0.007499999999999993, 0.24335919981977872, 0.2435840268996016, 0.12483742623736441, 0.19045876956320795, 0.17526057748004753, 0.007499999999999993]"
48,1+AB,3,1.0,0.452307648268,0.282103188004,0.45486255706563344,0.45486255472455434,optimal,0.96,"[0.0050000000000000044, 0.0050000000000000044, 0.24587748066700804, 0.24610709130172076, 0.12483396722113811, 0.19185150934114853, 0.1763299514689847, 0.0050000000000000044]"
49,1+AB,3,1.0,0.455996354078,0.287980337754,0.45574810351559303,0.4557481029381248,optimal,0.98,"[0.0025000000000000022, 0.0025000000000000022, 0.24839576151423737, 0.24863015570383995, 0.12483050820491183, 0.19324424911908911, 0.17739932545792186, 0.0025000000000000022]"
50,1+AB,3,1.0,0.459730598244,0.293857487504,0.4566423506287547,0.4566423462146161,optimal,1.0,"[0.0, 0.0, 0.25091404236146669, 0.25115322010595914, 0.12482704918868553, 0.19463698889702971, 0.17846869944685906, 0.0]"
