Index, Level, Gleichung, 1-norm, 2-norm, varianz, primal, dual, status, eps, b
Gleichung: 1 - CHSH, 2 - 33,33, 3-44,1111
0,1+AB,1,1.0,0.353553390593,0.0,0.42677669433719756,0.42677669423124287,optimal,0.0,"[0.125, 0.125, 0.125, 0.125, 0.125, 0.125, 0.125, 0.125]"
1,1+AB,1,0.9999999999999999,0.353700673828,0.0102062072616,0.4268537813693657,0.4268537813675908,optimal,0.05,"[0.11875, 0.11875, 0.12708333333333333, 0.12708333333333333, 0.12708333333333333, 0.12708333333333333, 0.12708333333333333, 0.12708333333333333]"
2,1+AB,1,1.0,0.354142156015,0.0204124145232,0.42710003859393797,0.4271000289948055,optimal,0.1,"[0.1125, 0.1125, 0.12916666666666668, 0.12916666666666668, 0.12916666666666668, 0.12916666666666668, 0.12916666666666668, 0.12916666666666668]"
3,1+AB,1,0.9999999999999999,0.354876739164,0.0306186217848,0.42754193776667393,0.4275419377560032,optimal,0.15000000000000002,"[0.10625, 0.10625, 0.13125, 0.13125, 0.13125, 0.13125, 0.13125, 0.13125]"
4,1+AB,1,0.9999999999999999,0.355902608401,0.0408248290464,0.42821127700112827,0.42821127699882733,optimal,0.2,"[0.1, 0.1, 0.13333333333333333, 0.13333333333333333, 0.13333333333333333, 0.13333333333333333, 0.13333333333333333, 0.13333333333333333]"
5,1+AB,1,0.9999999999999998,0.357217254156,0.051031036308,0.429147710557203,0.4291476978999384,optimal,0.25,"[0.09375, 0.09375, 0.13541666666666666, 0.13541666666666666, 0.13541666666666666, 0.13541666666666666, 0.13541666666666666, 0.13541666666666666]"
6,1+AB,1,1.0,0.35881750236,0.0612372435696,0.4304013382170312,0.43040133820985826,optimal,0.30000000000000004,"[0.0875, 0.0875, 0.1375, 0.1375, 0.1375, 0.1375, 0.1375, 0.1375]"
7,1+AB,1,1.0000000000000002,0.360699551797,0.0714434508312,0.4320351521147423,0.4320351521028003,optimal,0.35000000000000003,"[0.08124999999999999, 0.08124999999999999, 0.13958333333333334, 0.13958333333333334, 0.13958333333333334, 0.13958333333333334, 0.13958333333333334, 0.13958333333333334]"
8,1+AB,1,0.9999999999999998,0.362859017618,0.0816496580928,0.43413126020709963,0.43413126020665954,optimal,0.4,"[0.075, 0.075, 0.14166666666666666, 0.14166666666666666, 0.14166666666666666, 0.14166666666666666, 0.14166666666666666, 0.14166666666666666]"
9,1+AB,1,1.0,0.365290979905,0.0918558653544,0.43679792797410555,0.4367979279697229,optimal,0.45,"[0.06875, 0.06875, 0.14375, 0.14375, 0.14375, 0.14375, 0.14375, 0.14375]"
10,1+AB,1,1.0000000000000002,0.367990036097,0.102062072616,0.4401814435432192,0.44018144353967614,optimal,0.5,"[0.0625, 0.0625, 0.14583333333333334, 0.14583333333333334, 0.14583333333333334, 0.14583333333333334, 0.14583333333333334, 0.14583333333333334]"
11,1+AB,1,1.0,0.370950356068,0.112268279878,0.4444849489748825,0.44448494891645485,optimal,0.55,"[0.056249999999999994, 0.056249999999999994, 0.14791666666666667, 0.14791666666666667, 0.14791666666666667, 0.14791666666666667, 0.14791666666666667, 0.14791666666666667]"
12,1+AB,1,1.0,0.374165738677,0.122474487139,0.449999972161218,0.44999996851019747,optimal,0.6000000000000001,"[0.04999999999999999, 0.04999999999999999, 0.15, 0.15, 0.15, 0.15, 0.15, 0.15]"
13,1+AB,1,1.0,0.377629668679,0.132680694401,0.4562499799021163,0.4562499770874451,optimal,0.65,"[0.04375, 0.04375, 0.15208333333333335, 0.15208333333333335, 0.15208333333333335, 0.15208333333333335, 0.15208333333333335, 0.15208333333333335]"
14,1+AB,1,1.0,0.381335372955,0.142886901662,0.46249999974393846,0.46249999969742417,optimal,0.7000000000000001,"[0.03749999999999999, 0.03749999999999999, 0.15416666666666667, 0.15416666666666667, 0.15416666666666667, 0.15416666666666667, 0.15416666666666667, 0.15416666666666667]"
15,1+AB,1,1.0,0.385275875186,0.153093108924,0.46874999757938235,0.468749997192594,optimal,0.75,"[0.03125, 0.03125, 0.15625, 0.15625, 0.15625, 0.15625, 0.15625, 0.15625]"
16,1+AB,1,0.9999999999999999,0.389444048185,0.163299316186,0.47499999990206027,0.4749999998882646,optimal,0.8,"[0.024999999999999994, 0.024999999999999994, 0.15833333333333333, 0.15833333333333333, 0.15833333333333333, 0.15833333333333333, 0.15833333333333333, 0.15833333333333333]"
17,1+AB,1,1.0,0.393832663281,0.173505523447,0.4812499986382933,0.48124999843320454,optimal,0.8500000000000001,"[0.01874999999999999, 0.01874999999999999, 0.16041666666666668, 0.16041666666666668, 0.16041666666666668, 0.16041666666666668, 0.16041666666666668, 0.16041666666666668]"
18,1+AB,1,0.9999999999999999,0.398434436263,0.183711730709,0.4874999988073322,0.48749999860728216,optimal,0.9,"[0.012499999999999997, 0.012499999999999997, 0.1625, 0.1625, 0.1625, 0.1625, 0.1625, 0.1625]"
19,1+AB,1,0.9999999999999999,0.403242069565,0.19391793797,0.4937499999885867,0.49374999998724545,optimal,0.9500000000000001,"[0.006249999999999992, 0.006249999999999992, 0.16458333333333333, 0.16458333333333333, 0.16458333333333333, 0.16458333333333333, 0.16458333333333333, 0.16458333333333333]"
20,1+AB,1,0.9999999999999999,0.408248290464,0.204124145232,0.49999999999242306,0.4999999999908647,optimal,1.0,"[0.0, 0.0, 0.16666666666666666, 0.16666666666666666, 0.16666666666666666, 0.16666666666666666, 0.16666666666666666, 0.16666666666666666]"
