Index, Level, Gleichung, 1-norm, 2-norm, varianz, primal, dual, status, eps, b
Gleichung: 1 - CHSH; 2 - 33,33; 3-44,1111; 4-44,43; 5-44,33_1; 6-44,311; 7-44,411; 8-43,311; 9-411,33; 10-43,43_1; 11-43,411; 12-43,33_1; 13-43,33_2; 14-44,33_2; 15-43,43_2
0,1+AB,5,1.0,0.353553390593,0.0,0.426776695266991,0.42677669526444256,optimal,0.0,"[0.125, 0.125, 0.125, 0.125, 0.125, 0.125, 0.125, 0.125]"
1,1+AB,5,1.0,0.353602875223,0.00591551905247,0.4267874579327677,0.426787457925561,optimal,0.02,"[0.1225, 0.1225, 0.12707090358841455, 0.12718134121417163, 0.12705132395023533, 0.12453219013572533, 0.12666424111145316, 0.1225]"
2,1+AB,5,1.0,0.353751287577,0.0118310381049,0.426819619375465,0.42681961937497725,optimal,0.04,"[0.12, 0.12, 0.1291418071768291, 0.12936268242834326, 0.12910264790047066, 0.12406438027145067, 0.12832848222290633, 0.12]"
3,1+AB,5,1.0,0.353998503233,0.0177465571574,0.4268730042693111,0.4268730042620372,optimal,0.06,"[0.1175, 0.1175, 0.13121271076524366, 0.13154402364251488, 0.13115397185070596, 0.123596570407176, 0.12999272333435949, 0.1175]"
4,1+AB,5,1.0,0.354344315392,0.0236620762099,0.4269474553630921,0.4269474553627514,optimal,0.08,"[0.115, 0.115, 0.13328361435365821, 0.13372536485668651, 0.13320529580094129, 0.12312876054290134, 0.13165696444581265, 0.115]"
5,1+AB,5,1.0,0.354788435749,0.0295775952623,0.42704282872517463,0.42704282864217996,optimal,0.1,"[0.1125, 0.1125, 0.13535451794207279, 0.13590670607085811, 0.13525661975117662, 0.12266095067862667, 0.13332120555726582, 0.1125]"
6,1+AB,5,1.0,0.355330495685,0.0354931143148,0.42715899619282194,0.4271589961906587,optimal,0.12,"[0.11, 0.11, 0.13742542153048734, 0.13808804728502974, 0.13730794370141194, 0.12219314081435201, 0.13498544666871898, 0.11]"
7,1+AB,5,1.0,0.355970047781,0.0414086333673,0.42729583460135495,0.42729583458546694,optimal,0.14,"[0.1075, 0.1075, 0.13949632511890189, 0.14026938849920137, 0.13935926765164727, 0.12172533095007734, 0.13664968778017214, 0.1075]"
8,1+AB,5,1.0,0.356706567647,0.0473241524198,0.42745323256701867,0.4274532325426596,optimal,0.16,"[0.105, 0.105, 0.14156722870731644, 0.142450729713373, 0.1414105916018826, 0.12125752108580268, 0.1383139288916253, 0.105]"
9,1+AB,5,1.0,0.35753945603,0.0532396714722,0.42763108408378503,0.42763108403484695,optimal,0.18,"[0.10250000000000001, 0.10250000000000001, 0.143638132295731, 0.14463207092754463, 0.1434619155521179, 0.12078971122152801, 0.13997817000307847, 0.10250000000000001]"
10,1+AB,5,1.0,0.358468041206,0.0591551905247,0.42782928925997166,0.4278292892405359,optimal,0.2,"[0.1, 0.1, 0.14570903588414555, 0.14681341214171625, 0.14551323950235323, 0.12032190135725335, 0.14164241111453163, 0.1]"
11,1+AB,5,1.0,0.359491581605,0.0650707095772,0.428047731129454,0.4280477290076916,optimal,0.22,"[0.0975, 0.0975, 0.1477799394725601, 0.14899475335588788, 0.14756456345258856, 0.11985409149297868, 0.14330665222598479, 0.0975]"
12,1+AB,5,1.0,0.360609268676,0.0709862286296,0.4282863742222375,0.4282863741518445,optimal,0.24,"[0.095, 0.095, 0.14985084306097465, 0.15117609457005948, 0.14961588740282389, 0.11938628162870402, 0.14497089333743796, 0.095]"
13,1+AB,5,1.0,0.361820229944,0.0769017476821,0.42854495631254413,0.4285449463140232,optimal,0.26,"[0.0925, 0.0925, 0.15192174664938923, 0.15335743578423111, 0.15166721135305922, 0.11891847176442935, 0.14663513444889112, 0.0925]"
14,1+AB,5,1.0,0.363123532244,0.0828172667346,0.42882374333892,0.4288237431312897,optimal,0.28,"[0.09, 0.09, 0.15399265023780379, 0.15553877699840274, 0.15371853530329455, 0.11845066190015469, 0.14829937556034428, 0.09]"
15,1+AB,5,1.0,0.364518185107,0.088732785787,0.4291222986837509,0.4291222974766251,optimal,0.3,"[0.0875, 0.0875, 0.15606355382621834, 0.15772011821257437, 0.15576985925352985, 0.11798285203588003, 0.14996361667179745, 0.0875]"
16,1+AB,5,1.0,0.366003144261,0.0946483048395,0.42944053148888744,0.42944051820457996,optimal,0.32,"[0.08499999999999999, 0.08499999999999999, 0.15813445741463289, 0.159901459426746, 0.15782118320376518, 0.11751504217160537, 0.15162785778325061, 0.08499999999999999]"
17,1+AB,5,1.0,0.367577315236,0.100563823892,0.42977875108195457,0.4297787510818535,optimal,0.34,"[0.08249999999999999, 0.08249999999999999, 0.16020536100304744, 0.16208280064091762, 0.1598725071540005, 0.1170472323073307, 0.15329209889470377, 0.08249999999999999]"
18,1+AB,5,1.0,0.369239557028,0.106479342944,0.43013644237121124,0.43013644236909526,optimal,0.36,"[0.08, 0.08, 0.16227626459146199, 0.16426414185508925, 0.16192383110423583, 0.11657942244305604, 0.15495634000615693, 0.08]"
19,1+AB,5,1.0,0.370988685816,0.112394861997,0.43051365708195277,0.4305136570790437,optimal,0.38,"[0.0775, 0.0775, 0.16434716817987655, 0.16644548306926088, 0.16397515505447113, 0.11611161257878137, 0.1566205811176101, 0.0775]"
20,1+AB,5,1.0,0.372823478692,0.118310381049,0.4309102866465746,0.43091028532216935,optimal,0.4,"[0.075, 0.075, 0.1664180717682911, 0.16862682428343251, 0.16602647900470646, 0.11564380271450671, 0.15828482222906326, 0.075]"
21,1+AB,5,1.0,0.374742677388,0.124225900102,0.431326273597426,0.4313262735503415,optimal,0.42,"[0.07250000000000001, 0.07250000000000001, 0.16848897535670565, 0.17080816549760414, 0.16807780295494179, 0.11517599285023204, 0.1599490633405164, 0.07250000000000001]"
22,1+AB,5,1.0,0.376744991977,0.130141419154,0.43176147961388023,0.4317614795730458,optimal,0.44,"[0.07, 0.07, 0.17055987894512023, 0.17298950671177574, 0.17012912690517712, 0.11470818298595738, 0.16161330445196959, 0.07]"
23,1+AB,5,1.0,0.378829104524,0.136056938207,0.4322158163875688,0.43221581638503004,optimal,0.46,"[0.0675, 0.0675, 0.17263078253353478, 0.17517084792594736, 0.17218045085541245, 0.11424037312168271, 0.16327754556342272, 0.0675]"
24,1+AB,5,1.0,0.380993672677,0.141972457259,0.4326891796561887,0.4326891796556444,optimal,0.48,"[0.065, 0.065, 0.17470168612194933, 0.17735218914011899, 0.17423177480564778, 0.11377256325740805, 0.16494178667487591, 0.065]"
25,1+AB,5,1.0,0.383237333173,0.147887976312,0.433181463828875,0.4331814638238583,optimal,0.5,"[0.0625, 0.0625, 0.17677258971036389, 0.17953353035429062, 0.17628309875588311, 0.11330475339313338, 0.16660602778632905, 0.0625]"
26,1+AB,5,1.0,0.38555870524,0.153803495364,0.43369256097974174,0.4336925609754376,optimal,0.52,"[0.06, 0.06, 0.17884349329877844, 0.18171487156846225, 0.17833442270611843, 0.11283694352885872, 0.16827026889778224, 0.06]"
27,1+AB,5,1.0,0.387956393898,0.159719014417,0.43422236098638045,0.43422236098606215,optimal,0.54,"[0.057499999999999996, 0.057499999999999996, 0.18091439688719299, 0.18389621278263388, 0.18038574665635373, 0.11236913366458405, 0.16993451000923537, 0.057499999999999996]"
28,1+AB,5,1.0,0.390428993131,0.165634533469,0.4347707517962312,0.4347707517947677,optimal,0.56,"[0.05499999999999999, 0.05499999999999999, 0.18298530047560757, 0.18607755399680551, 0.18243707060658906, 0.11190132380030939, 0.17159875112068856, 0.05499999999999999]"
29,1+AB,5,1.0,0.392975088931,0.171550052522,0.43533761980015856,0.43533761979930286,optimal,0.58,"[0.052500000000000005, 0.052500000000000005, 0.1850562040640221, 0.18825889521097711, 0.18448839455682439, 0.11143351393603472, 0.1732629922321417, 0.052500000000000005]"
30,1+AB,5,1.0,0.395593262195,0.177465571574,0.43592284996513453,0.43592284996430664,optimal,0.6,"[0.05, 0.05, 0.18712710765243667, 0.19044023642514873, 0.18653971850705969, 0.11096570407176005, 0.17492723334359486, 0.05]"
31,1+AB,5,1.0,0.398282091487,0.183381090627,0.43652632616536213,0.43652632616093917,optimal,0.62,"[0.0475, 0.0475, 0.18919801124085123, 0.19262157763932036, 0.18859104245729502, 0.11049789420748539, 0.17659147445504803, 0.0475]"
32,1+AB,5,1.0,0.40104015564,0.189296609679,0.43714793181252737,0.43714793180910183,optimal,0.64,"[0.045, 0.045, 0.19126891482926578, 0.19480291885349199, 0.19064236640753035, 0.11003008434321072, 0.17825571556650122, 0.045]"
33,1+AB,5,1.0,0.40386603621,0.195212128731,0.43778754507128914,0.43778754449803453,optimal,0.66,"[0.042499999999999996, 0.042499999999999996, 0.19333981841768033, 0.19698426006766362, 0.19269369035776568, 0.10956227447893606, 0.17991995667795435, 0.042499999999999996]"
34,1+AB,5,1.0,0.406758319771,0.201127647784,0.43844496960448265,0.43844496110641423,optimal,0.68,"[0.039999999999999994, 0.039999999999999994, 0.19541072200609488, 0.19916560128183525, 0.19474501430800101, 0.10909446461466139, 0.18158419778940754, 0.039999999999999994]"
35,1+AB,5,1.0,0.409715600061,0.207043166836,0.43912032582384963,0.4391203226171295,optimal,0.7000000000000001,"[0.03749999999999999, 0.03749999999999999, 0.19748162559450944, 0.20134694249600688, 0.19679633825823634, 0.10862665475038673, 0.18324843890086068, 0.03749999999999999]"
36,1+AB,5,1.0,0.412736479967,0.212958685889,0.43981331836664905,0.43981331794257184,optimal,0.72,"[0.035, 0.035, 0.19955252918292399, 0.2035282837101785, 0.19884766220847166, 0.10815884488611208, 0.18491268001231384, 0.035]"
37,1+AB,5,1.0,0.415819573359,0.218874204941,0.44052384472010503,0.44052384471944334,optimal,0.74,"[0.0325, 0.0325, 0.20162343277133854, 0.20570962492435013, 0.20089898615870699, 0.10769103502183741, 0.186576921123767, 0.0325]"
38,1+AB,5,1.0,0.41896350678,0.224789723994,0.44125179262406033,0.4412517906065295,optimal,0.76,"[0.03, 0.03, 0.20369433635975309, 0.20789096613852176, 0.20295031010894229, 0.10722322515756275, 0.18824116223522019, 0.03]"
39,1+AB,5,1.0,0.422166920979,0.230705243046,0.44200810882405744,0.4420080966471996,optimal,0.78,"[0.027499999999999997, 0.027499999999999997, 0.20576523994816767, 0.21007230735269339, 0.20500163405917762, 0.10675541529328808, 0.18990540334667333, 0.027499999999999997]"
40,1+AB,5,1.0,0.425428472315,0.236620762099,0.4429089532640452,0.44290893960373606,optimal,0.8,"[0.024999999999999994, 0.024999999999999994, 0.20783614353658222, 0.21225364856686502, 0.20705295800941295, 0.10628760542901342, 0.19156964445812652, 0.024999999999999994]"
41,1+AB,5,1.0,0.428746834011,0.242536281151,0.44395442829665427,0.4439544145798849,optimal,0.8200000000000001,"[0.022499999999999992, 0.022499999999999992, 0.20990704712499678, 0.21443498978103664, 0.20910428195964828, 0.10581979556473875, 0.19323388556957966, 0.022499999999999992]"
42,1+AB,5,1.0,0.432120697288,0.248451800204,0.4451226230285142,0.44512261375321627,optimal,0.84,"[0.020000000000000004, 0.020000000000000004, 0.21197795071341133, 0.21661633099520824, 0.21115560590988358, 0.10535198570046408, 0.19489812668103282, 0.020000000000000004]"
43,1+AB,5,1.0,0.435548772361,0.254367319256,0.4464086131990162,0.44640860736615817,optimal,0.86,"[0.0175, 0.0175, 0.21404885430182588, 0.21879767220937987, 0.21320692986011891, 0.10488417583618942, 0.19656236779248598, 0.0175]"
44,1+AB,5,1.0,0.439029789329,0.260282838309,0.4478203189918946,0.44782031417061136,optimal,0.88,"[0.015, 0.015, 0.21611975789024046, 0.22097901342355147, 0.21525825381035424, 0.10441636597191475, 0.19822660890393914, 0.015]"
45,1+AB,5,1.0,0.442562498933,0.266198357361,0.4493660249619041,0.44936601718007047,optimal,0.9,"[0.012499999999999997, 0.012499999999999997, 0.21819066147865501, 0.2231603546377231, 0.21730957776058957, 0.10394855610764009, 0.19989085001539231, 0.012499999999999997]"
46,1+AB,5,1.0,0.446145673224,0.272113876414,0.4509662916822977,0.45096628925327215,optimal,0.92,"[0.009999999999999995, 0.009999999999999995, 0.22026156506706956, 0.22534169585189473, 0.2193609017108249, 0.10348074624336542, 0.20155509112684547, 0.009999999999999995]"
47,1+AB,5,1.0,0.449778106118,0.278029395466,0.45260645215766115,0.45260644312796877,optimal,0.9400000000000001,"[0.007499999999999993, 0.007499999999999993, 0.22233246865548412, 0.22752303706606636, 0.22141222566106022, 0.10301293637909076, 0.20321933223829863, 0.007499999999999993]"
48,1+AB,5,1.0,0.453458613857,0.283944914519,0.45429377598360693,0.45429377103601915,optimal,0.96,"[0.0050000000000000044, 0.0050000000000000044, 0.22440337224389867, 0.22970437828023799, 0.22346354961129553, 0.10254512651481609, 0.2048835733497518, 0.0050000000000000044]"
49,1+AB,5,1.0,0.457186035384,0.289860433571,0.4560376394592435,0.4560376358321583,optimal,0.98,"[0.0025000000000000022, 0.0025000000000000022, 0.22647427583231322, 0.23188571949440961, 0.22551487356153085, 0.10207731665054143, 0.20654781446120496, 0.0025000000000000022]"
50,1+AB,5,1.0,0.460959232634,0.295775952623,0.45785164035582615,0.45785163065629136,optimal,1.0,"[0.0, 0.0, 0.22854517942072777, 0.23406706070858124, 0.22756619751176618, 0.10160950678626676, 0.20821205557265812, 0.0]"
