Index, Level, Gleichung, 1-norm, 2-norm, varianz, primal, dual, status, eps, b
Gleichung: 1 - CHSH; 2 - 33,33; 3-44,1111; 4-44,43; 5-44,33_1; 6-44,311; 7-44,411; 8-43,311; 9-411,33; 10-43,43_1; 11-43,411; 12-43,33_1; 13-43,33_2; 14-44,33_2; 15-43,43_2
0,1+AB,4,1.0,0.353553390593,0.0,0.4267766950906603,0.42677669507198274,optimal,0.0,"[0.125, 0.125, 0.125, 0.125, 0.125, 0.125, 0.125, 0.125]"
1,1+AB,4,1.0,0.3536023678,0.00588510946639,0.4267895188689864,0.4267895188686524,optimal,0.02,"[0.1225, 0.1225, 0.12773545780453963, 0.12613171688885999, 0.12627894277142049, 0.12501183938210517, 0.12734204315307471, 0.1225]"
2,1+AB,4,1.0,0.353749258732,0.0117702189328,0.4268270528194292,0.42682705281926797,optimal,0.04,"[0.12, 0.12, 0.13047091560907928, 0.12726343377771998, 0.12755788554284095, 0.12502367876421036, 0.12968408630614944, 0.12]"
3,1+AB,4,1.0,0.353993941503,0.0176553283992,0.42688799437032626,0.4268879943620379,optimal,0.06,"[0.1175, 0.1175, 0.13320637341361891, 0.12839515066657997, 0.12883682831426144, 0.12503551814631553, 0.13202612945922415, 0.1175]"
4,1+AB,4,1.0,0.354336213525,0.0235404378655,0.4269711636433364,0.4269711636197959,optimal,0.08,"[0.115, 0.115, 0.13594183121815853, 0.12952686755543996, 0.13011577108568192, 0.12504735752842069, 0.13436817261229889, 0.115]"
5,1+AB,4,1.0,0.354775792347,0.0294255473319,0.4270754887768055,0.42707548874371315,optimal,0.1,"[0.1125, 0.1125, 0.13867728902269819, 0.13065858444429995, 0.13139471385710239, 0.12505919691052586, 0.13671021576537359, 0.1125]"
6,1+AB,4,1.0,0.355312316819,0.0353106567983,0.42719999234010697,0.42719999226171335,optimal,0.12,"[0.11, 0.11, 0.14141274682723781, 0.13179030133315994, 0.13267365662852287, 0.12507103629263105, 0.1390522589184483, 0.11]"
7,1+AB,4,1.0,0.355945348555,0.0411957662647,0.4273437833772386,0.4273437833694108,optimal,0.14,"[0.1075, 0.1075, 0.14414820463177747, 0.13292201822201996, 0.13395259939994336, 0.12508287567473622, 0.14139430207152304, 0.1075]"
8,1+AB,4,1.0,0.356674373707,0.0470808757311,0.4275060426356845,0.4275060426278621,optimal,0.16,"[0.105, 0.105, 0.14688366243631709, 0.13405373511087995, 0.13523154217136382, 0.12509471505684139, 0.14373634522459774, 0.105]"
9,1+AB,4,1.0,0.357498805016,0.0529659851975,0.427686020453987,0.4276860204364088,optimal,0.18,"[0.10250000000000001, 0.10250000000000001, 0.14961912024085672, 0.13518545199973994, 0.13651048494278431, 0.12510655443894655, 0.14607838837767245, 0.10250000000000001]"
10,1+AB,4,1.0,0.358417984123,0.0588510946639,0.42788302592870203,0.4278830258088313,optimal,0.2,"[0.1, 0.1, 0.15235457804539637, 0.13631716888859993, 0.1377894277142048, 0.12511839382105175, 0.14842043153074719, 0.1]"
11,1+AB,4,1.0,0.35943118413,0.0647362041302,0.4280964266989278,0.4280964266976772,optimal,0.22,"[0.0975, 0.0975, 0.155090035849936, 0.13744888577745992, 0.13906837048562526, 0.12513023320315692, 0.1507624746838219, 0.0975]"
12,1+AB,4,1.0,0.360537612371,0.0706213135966,0.428325632424749,0.4283256324211232,optimal,0.24,"[0.095, 0.095, 0.15782549365447562, 0.13858060266631991, 0.14034731325704575, 0.12514207258526208, 0.1531045178368966, 0.095]"
13,1+AB,4,1.0,0.361736413387,0.076506423063,0.4285701021117977,0.42857010210672647,optimal,0.26,"[0.0925, 0.0925, 0.16056095145901528, 0.1397123195551799, 0.14162625602846624, 0.12515391196736725, 0.15544656098997134, 0.0925]"
14,1+AB,4,1.0,0.363026672068,0.0823915325294,0.42882933392284184,0.42882933392258954,optimal,0.28,"[0.09, 0.09, 0.1632964092635549, 0.14084403644403989, 0.14290519879988672, 0.12516575134947244, 0.15778860414304607, 0.09]"
15,1+AB,4,1.0,0.364407416942,0.0882766419958,0.4291028626736651,0.42910286267324527,optimal,0.3,"[0.0875, 0.0875, 0.16603186706809453, 0.14197575333289988, 0.14418414157130718, 0.12517759073157761, 0.16013064729612078, 0.0875]"
16,1+AB,4,1.0,0.365877623583,0.0941617514622,0.42939025700089306,0.4293902570006348,optimal,0.32,"[0.08499999999999999, 0.08499999999999999, 0.16876732487263418, 0.14310747022175987, 0.14546308434272767, 0.12518943011368278, 0.16247269044919549, 0.08499999999999999]"
17,1+AB,4,1.0,0.367436218114,0.100046860929,0.42969111634946905,0.42969111634742785,optimal,0.34,"[0.08249999999999999, 0.08249999999999999, 0.17150278267717381, 0.14423918711061987, 0.14674202711414816, 0.12520126949578794, 0.16481473360227022, 0.08249999999999999]"
18,1+AB,4,1.0,0.369082080778,0.105931970395,0.4300050686270889,0.4300050686270305,optimal,0.36,"[0.08, 0.08, 0.17423824048171344, 0.14537090399947986, 0.14802096988556862, 0.12521310887789314, 0.16715677675534493, 0.08]"
19,1+AB,4,1.0,0.370814049557,0.111817079861,0.4303317659570533,0.43033176576206317,optimal,0.38,"[0.0775, 0.0775, 0.17697369828625309, 0.14650262088833987, 0.14929991265698911, 0.1252249482599983, 0.16949881990841964, 0.0775]"
20,1+AB,4,1.0,0.372630923801,0.117702189328,0.4306708922245717,0.4306708922214695,optimal,0.4,"[0.075, 0.075, 0.17970915609079272, 0.14763433777719986, 0.1505788554284096, 0.12523678764210347, 0.17184086306149438, 0.075]"
21,1+AB,4,1.0,0.374531467868,0.123587298794,0.4310221114509172,0.4310221082913565,optimal,0.42,"[0.07250000000000001, 0.07250000000000001, 0.18244461389533234, 0.14876605466605985, 0.15185779819983006, 0.12524862702420864, 0.17418290621456908, 0.07250000000000001]"
22,1+AB,4,1.0,0.376514414732,0.12947240826,0.4313851899502108,0.4313851856718829,optimal,0.44,"[0.07, 0.07, 0.185180071699872, 0.14989777155491985, 0.15313674097125055, 0.12526046640631383, 0.17652494936764379, 0.07]"
23,1+AB,4,1.0,0.378578469548,0.135357517727,0.4317599237771046,0.4317599232731897,optimal,0.46,"[0.0675, 0.0675, 0.18791552950441165, 0.15102948844377984, 0.15441568374267103, 0.125272305788419, 0.17886699252071853, 0.0675]"
24,1+AB,4,1.0,0.380722313158,0.141242627193,0.43214596434733266,0.43214596434116703,optimal,0.48,"[0.065, 0.065, 0.19065098730895125, 0.15216120533263983, 0.15569462651409149, 0.12528414517052416, 0.18120903567379323, 0.065]"
25,1+AB,4,1.0,0.382944605517,0.14712773666,0.4325431265658033,0.43254312656104227,optimal,0.5,"[0.0625, 0.0625, 0.1933864451134909, 0.15329292222149982, 0.15697356928551198, 0.12529598455262936, 0.18355107882686794, 0.0625]"
26,1+AB,4,1.0,0.385243989025,0.153012846126,0.4329512083772043,0.4329512083729204,optimal,0.52,"[0.06, 0.06, 0.19612190291803056, 0.15442463911035981, 0.15825251205693247, 0.12530782393473452, 0.18589312197994268, 0.06]"
27,1+AB,4,1.0,0.387619091753,0.158897955592,0.43337001715291723,0.43337001694523203,optimal,0.54,"[0.057499999999999996, 0.057499999999999996, 0.19885736072257018, 0.1555563559992198, 0.15953145482835296, 0.12531966331683969, 0.18823516513301741, 0.057499999999999996]"
28,1+AB,4,1.0,0.390068530556,0.164783065059,0.433799378075581,0.43379937753157527,optimal,0.56,"[0.05499999999999999, 0.05499999999999999, 0.20159281852710981, 0.15668807288807979, 0.16081039759977342, 0.12533150269894486, 0.19057720828609212, 0.05499999999999999]"
29,1+AB,4,1.0,0.392590914051,0.170668174525,0.43423913743236614,0.43423913726051827,optimal,0.58,"[0.052500000000000005, 0.052500000000000005, 0.20432827633164943, 0.15781978977693978, 0.16208934037119391, 0.12534334208105005, 0.19291925143916683, 0.052500000000000005]"
30,1+AB,4,1.0,0.395184845469,0.176553283992,0.43468911149283557,0.4346891085471671,optimal,0.6,"[0.05, 0.05, 0.20706373413618906, 0.15895150666579977, 0.16336828314261437, 0.12535518146315522, 0.19526129459224156, 0.05]"
31,1+AB,4,1.0,0.397848925357,0.182438393458,0.4351492002864479,0.43514919522344747,optimal,0.62,"[0.0475, 0.0475, 0.20979919194072871, 0.16008322355465976, 0.16464722591403486, 0.12536702084526039, 0.19760333774531627, 0.0475]"
32,1+AB,4,1.0,0.400581754145,0.188323502924,0.4356193514056652,0.4356193504829433,optimal,0.64,"[0.045, 0.045, 0.21253464974526837, 0.16121494044351975, 0.16592616868545534, 0.12537886022736555, 0.19994538089839098, 0.045]"
33,1+AB,4,1.0,0.403381934557,0.194208612391,0.4360993150469401,0.43609931093657256,optimal,0.66,"[0.042499999999999996, 0.042499999999999996, 0.21527010754980799, 0.16234665733237977, 0.16720511145687583, 0.12539069960947075, 0.20228742405146571, 0.042499999999999996]"
34,1+AB,4,1.0,0.406248073874,0.200093721857,0.4365891411612724,0.43658914088739326,optimal,0.68,"[0.039999999999999994, 0.039999999999999994, 0.21800556535434762, 0.16347837422123976, 0.16848405422829629, 0.12540253899157591, 0.20462946720454042, 0.039999999999999994]"
35,1+AB,4,1.0,0.40917878605,0.205978831324,0.43708865280438947,0.4370886527975666,optimal,0.7000000000000001,"[0.03749999999999999, 0.03749999999999999, 0.22074102315888727, 0.16461009111009975, 0.16976299699971678, 0.12541437837368108, 0.20697151035761513, 0.03749999999999999]"
36,1+AB,4,1.0,0.41217269367,0.21186394079,0.43759781823225846,0.43759781816703985,optimal,0.72,"[0.035, 0.035, 0.2234764809634269, 0.16574180799895974, 0.17104193977113724, 0.12542621775578625, 0.20931355351068986, 0.035]"
37,1+AB,4,1.0,0.415228429768,0.217749050256,0.4381165954984497,0.4381165954963186,optimal,0.74,"[0.0325, 0.0325, 0.22621193876796652, 0.16687352488781973, 0.17232088254255773, 0.12543805713789144, 0.21165559666376457, 0.0325]"
38,1+AB,4,1.0,0.418344639496,0.223634159723,0.43864489454760935,0.43864488928291556,optimal,0.76,"[0.03, 0.03, 0.22894739657250618, 0.16800524177667972, 0.17359982531397822, 0.12544989651999661, 0.21399763981683928, 0.03]"
39,1+AB,4,1.0,0.421519981649,0.229519269189,0.43918285018196185,0.43918284678273983,optimal,0.78,"[0.027499999999999997, 0.027499999999999997, 0.2316828543770458, 0.16913695866553971, 0.17487876808539871, 0.12546173590210177, 0.21633968296991402, 0.027499999999999997]"
40,1+AB,4,1.0,0.424753130053,0.235404378655,0.4397309998917432,0.43973099761376644,optimal,0.8,"[0.024999999999999994, 0.024999999999999994, 0.23441831218158543, 0.1702686755543997, 0.17615771085681917, 0.12547357528420694, 0.21868172612298875, 0.024999999999999994]"
41,1+AB,4,1.0,0.428042774823,0.241289488122,0.44046355382325786,0.4404635452377061,optimal,0.8200000000000001,"[0.022499999999999992, 0.022499999999999992, 0.23715376998612508, 0.17140039244325972, 0.17743665362823965, 0.12548541466631213, 0.22102376927606346, 0.022499999999999992]"
42,1+AB,4,1.0,0.431387623481,0.247174597588,0.44145929476246193,0.4414592934442598,optimal,0.84,"[0.020000000000000004, 0.020000000000000004, 0.23988922779066471, 0.17253210933211968, 0.17871559639966011, 0.1254972540484173, 0.22336581242913817, 0.020000000000000004]"
43,1+AB,4,1.0,0.434786401966,0.253059707055,0.44265383037555556,0.4426538277613293,optimal,0.86,"[0.0175, 0.0175, 0.24262468559520434, 0.1736638262209797, 0.1799945391710806, 0.12550909343052247, 0.2257078555822129, 0.0175]"
44,1+AB,4,1.0,0.438237855511,0.258944816521,0.4440116328908781,0.44401161860745064,optimal,0.88,"[0.015, 0.015, 0.24536014339974399, 0.17479554310983969, 0.18127348194250109, 0.12552093281262763, 0.22804989873528758, 0.015]"
45,1+AB,4,1.0,0.44174074942,0.264829925987,0.44551957543328385,0.44551956548585814,optimal,0.9,"[0.012499999999999997, 0.012499999999999997, 0.24809560120428364, 0.17592725999869968, 0.18255242471392158, 0.12553277219473283, 0.23039194188836232, 0.012499999999999997]"
46,1+AB,4,1.0,0.445293869732,0.270715035454,0.44710199735717915,0.447101987738853,optimal,0.92,"[0.009999999999999995, 0.009999999999999995, 0.2508310590088233, 0.17705897688755967, 0.18383136748534204, 0.12554461157683799, 0.23273398504143705, 0.009999999999999995]"
47,1+AB,4,1.0,0.448896023785,0.27660014492,0.4487279068325338,0.44872789447070455,optimal,0.9400000000000001,"[0.007499999999999993, 0.007499999999999993, 0.2535665168133629, 0.17819069377641966, 0.18511031025676253, 0.12555645095894316, 0.23507602819451176, 0.007499999999999993]"
48,1+AB,4,1.0,0.452546040692,0.282485254387,0.45040307221597625,0.4504030646674842,optimal,0.96,"[0.0050000000000000044, 0.0050000000000000044, 0.25630197461790249, 0.17932241066527965, 0.18638925302818299, 0.12556829034104833, 0.23741807134758647, 0.0050000000000000044]"
49,1+AB,4,1.0,0.456242771722,0.288370363853,0.45213448602854117,0.4521344727465765,optimal,0.98,"[0.0025000000000000022, 0.0025000000000000022, 0.25903743242244215, 0.18045412755413964, 0.18766819579960348, 0.12558012972315352, 0.2397601145006612, 0.0025000000000000022]"
50,1+AB,4,1.0,0.459985090604,0.294255473319,0.4539317106497577,0.4539317010441608,optimal,1.0,"[0.0, 0.0, 0.2617728902269818, 0.18158584444299963, 0.18894713857102396, 0.12559196910525869, 0.24210215765373591, 0.0]"
