Index, Level, Gleichung, 1-norm, 2-norm, varianz, primal, dual, status, eps, b
Gleichung: 1 - CHSH, 2 - 33,33, 3-44,1111
0,1+AB,1,1.0,0.353553390593,0.0,0.42677669433719756,0.42677669423124287,optimal,0.0,"[0.125, 0.125, 0.125, 0.125, 0.125, 0.125, 0.125, 0.125]"
1,1+AB,1,1.0,0.353995056463,0.0176776695297,0.4273158800784638,0.4273158800770265,optimal,0.05,"[0.11875, 0.11875, 0.13125, 0.11875, 0.11875, 0.13125, 0.13125, 0.13125]"
2,1+AB,1,1.0,0.355316760089,0.0353553390593,0.4292063767113877,0.4292063767100651,optimal,0.1,"[0.1125, 0.1125, 0.1375, 0.1125, 0.1125, 0.1375, 0.1375, 0.1375]"
3,1+AB,1,1.0,0.357508741152,0.053033008589,0.4331526871026208,0.4331526871025143,optimal,0.15000000000000002,"[0.10625, 0.10625, 0.14375, 0.10625, 0.10625, 0.14375, 0.14375, 0.14375]"
4,1+AB,1,1.0,0.360555127546,0.0707106781187,0.4499999844503004,0.4499999821626021,optimal,0.2,"[0.1, 0.1, 0.15, 0.1, 0.1, 0.15, 0.15, 0.15]"
5,1+AB,1,1.0,0.364434493428,0.0883883476483,0.46874999991291094,0.46874999989973043,optimal,0.25,"[0.09375, 0.09375, 0.15625, 0.09375, 0.09375, 0.15625, 0.15625, 0.15625]"
6,1+AB,1,1.0,0.369120576506,0.106066017178,0.48749999557403667,0.48749999493868534,optimal,0.30000000000000004,"[0.0875, 0.0875, 0.1625, 0.0875, 0.0875, 0.1625, 0.1625, 0.1625]"
7,1+AB,1,1.0,0.374583101594,0.123743686708,0.5062499934472521,0.5062499925772992,optimal,0.35000000000000003,"[0.08124999999999999, 0.08124999999999999, 0.16875, 0.08124999999999999, 0.08124999999999999, 0.16875, 0.16875, 0.16875]"
8,1+AB,1,1.0,0.380788655293,0.141421356237,0.5249999992414596,0.5249999991312866,optimal,0.4,"[0.075, 0.075, 0.175, 0.075, 0.075, 0.175, 0.175, 0.175]"
9,1+AB,1,1.0,0.387701560482,0.159099025767,0.5437498930668861,0.5437498776563536,optimal,0.45,"[0.06875, 0.06875, 0.18125, 0.06875, 0.06875, 0.18125, 0.18125, 0.18125]"
10,1+AB,1,1.0,0.395284707521,0.176776695297,0.5624999999224913,0.5624999999114177,optimal,0.5,"[0.0625, 0.0625, 0.1875, 0.0625, 0.0625, 0.1875, 0.1875, 0.1875]"
11,1+AB,1,1.0,0.403500309789,0.194454364826,0.581249999936782,0.5812499999269616,optimal,0.55,"[0.056249999999999994, 0.056249999999999994, 0.19375, 0.056249999999999994, 0.056249999999999994, 0.19375, 0.19375, 0.19375]"
12,1+AB,1,1.0,0.412310562562,0.212132034356,0.5999999999472814,0.5999999999407186,optimal,0.6000000000000001,"[0.04999999999999999, 0.04999999999999999, 0.2, 0.04999999999999999, 0.04999999999999999, 0.2, 0.2, 0.2]"
13,1+AB,1,1.0,0.421678194836,0.229809703886,0.618749999919594,0.6187499999104986,optimal,0.65,"[0.04375, 0.04375, 0.20625, 0.04375, 0.04375, 0.20625, 0.20625, 0.20625]"
14,1+AB,1,1.0,0.431566912541,0.247487373415,0.6374998940064179,0.637499877941047,optimal,0.7000000000000001,"[0.03749999999999999, 0.03749999999999999, 0.21250000000000002, 0.03749999999999999, 0.03749999999999999, 0.21250000000000002, 0.21250000000000002, 0.21250000000000002]"
15,1+AB,1,1.0,0.441941738242,0.265165042945,0.6562499172620069,0.6562499045610732,optimal,0.75,"[0.03125, 0.03125, 0.21875, 0.03125, 0.03125, 0.21875, 0.21875, 0.21875]"
16,1+AB,1,1.0,0.452769256907,0.282842712475,0.6749999315935808,0.6749999209394856,optimal,0.8,"[0.024999999999999994, 0.024999999999999994, 0.225, 0.024999999999999994, 0.024999999999999994, 0.225, 0.225, 0.225]"
17,1+AB,1,1.0,0.464017779832,0.300520382004,0.6937499419088567,0.693749932713865,optimal,0.8500000000000001,"[0.01874999999999999, 0.01874999999999999, 0.23125, 0.01874999999999999, 0.01874999999999999, 0.23125, 0.23125, 0.23125]"
18,1+AB,1,1.0,0.475657439761,0.318198051534,0.7124999527370987,0.712499945137559,optimal,0.9,"[0.012499999999999997, 0.012499999999999997, 0.2375, 0.012499999999999997, 0.012499999999999997, 0.2375, 0.2375, 0.2375]"
19,1+AB,1,1.0,0.487660230078,0.335875721064,0.7312499577137611,0.7312499507998105,optimal,0.9500000000000001,"[0.006249999999999992, 0.006249999999999992, 0.24375000000000002, 0.006249999999999992, 0.006249999999999992, 0.24375000000000002, 0.24375000000000002, 0.24375000000000002]"
20,1+AB,1,1.0,0.5,0.353553390593,0.7499999643886932,0.7499999585012198,optimal,1.0,"[0.0, 0.0, 0.25, 0.0, 0.0, 0.25, 0.25, 0.25]"
