Index, Level, Gleichung, 1-norm, 2-norm, varianz, primal, dual, status, eps, b
Gleichung: 1 - CHSH; 2 - 33,33; 3-44,1111; 4-44,43; 5-44,33_1; 6-44,311; 7-44,411; 8-43,311; 9-411,33; 10-43,43_1; 11-43,411; 12-43,33_1; 13-43,33_2; 14-44,33_2; 15-43,43_2
0,1+AB,1,1.0,0.353553390593,0.0,0.42677669433719756,0.42677669423124287,optimal,0.0,"[0.125, 0.125, 0.125, 0.125, 0.125, 0.125, 0.125, 0.125]"
1,1+AB,1,1.0,0.353719153224,0.0108277124836,0.42686746007376036,0.4268674600707729,optimal,0.05,"[0.12361027190399322, 0.12392772209264728, 0.12631747276274494, 0.12041664319147885, 0.1233984525573225, 0.12539237866155592, 0.13415337908719946, 0.12278367974305784]"
2,1+AB,1,1.0,0.354215975685,0.0216554249671,0.4271419723638849,0.42714197234681456,optimal,0.1,"[0.12222054380798643, 0.12285544418529458, 0.12763494552548985, 0.11583328638295769, 0.121796905114645, 0.12578475732311187, 0.14330675817439892, 0.12056735948611567]"
3,1+AB,1,1.0,0.35504246819,0.0324831374507,0.42760510820598596,0.4276051081988029,optimal,0.15000000000000002,"[0.12083081571197965, 0.12178316627794186, 0.12895241828823478, 0.11124992957443654, 0.1201953576719675, 0.12617713598466779, 0.15246013726159838, 0.1183510392291735]"
4,1+AB,1,1.0,0.356196335919,0.0433108499343,0.4282639237795509,0.4282639236282409,optimal,0.2,"[0.11944108761597286, 0.12071088837058915, 0.13026989105097969, 0.10666657276591537, 0.11859381022929001, 0.12656951464622371, 0.16161351634879784, 0.11613471897223135]"
5,1+AB,1,1.0,0.35767441052,0.0541385624178,0.42912797951548254,0.4291279794707713,optimal,0.25,"[0.11805135951996608, 0.11963861046323644, 0.13158736381372463, 0.10208321595739422, 0.11699226278661251, 0.12696189330777966, 0.17076689543599727, 0.11391839871528919]"
6,1+AB,1,1.0,0.359472692808,0.0649662749014,0.43020996427259023,0.4302099642665094,optimal,0.30000000000000004,"[0.1166616314239593, 0.11856633255588372, 0.13290483657646956, 0.097499859148873061, 0.11539071534393501, 0.12735427196933558, 0.17992027452319675, 0.11170207845834702]"
7,1+AB,1,1.0,0.361586405336,0.0757939873849,0.43152693559265737,0.431526935582215,optimal,0.35000000000000003,"[0.11527190332795251, 0.11749405464853101, 0.13422230933921447, 0.092916502340351911, 0.11378916790125751, 0.1277466506308915, 0.18907365361039619, 0.10948575820140485]"
8,1+AB,1,1.0,0.364010053279,0.0866216998685,0.43310277215523074,0.43310277215325993,optimal,0.4,"[0.11388217523194573, 0.1164217767411783, 0.13553978210195941, 0.088333145531830748, 0.11218762045858001, 0.12813902929244744, 0.19822703269759567, 0.1072694379444627]"
9,1+AB,1,1.0,0.366737491904,0.0974494123521,0.43497357230582945,0.4349735721123422,optimal,0.45,"[0.11249244713593894, 0.11534949883382559, 0.13685725486470432, 0.083749788723309598, 0.11058607301590251, 0.12853140795400336, 0.2073804117847951, 0.10505311768752054]"
10,1+AB,1,1.0,0.369761998808,0.108277124836,0.4397954562473813,0.43979544390241715,optimal,0.5,"[0.11110271903993216, 0.11427722092647288, 0.13817472762744926, 0.079166431914788449, 0.10898452557322502, 0.12892378661555931, 0.21653379087199456, 0.10283679743057837]"
11,1+AB,1,1.0,0.37307634912,0.119104837319,0.4462750852765798,0.446275084388423,optimal,0.55,"[0.10971299094392536, 0.11320494301912017, 0.13949220039019419, 0.074583075106267299, 0.10738297813054751, 0.12931616527711523, 0.22568716995919402, 0.1006204771736362]"
12,1+AB,1,1.0,0.376672891908,0.129932549803,0.45275464328303433,0.4527546430499706,optimal,0.6000000000000001,"[0.10832326284791859, 0.11213266511176745, 0.1408096731529391, 0.069999718297746122, 0.10578143068787002, 0.12970854393867115, 0.23484054904639351, 0.098404156916694047]"
13,1+AB,1,1.0,0.380543626197,0.140760262286,0.45923419358839507,0.4592341928664608,optimal,0.65,"[0.10693353475191181, 0.11106038720441475, 0.14212714591568404, 0.065416361489224972, 0.10417988324519252, 0.1301009226002271, 0.24399392813359294, 0.096187836659751891]"
14,1+AB,1,1.0,0.384680275157,0.15158797477,0.46571374759042405,0.4657137469434328,optimal,0.7000000000000001,"[0.10554380665590501, 0.10998810929706203, 0.14344461867842895, 0.060833004680703823, 0.10257833580251502, 0.13049330126178302, 0.25314730722079237, 0.093971516402809721]"
15,1+AB,1,1.0,0.389074357246,0.162415687253,0.47219330538247783,0.4721933052698693,optimal,0.75,"[0.10415407855989824, 0.10891583138970931, 0.14476209144117388, 0.056249647872182673, 0.10097678835983752, 0.13088567992333894, 0.26230068630799186, 0.091755196145867551]"
16,1+AB,1,1.0,0.393717253308,0.173243399737,0.4786727850614529,0.4786727734301495,optimal,0.8,"[0.10276435046389146, 0.10784355348235661, 0.14607956420391882, 0.05166629106366151, 0.099375240917160018, 0.13127805858489489, 0.27145406539519135, 0.089538875888925396]"
17,1+AB,1,1.0,0.398600268884,0.184071112221,0.48515241346142707,0.4851524134491225,optimal,0.8500000000000001,"[0.10137462236788466, 0.10677127557500389, 0.14739703696666373, 0.04708293425514036, 0.097773693474482518, 0.13167043724645081, 0.28060744448239078, 0.087322555631983226]"
18,1+AB,1,1.0,0.403714691176,0.194898824704,0.49163195021594563,0.4916319474776098,optimal,0.9,"[0.099984894271877886, 0.10569899766765117, 0.14871450972940867, 0.042499577446619211, 0.096172146031805031, 0.13206281590800673, 0.28976082356959021, 0.08510623537504107]"
19,1+AB,1,1.0,0.409051840362,0.205726537188,0.49811148576311787,0.4981114801282643,optimal,0.9500000000000001,"[0.098595166175871093, 0.10462671976029847, 0.1500319824921536, 0.037916220638098047, 0.09457059858912753, 0.13245519456956267, 0.2989142026567897, 0.0828899151180989]"
20,1+AB,1,1.0,0.4146031151,0.216554249671,0.5045910731290477,0.5045910728855004,optimal,1.0,"[0.097205438079864315, 0.10355444185294575, 0.15134945525489851, 0.033332863829576898, 0.09296905114645003, 0.13284757323111859, 0.30806758174398913, 0.080673594861156744]"
