0,1+AB,2,1.0,0.3535533905932738,0.0,0.42677669453918005,0.42677669445517347,optimal,0.0,"[0.125, 0.125, 0.125, 0.125, 0.125, 0.125, 0.125, 0.125]"
1,1+AB,2,1.0,0.3541038618598806,0.01973689398262532,0.42710230958726686,0.4271023095861902,optimal,0.05,"[0.13163637981883114, 0.1250867616683955, 0.12160519989783923, 0.12571547461870816, 0.13970618399622597, 0.11875, 0.11875, 0.11875]"
2,1+AB,2,1.0,0.35575016505453033,0.03947378796525062,0.4280381310697417,0.4280381305651425,optimal,0.1,"[0.13827275963766228, 0.125173523336791, 0.11821039979567848, 0.12643094923741632, 0.15441236799245195, 0.1125, 0.1125, 0.1125]"
3,1+AB,2,0.9999999999999999,0.3584772027015561,0.05921068194787593,0.42955386320896816,0.4295538623983311,optimal,0.15000000000000002,"[0.14490913945649345, 0.12526028500518646, 0.1148155996935177, 0.12714642385612446, 0.1691185519886779, 0.10625, 0.10625, 0.10625]"
4,1+AB,2,1.0,0.3622605688524522,0.07894757593050124,0.43165260609271144,0.43165260608809736,optimal,0.2,"[0.15154551927532459, 0.12534704667358196, 0.11142079959135695, 0.12786189847483262, 0.18382473598490387, 0.1, 0.1, 0.1]"
5,1+AB,2,1.0,0.367067602223398,0.09868446991312653,0.4343658240410354,0.4343658240406515,optimal,0.25,"[0.15818189909415573, 0.12543380834197745, 0.10802599948919618, 0.12857737309354078, 0.19853091998112982, 0.09375, 0.09375, 0.09375]"
6,1+AB,2,1.0,0.3728587124192354,0.11842136389575186,0.4377524985578502,0.437752483215445,optimal,0.30000000000000004,"[0.1648182789129869, 0.12552057001037295, 0.10463119938703541, 0.12929284771224894, 0.2132371039773558, 0.0875, 0.0875, 0.0875]"
7,1+AB,2,1.0,0.37958886208632114,0.13815825787837718,0.4419026871779635,0.44190268717745507,optimal,0.35000000000000003,"[0.17145465873181803, 0.12560733167876845, 0.10123639928487466, 0.1300083223309571, 0.22794328797358177, 0.08124999999999999, 0.08124999999999999, 0.08124999999999999]"
8,1+AB,2,0.9999999999999998,0.38720908948681587,0.1578951518610025,0.44694229574306893,0.44694227058770397,optimal,0.4,"[0.17809103855064917, 0.12569409334716392, 0.09784159918271389, 0.13072379694966524, 0.24264947196980774, 0.075, 0.075, 0.075]"
9,1+AB,2,0.9999999999999999,0.39566797155012773,0.17763204584362777,0.4530482103875967,0.4530482101864905,optimal,0.45,"[0.1847274183694803, 0.1257808550155594, 0.09444679908055312, 0.1314392715683734, 0.2573556559660337, 0.06875, 0.06875, 0.06875]"
10,1+AB,2,0.9999999999999999,0.4049129516428674,0.19736893982625306,0.4604676579960372,0.46046765778833515,optimal,0.5,"[0.19136379818831145, 0.1258676166839549, 0.09105199897839236, 0.13215474618708156, 0.27206183996225963, 0.0625, 0.0625, 0.0625]"
11,1+AB,2,1.0,0.4148914834915853,0.21710583380887846,0.4689723596999496,0.4689723524402414,optimal,0.55,"[0.1980001780071426, 0.1259543783523504, 0.08765719887623159, 0.13287022080578972, 0.28676802395848566, 0.056249999999999994, 0.056249999999999994, 0.056249999999999994]"
12,1+AB,2,1.0,0.42555196828086733,0.23684272779150373,0.4775152535910807,0.4775152349650284,optimal,0.6000000000000001,"[0.20463655782597376, 0.1260411400207459, 0.08426239877407082, 0.13358569542449789, 0.3014742079547116, 0.04999999999999999, 0.04999999999999999, 0.04999999999999999]"
13,1+AB,2,0.9999999999999998,0.436844482979647,0.256579621774129,0.48605829362935055,0.48605829362833275,optimal,0.65,"[0.21127293764480487, 0.12612790168914137, 0.08086759867191007, 0.13430117004320602, 0.31618039195093756, 0.04375, 0.04375, 0.04375]"
14,1+AB,2,0.9999999999999999,0.44872131315545133,0.2763165157567543,0.49460120759883747,0.4946012005396618,optimal,0.7000000000000001,"[0.21790931746363604, 0.12621466335753687, 0.07747279856974931, 0.13501664466191418, 0.33088657594716353, 0.03749999999999999, 0.03749999999999999, 0.03749999999999999]"
15,1+AB,2,1.0,0.4611373129755529,0.29605340973937966,0.5031441849162571,0.5031441849079601,optimal,0.75,"[0.22454569728246718, 0.12630142502593236, 0.07407799846758854, 0.13573211928062234, 0.3455927599433895, 0.03125, 0.03125, 0.03125]"
16,1+AB,2,1.0,0.4740501196338169,0.315790303722005,0.5116870994854302,0.5116870929126488,optimal,0.8,"[0.23118207710129834, 0.12638818669432786, 0.07068319836542777, 0.1364475938993305, 0.3602989439396155, 0.024999999999999994, 0.024999999999999994, 0.024999999999999994]"
17,1+AB,2,1.0000000000000002,0.4874202502969302,0.3355271977046303,0.5202300762317107,0.5202300762202396,optimal,0.8500000000000001,"[0.23781845692012948, 0.12647494836272336, 0.06728839826326702, 0.13716306851803867, 0.37500512793584145, 0.01874999999999999, 0.01874999999999999, 0.01874999999999999]"
18,1+AB,2,0.9999999999999998,0.5012111080596386,0.35526409168725553,0.5287730214341855,0.5287730213435975,optimal,0.9,"[0.24445483673896062, 0.12656171003111882, 0.06389359816110625, 0.1378785431367468, 0.3897113119320674, 0.012499999999999997, 0.012499999999999997, 0.012499999999999997]"
19,1+AB,2,0.9999999999999999,0.5153889203828331,0.37500098566988094,0.5373159675663022,0.5373159675558082,optimal,0.9500000000000001,"[0.25109121655779176, 0.12664847169951432, 0.06049879805894548, 0.13859401775545496, 0.4044174959282934, 0.006249999999999992, 0.006249999999999992, 0.006249999999999992]"
20,1+AB,2,0.9999999999999998,0.5299226298551105,0.3947378796525062,0.5458589130582083,0.5458589129791078,optimal,1.0,"[0.2577275963766229, 0.12673523336790982, 0.057103997956784724, 0.13930949237416312, 0.4191236799245193, 0.0, 0.0, 0.0]"
