0,1+AB,2,1.0,0.3535533905932738,0.0,0.42677669453918005,0.42677669445517347,optimal,0.0,"[0.125, 0.125, 0.125, 0.125, 0.125, 0.125, 0.125, 0.125]"
1,1+AB,2,1.0,0.3538625559950866,0.014788797631172693,0.4268436691087842,0.4268436691061002,optimal,0.05,"[0.13017725897103638, 0.13045335303542907, 0.13012830987558832, 0.12383047533931334, 0.1291606027786329, 0.11875, 0.11875, 0.11875]"
2,1+AB,2,1.0,0.3547884357493958,0.029577595262345366,0.42704282954084843,0.42704282954034356,optimal,0.1,"[0.1353545179420728, 0.1359067060708581, 0.13525661975117662, 0.12266095067862667, 0.13332120555726582, 0.1125, 0.1125, 0.1125]"
3,1+AB,2,1.0,0.3563262224680946,0.044366392893518056,0.4273719689691148,0.42737196881604,optimal,0.15000000000000002,"[0.14053177691310917, 0.14136005910628718, 0.14038492962676494, 0.12149142601794001, 0.1374818083358987, 0.10625, 0.10625, 0.10625]"
4,1+AB,2,0.9999999999999999,0.3584680412059246,0.05915519052469073,0.42782928840620305,0.4278292882910756,optimal,0.2,"[0.14570903588414555, 0.14681341214171625, 0.14551323950235323, 0.12032190135725335, 0.14164241111453163, 0.1, 0.1, 0.1]"
5,1+AB,2,1.0,0.36120314697465533,0.07394398815586344,0.42841321929840814,0.42841321929713216,optimal,0.25,"[0.15088629485518196, 0.15226676517714532, 0.15064154937794155, 0.1191523766965667, 0.14580301389316452, 0.09375, 0.09375, 0.09375]"
6,1+AB,2,1.0,0.36451818510676265,0.08873278578703613,0.42912231112454036,0.4291223111236077,optimal,0.30000000000000004,"[0.15606355382621834, 0.15772011821257437, 0.15576985925352987, 0.11798285203588002, 0.14996361667179745, 0.0875, 0.0875, 0.0875]"
7,1+AB,2,1.0,0.3683975003083126,0.10352158341820882,0.42995515000170864,0.42995514995731066,optimal,0.35000000000000003,"[0.16124081279725472, 0.16317347124800344, 0.16089816912911817, 0.11681332737519337, 0.15412421945043034, 0.08124999999999999, 0.08124999999999999, 0.08124999999999999]"
8,1+AB,2,0.9999999999999999,0.3728234786920612,0.11831038104938148,0.43091030003648007,0.4309103000355621,optimal,0.4,"[0.1664180717682911, 0.1686268242834325, 0.16602647900470646, 0.11564380271450671, 0.15828482222906326, 0.075, 0.075, 0.075]"
9,1+AB,2,0.9999999999999999,0.37777690687155313,0.13309917868055415,0.4319862618992531,0.4319862617618855,optimal,0.45,"[0.1715953307393275, 0.17408017731886155, 0.17115478888029478, 0.11447427805382004, 0.16244542500769615, 0.06875, 0.06875, 0.06875]"
10,1+AB,2,1.0,0.3832373331730325,0.14788797631172684,0.43318139833893893,0.4331813918958714,optimal,0.5,"[0.1767725897103639, 0.17953353035429062, 0.1762830987558831, 0.11330475339313338, 0.16660602778632905, 0.0625, 0.0625, 0.0625]"
11,1+AB,2,1.0000000000000002,0.38918341791560096,0.16267677394289956,0.4344942395854336,0.4344942395828677,optimal,0.55,"[0.1819498486814003, 0.1849868833897197, 0.1814114086314714, 0.11213522873244672, 0.17076663056496197, 0.056249999999999994, 0.056249999999999994, 0.056249999999999994]"
12,1+AB,2,1.0000000000000002,0.3955932621950381,0.17746557157407222,0.4359228493190017,0.43592284925536035,optimal,0.6000000000000001,"[0.18712710765243667, 0.19044023642514873, 0.18653971850705972, 0.11096570407176005, 0.1749272333435949, 0.04999999999999999, 0.04999999999999999, 0.04999999999999999]"
13,1+AB,2,0.9999999999999999,0.40244470735556537,0.1922543692052449,0.4374654521170835,0.43746544798725573,optimal,0.65,"[0.19230436662347306, 0.1958935894605778, 0.19166802838264801, 0.10979617941107339, 0.17908783612222778, 0.04375, 0.04375, 0.04375]"
14,1+AB,2,0.9999999999999999,0.4097156000613751,0.2070431668364176,0.4391203549296165,0.4391203544160581,optimal,0.7000000000000001,"[0.19748162559450944, 0.20134694249600688, 0.19679633825823634, 0.10862665475038673, 0.18324843890086068, 0.03749999999999999, 0.03749999999999999, 0.03749999999999999]"
15,1+AB,2,1.0,0.4173840203691922,0.22183196446759026,0.4408856260804979,0.4408856233156451,optimal,0.75,"[0.20265888456554582, 0.20680029553143592, 0.20192464813382463, 0.10745713008970006, 0.1874090416794936, 0.03125, 0.03125, 0.03125]"
16,1+AB,2,1.0,0.42542847231491143,0.236620762098763,0.44290911094658075,0.44290911016217077,optimal,0.8,"[0.20783614353658222, 0.21225364856686502, 0.20705295800941295, 0.10628760542901342, 0.19156964445812652, 0.024999999999999994, 0.024999999999999994, 0.024999999999999994]"
17,1+AB,2,1.0000000000000002,0.43382803819439814,0.25140955972993567,0.44575075367727685,0.44575075207221027,optimal,0.8500000000000001,"[0.21301340250761863, 0.21770700160229406, 0.21218126788500125, 0.10511808076832674, 0.1957302472367594, 0.01874999999999999, 0.01874999999999999, 0.01874999999999999]"
18,1+AB,2,0.9999999999999999,0.4425624989329217,0.26619835736110836,0.4493659767074781,0.4493659657004439,optimal,0.9,"[0.218190661478655, 0.2231603546377231, 0.21730957776058957, 0.10394855610764009, 0.1998908500153923, 0.012499999999999997, 0.012499999999999997, 0.012499999999999997]"
19,1+AB,2,1.0000000000000002,0.45161242373373234,0.280987154992281,0.4534437151159255,0.45344370964505004,optimal,0.9500000000000001,"[0.2233679204496914, 0.2286137076731522, 0.2224378876361779, 0.10277903144695343, 0.2040514527940252, 0.006249999999999992, 0.006249999999999992, 0.006249999999999992]"
20,1+AB,2,1.0000000000000002,0.46095923263376726,0.2957759526234537,0.4578516016808738,0.45785158085189065,optimal,1.0,"[0.22854517942072777, 0.23406706070858124, 0.22756619751176618, 0.10160950678626676, 0.20821205557265812, 0.0, 0.0, 0.0]"
