0,1+AB,1,1.0,0.3535533905932738,0.0,0.42677669433775545,0.426776694231918,optimal,0.0,"[0.125, 0.125, 0.125, 0.125, 0.125, 0.125, 0.125, 0.125]"
1,1+AB,1,1.0,0.3544988562547453,0.02587352094173905,0.4270762435901743,0.4270762423177392,optimal,0.05,"[0.11962149897325378, 0.11972724707937304, 0.14118940653096146, 0.14015425832273484, 0.1230575890936769, 0.11875, 0.11875, 0.11875]"
2,1+AB,1,1.0,0.3573202434003571,0.0517470418834781,0.4278814808078869,0.42788148078064586,optimal,0.1,"[0.11424299794650754, 0.11445449415874609, 0.1573788130619229, 0.1553085166454697, 0.12111517818735378, 0.1125, 0.1125, 0.1125]"
3,1+AB,1,0.9999999999999999,0.3619736893384704,0.07762056282521715,0.4290868595186373,0.42908685782898437,optimal,0.15000000000000002,"[0.10886449691976131, 0.10918174123811913, 0.17356821959288435, 0.17046277496820456, 0.11917276728103067, 0.10625, 0.10625, 0.10625]"
4,1+AB,1,0.9999999999999999,0.3683897737108914,0.10349408376695618,0.4306205324305904,0.43062052243688426,optimal,0.2,"[0.10348599589301508, 0.10390898831749218, 0.18975762612384578, 0.1856170332909394, 0.11723035637470755, 0.1, 0.1, 0.1]"
5,1+AB,1,1.0,0.3764783886866087,0.1293676047086952,0.4324348670704558,0.43243486707022133,optimal,0.25,"[0.09810749486626885, 0.09863623539686522, 0.20594703265480724, 0.20077129161367424, 0.11528794546838445, 0.09375, 0.09375, 0.09375]"
6,1+AB,1,1.0,0.386134441733982,0.1552411256504343,0.43450076737756566,0.43450076737739657,optimal,0.30000000000000004,"[0.09272899383952263, 0.09336348247623827, 0.2221364391857687, 0.2159255499364091, 0.11334553456206134, 0.0875, 0.0875, 0.0875]"
7,1+AB,1,1.0000000000000002,0.39724364716154725,0.18111464659217336,0.43680795418695834,0.4368079486251951,optimal,0.35000000000000003,"[0.0873504928127764, 0.08809072955561131, 0.23832584571673016, 0.23107980825914398, 0.11140312365573822, 0.08124999999999999, 0.08124999999999999, 0.08124999999999999]"
8,1+AB,1,0.9999999999999999,0.40968780980039776,0.20698816753391236,0.4395257208846596,0.43952568688606053,optimal,0.4,"[0.08197199178603017, 0.08281797663498436, 0.25451525224769156, 0.2462340665818788, 0.10946071274941511, 0.075, 0.075, 0.075]"
9,1+AB,1,1.0,0.4233492245885557,0.23286168847565142,0.44697295771742446,0.44697295732095566,optimal,0.45,"[0.07659349075928394, 0.0775452237143574, 0.270704658778653, 0.26138832490461367, 0.107518301843092, 0.06875, 0.06875, 0.06875]"
10,1+AB,1,1.0,0.43811403605940413,0.2587352094173904,0.454969888108034,0.4549698782363303,optimal,0.5,"[0.0712149897325377, 0.07227247079373045, 0.2868940653096145, 0.2765425832273485, 0.10557589093676889, 0.0625, 0.0625, 0.0625]"
11,1+AB,1,1.0,0.45387457452101865,0.28460873035912954,0.46296675108154783,0.46296672415505097,optimal,0.55,"[0.06583648870579148, 0.06699971787310349, 0.30308347184057594, 0.29169684155008335, 0.10363348003044578, 0.056249999999999994, 0.056249999999999994, 0.056249999999999994]"
12,1+AB,1,1.0,0.470530794287532,0.31048225130086865,0.47096393631169325,0.4709639347187297,optimal,0.6000000000000001,"[0.06045798767904524, 0.061726964952476523, 0.3192728783715374, 0.3068510998728182, 0.10169106912412267, 0.04999999999999999, 0.04999999999999999, 0.04999999999999999]"
13,1+AB,1,1.0,0.48799098918004724,0.33635577224260765,0.47896094309688525,0.47896094309358894,optimal,0.65,"[0.05507948665229902, 0.05645421203184958, 0.33546228490249885, 0.3220053581955531, 0.09974865821779956, 0.04375, 0.04375, 0.04375]"
14,1+AB,1,1.0000000000000002,0.5061719676560836,0.3622292931843467,0.48695793870236187,0.48695793869567133,optimal,0.7000000000000001,"[0.04970098562555279, 0.05118145911122261, 0.3516516914334603, 0.33715961651828796, 0.09780624731147644, 0.03749999999999999, 0.03749999999999999, 0.03749999999999999]"
15,1+AB,1,1.0,0.5249988517440652,0.3881028141260857,0.49495493435554433,0.49495493435472454,optimal,0.75,"[0.04432248459880657, 0.04590870619059567, 0.3678410979644217, 0.3523138748410228, 0.09586383640515334, 0.03125, 0.03125, 0.03125]"
16,1+AB,1,1.0,0.5444046344367284,0.4139763350678248,0.5029519298496589,0.5029519298248221,optimal,0.8,"[0.03894398357206033, 0.040635953269968716, 0.3840305044953832, 0.3674681331637576, 0.09392142549883023, 0.024999999999999994, 0.024999999999999994, 0.024999999999999994]"
17,1+AB,1,1.0000000000000002,0.5643295985783788,0.43984985600956383,0.5109488366481167,0.5109488252422993,optimal,0.8500000000000001,"[0.03356548254531409, 0.03536320034934175, 0.40021991102634463, 0.3826223914864925, 0.09197901459250711, 0.01874999999999999, 0.01874999999999999, 0.01874999999999999]"
18,1+AB,1,1.0,0.5847206716364023,0.4657233769513029,0.5189459206237997,0.5189459205368737,optimal,0.9,"[0.028186981518567883, 0.030090447428714806, 0.4164093175573061, 0.39777664980922733, 0.09003660368618399, 0.012499999999999997, 0.012499999999999997, 0.012499999999999997]"
19,1+AB,1,1.0,0.6055307671935936,0.49159689789304195,0.526942809323059,0.5269427927662234,optimal,0.9500000000000001,"[0.022808480491821645, 0.024817694508087837, 0.43259872408826755, 0.4129309081319622, 0.08809419277986089, 0.006249999999999992, 0.006249999999999992, 0.006249999999999992]"
20,1+AB,1,1.0,0.6267181458750365,0.517470418834781,0.534939912135542,0.5349399120257703,optimal,1.0,"[0.01742997946507542, 0.019544941587460896, 0.44878813061922895, 0.428085166454697, 0.08615178187353778, 0.0, 0.0, 0.0]"
