Index, Level, Gleichung, 1-norm, 2-norm, varianz, primal, dual, status, eps, b
Gleichung: 1 - CHSH; 2 - 33,33; 3-44,1111; 4-44,43; 5-44,33_1; 6-44,311; 7-44,411; 8-43,311; 9-411,33; 10-43,43_1; 11-43,411; 12-43,33_1; 13-43,33_2; 14-44,33_2; 15-43,43_2
0,1+AB,1,1.0,0.353553390593,0.0,0.42677669433719756,0.42677669423124287,optimal,0.0,"[0.125, 0.125, 0.125, 0.125, 0.125, 0.125, 0.125, 0.125]"
1,1+AB,1,1.0,0.353684758997,0.00963891832396,0.42695709478400345,0.4269570943479992,optimal,0.05,"[0.12085462573512661, 0.12784812210103788, 0.12236427407497742, 0.12809534162377234, 0.12112304084569511, 0.12885839382543443, 0.12865300960000989, 0.12220319219394633]"
2,1+AB,1,1.0,0.354078571769,0.0192778366479,0.4275067422064354,0.42750674220467755,optimal,0.1,"[0.11670925147025321, 0.13069624420207576, 0.11972854814995484, 0.13119068324754468, 0.11724608169139022, 0.13271678765086886, 0.1323060192000198, 0.11940638438789267]"
3,1+AB,1,1.0,0.354733954842,0.0289167549719,0.42844819424754765,0.428448192185589,optimal,0.15000000000000002,"[0.1125638772053798, 0.13354436630311364, 0.11709282222493225, 0.13428602487131702, 0.11336912253708532, 0.13657518147630326, 0.13595902880002969, 0.116609576581839]"
4,1+AB,1,1.0,0.355649462172,0.0385556732959,0.42982143622127406,0.4298214362198033,optimal,0.2,"[0.10841850294050641, 0.13639248840415152, 0.11445709629990967, 0.13738136649508936, 0.10949216338278044, 0.1404335753017377, 0.13961203840003961, 0.11381276877578533]"
5,1+AB,1,1.0,0.356823091547,0.0481945916198,0.43169435044779775,0.43169435044592364,optimal,0.25,"[0.10427312867563301, 0.13924061050518938, 0.1118213703748871, 0.1404767081188617, 0.10561520422847555, 0.14429196912717213, 0.14326504800004949, 0.11101596096973167]"
6,1+AB,1,1.0,0.358252306165,0.0578335099438,0.4341906882262919,0.43419068822626766,optimal,0.30000000000000004,"[0.10012775441075962, 0.14208873260622729, 0.10918564444986451, 0.14357204974263404, 0.10173824507417065, 0.14815036295260656, 0.14691805760005938, 0.108219153163678]"
7,1+AB,1,1.0,0.359934061428,0.0674724282678,0.4421753058179726,0.44217530468522587,optimal,0.35000000000000003,"[0.095982380145886226, 0.14493685470726514, 0.10654991852484193, 0.14666739136640639, 0.097861285919865759, 0.15200875677804099, 0.1505710672000693, 0.10542234535762433]"
8,1+AB,1,1.0,0.361864836331,0.0771113465917,0.4517717838040609,0.4517717833889804,optimal,0.4,"[0.091837005881012818, 0.14778497680830302, 0.10391419259981935, 0.14976273299017873, 0.093984326765560872, 0.15586715060347539, 0.15422407680007919, 0.10262553755157067]"
9,1+AB,1,1.0,0.364040668694,0.0867502649157,0.46136817160839383,0.46136815873036163,optimal,0.45,"[0.087691631616139437, 0.1506330989093409, 0.10127846667479677, 0.15285807461395107, 0.090107367611255984, 0.15972554442890982, 0.1578770864000891, 0.099828729745517014]"
10,1+AB,1,1.0,0.36645719347,0.0963891832396,0.470964724198721,0.4709647228969966,optimal,0.5,"[0.083546257351266029, 0.15348122101037878, 0.098642740749774194, 0.15595341623772341, 0.086230408456951096, 0.16358393825434425, 0.16153009600009899, 0.097031921939463334]"
11,1+AB,1,1.0,0.369109683321,0.106028101564,0.48056116397499427,0.48056115733377003,optimal,0.55,"[0.079400883086392635, 0.15632934311141666, 0.096007014824751602, 0.15904875786149575, 0.082353449302646195, 0.16744233207977868, 0.1651831056001089, 0.094235114133409667]"
12,1+AB,1,1.0,0.371993090648,0.115667019888,0.49015767985841263,0.49015767985259523,optimal,0.6000000000000001,"[0.07525550882151924, 0.15917746521245454, 0.09337128889972901, 0.16214409948526809, 0.078476490148341294, 0.17130072590521311, 0.16883611520011879, 0.091438306327356]"
13,1+AB,1,1.0,0.375102090305,0.125305938212,0.4997541386578057,0.49975413646506744,optimal,0.65,"[0.071110134556645846, 0.16202558731349243, 0.090735562974706446, 0.16523944110904043, 0.074599530994036406, 0.17515911973064752, 0.17248912480012868, 0.088641498521302348]"
14,1+AB,1,1.0,0.378431122274,0.134944856536,0.5093506260843923,0.5093506260120468,optimal,0.7000000000000001,"[0.066964760291772452, 0.16487370941453031, 0.088099837049683855, 0.16833478273281277, 0.070722571839731518, 0.17901751355608198, 0.17614213440013859, 0.085844690715248667]"
15,1+AB,1,1.0,0.381974433637,0.144583774859,0.5189470862907162,0.5189470844016564,optimal,0.75,"[0.062819386026899057, 0.16772183151556819, 0.085464111124661277, 0.17143012435658511, 0.066845612685426631, 0.18287590738151638, 0.17979514400014848, 0.083047882909195014]"
16,1+AB,1,1.0,0.385726119277,0.154222693183,0.5285435665262388,0.5285435655783249,optimal,0.8,"[0.058674011762025649, 0.17056995361660604, 0.082828385199638699, 0.17452546598035745, 0.062968653531121743, 0.18673430120695081, 0.18344815360015837, 0.080251075103141334]"
17,1+AB,1,1.0,0.389680160806,0.163861611507,0.5381400418220682,0.5381400411488941,optimal,0.8500000000000001,"[0.054528637497152255, 0.17341807571764395, 0.080192659274616107, 0.17762080760412979, 0.059091694376816842, 0.19059269503238524, 0.18710116320016829, 0.077454267297087681]"
18,1+AB,1,1.0,0.393830463336,0.173500529831,0.5477365051650575,0.547736503295846,optimal,0.9,"[0.05038326323227886, 0.1762661978186818, 0.077556933349593543, 0.18071614922790213, 0.055214735222511954, 0.19445108885781964, 0.1907541728001782, 0.074657459491034014]"
19,1+AB,1,1.0,0.398170889783,0.183139448155,0.5573329841903614,0.5573329829176257,optimal,0.9500000000000001,"[0.046237888967405466, 0.17911431991971968, 0.074921207424570951, 0.18381149085167447, 0.051337776068207067, 0.1983094826832541, 0.19440718240018809, 0.071860651684980348]"
20,1+AB,1,1.0,0.402695292476,0.192778366479,0.5669294661553298,0.5669294661074312,optimal,1.0,"[0.042092514702532072, 0.18196244202075756, 0.072285481499548374, 0.18690683247544682, 0.047460816913902179, 0.2021678765086885, 0.19806019200019798, 0.069063843878926681]"
