Index, Level, Gleichung, 1-norm, 2-norm, varianz, primal, dual, status, eps, b
Gleichung: 1 - CHSH; 2 - 33,33; 3-44,1111; 4-44,43; 5-44,33_1; 6-44,311; 7-44,411; 8-43,311; 9-411,33; 10-43,43_1; 11-43,411; 12-43,33_1; 13-43,33_2; 14-44,33_2; 15-43,43_2
0,1+AB,2,1.0,0.353553390593,0.0,0.42677669453896233,0.4267766944549204,optimal,0.0,"[0.125, 0.125, 0.125, 0.125, 0.125, 0.125, 0.125, 0.125]"
1,1+AB,2,1.0,0.3536023678,0.00588510946639,0.4267895187458247,0.4267895187326052,optimal,0.02,"[0.1225, 0.1225, 0.12773545780453963, 0.12613171688886, 0.1262789427714205, 0.12501183938210517, 0.1273420431530747, 0.1225]"
2,1+AB,2,1.0,0.353749258732,0.0117702189328,0.42682705281676714,0.42682705281633804,optimal,0.04,"[0.12, 0.12, 0.13047091560907928, 0.12726343377771998, 0.12755788554284095, 0.12502367876421036, 0.12968408630614944, 0.12]"
3,1+AB,2,1.0,0.353993941503,0.0176553283992,0.4268879939006818,0.42688799384139453,optimal,0.06,"[0.1175, 0.1175, 0.1332063734136189, 0.12839515066657997, 0.12883682831426144, 0.12503551814631553, 0.13202612945922415, 0.1175]"
4,1+AB,2,1.0,0.354336213525,0.0235404378655,0.42697116381000927,0.42697116380220274,optimal,0.08,"[0.115, 0.115, 0.13594183121815853, 0.12952686755543996, 0.13011577108568192, 0.1250473575284207, 0.1343681726122989, 0.115]"
5,1+AB,2,1.0,0.354775792347,0.0294255473319,0.4270754855331586,0.4270754851470307,optimal,0.1,"[0.1125, 0.1125, 0.13867728902269819, 0.13065858444429995, 0.13139471385710239, 0.12505919691052586, 0.1367102157653736, 0.1125]"
6,1+AB,2,1.0,0.355312316819,0.0353106567983,0.4271999930846422,0.4271999930816746,optimal,0.12,"[0.11, 0.11, 0.1414127468272378, 0.13179030133315994, 0.13267365662852287, 0.12507103629263105, 0.1390522589184483, 0.11]"
7,1+AB,2,1.0,0.355945348555,0.0411957662647,0.4273437818803025,0.42734378168214426,optimal,0.14,"[0.1075, 0.1075, 0.14414820463177747, 0.13292201822201996, 0.13395259939994336, 0.12508287567473622, 0.14139430207152304, 0.1075]"
8,1+AB,2,0.9999999999999999,0.356674373707,0.0470808757311,0.4275060396285424,0.42750603924590797,optimal,0.16,"[0.105, 0.105, 0.1468836624363171, 0.13405373511087995, 0.13523154217136382, 0.1250947150568414, 0.14373634522459774, 0.105]"
9,1+AB,2,1.0,0.357498805016,0.0529659851975,0.4276860203993695,0.427686020372486,optimal,0.18,"[0.10250000000000001, 0.10250000000000001, 0.14961912024085672, 0.13518545199973994, 0.1365104849427843, 0.12510655443894655, 0.14607838837767245, 0.10250000000000001]"
10,1+AB,2,0.9999999999999999,0.358417984123,0.0588510946639,0.4278830271833252,0.4278830271817921,optimal,0.2,"[0.1, 0.1, 0.15235457804539637, 0.13631716888859993, 0.1377894277142048, 0.12511839382105175, 0.1484204315307472, 0.1]"
11,1+AB,2,1.0,0.35943118413,0.0647362041302,0.4280964266810481,0.42809642667759706,optimal,0.22,"[0.0975, 0.0975, 0.155090035849936, 0.13744888577745992, 0.13906837048562526, 0.12513023320315692, 0.1507624746838219, 0.0975]"
12,1+AB,2,1.0,0.360537612371,0.0706213135966,0.42832563241306754,0.4283256324080031,optimal,0.24,"[0.095, 0.095, 0.15782549365447562, 0.1385806026663199, 0.14034731325704575, 0.12514207258526208, 0.1531045178368966, 0.095]"
13,1+AB,2,1.0,0.361736413387,0.076506423063,0.42857010214279806,0.42857010214085123,optimal,0.26,"[0.0925, 0.0925, 0.16056095145901528, 0.1397123195551799, 0.14162625602846624, 0.12515391196736725, 0.15544656098997134, 0.0925]"
14,1+AB,2,0.9999999999999999,0.363026672068,0.0823915325294,0.42882933389930794,0.42882933389647276,optimal,0.28,"[0.09, 0.09, 0.1632964092635549, 0.1408440364440399, 0.14290519879988672, 0.12516575134947244, 0.15778860414304607, 0.09]"
15,1+AB,2,1.0,0.364407416942,0.0882766419958,0.42910286265629066,0.42910286265419645,optimal,0.3,"[0.0875, 0.0875, 0.16603186706809453, 0.14197575333289988, 0.14418414157130718, 0.1251775907315776, 0.16013064729612078, 0.0875]"
16,1+AB,2,1.0,0.365877623583,0.0941617514622,0.4293902568444977,0.4293902568293369,optimal,0.32,"[0.08499999999999999, 0.08499999999999999, 0.16876732487263418, 0.14310747022175987, 0.14546308434272767, 0.12518943011368278, 0.1624726904491955, 0.08499999999999999]"
17,1+AB,2,1.0,0.367436218114,0.100046860929,0.4296910916754116,0.42969108862292543,optimal,0.34,"[0.08249999999999999, 0.08249999999999999, 0.1715027826771738, 0.14423918711061987, 0.14674202711414816, 0.12520126949578794, 0.16481473360227022, 0.08249999999999999]"
18,1+AB,2,1.0,0.369082080778,0.105931970395,0.43000506861128046,0.43000506860959375,optimal,0.36,"[0.08, 0.08, 0.17423824048171344, 0.14537090399947986, 0.14802096988556862, 0.12521310887789314, 0.16715677675534493, 0.08]"
19,1+AB,2,1.0,0.370814049557,0.111817079861,0.43033176778392596,0.4303317677798989,optimal,0.38,"[0.0775, 0.0775, 0.1769736982862531, 0.14650262088833987, 0.1492999126569891, 0.1252249482599983, 0.16949881990841964, 0.0775]"
20,1+AB,2,0.9999999999999999,0.372630923801,0.117702189328,0.4306708920103811,0.4306708919846833,optimal,0.4,"[0.075, 0.075, 0.17970915609079272, 0.14763433777719986, 0.1505788554284096, 0.12523678764210347, 0.17184086306149438, 0.075]"
21,1+AB,2,1.0,0.374531467868,0.123587298794,0.43102214267730155,0.43102214267577244,optimal,0.42,"[0.07250000000000001, 0.07250000000000001, 0.18244461389533234, 0.14876605466605985, 0.15185779819983006, 0.12524862702420864, 0.17418290621456908, 0.07250000000000001]"
22,1+AB,2,1.0,0.376514414732,0.12947240826,0.4313851980784613,0.431385193933764,optimal,0.44,"[0.07, 0.07, 0.185180071699872, 0.14989777155491985, 0.15313674097125055, 0.12526046640631383, 0.1765249493676438, 0.07]"
23,1+AB,2,1.0,0.378578469548,0.135357517727,0.43175990407654796,0.43175990181308493,optimal,0.46,"[0.0675, 0.0675, 0.18791552950441165, 0.15102948844377984, 0.15441568374267103, 0.125272305788419, 0.17886699252071853, 0.0675]"
24,1+AB,2,1.0,0.380722313158,0.141242627193,0.43214596406313127,0.43214596402579364,optimal,0.48,"[0.065, 0.065, 0.19065098730895125, 0.15216120533263983, 0.1556946265140915, 0.12528414517052416, 0.18120903567379323, 0.065]"
25,1+AB,2,1.0,0.382944605517,0.14712773666,0.43254312643745496,0.43254312641925,optimal,0.5,"[0.0625, 0.0625, 0.1933864451134909, 0.15329292222149982, 0.15697356928551198, 0.12529598455262936, 0.18355107882686794, 0.0625]"
26,1+AB,2,1.0,0.385243989025,0.153012846126,0.4329512056263202,0.4329512053503943,optimal,0.52,"[0.06, 0.06, 0.19612190291803056, 0.1544246391103598, 0.15825251205693247, 0.12530782393473452, 0.18589312197994268, 0.06]"
27,1+AB,2,1.0,0.387619091753,0.158897955592,0.4333700188469297,0.43337001881921056,optimal,0.54,"[0.057499999999999996, 0.057499999999999996, 0.19885736072257018, 0.1555563559992198, 0.15953145482835296, 0.1253196633168397, 0.1882351651330174, 0.057499999999999996]"
28,1+AB,2,1.0,0.390068530556,0.164783065059,0.4337993828888739,0.4337993828730903,optimal,0.56,"[0.05499999999999999, 0.05499999999999999, 0.2015928185271098, 0.1566880728880798, 0.16081039759977342, 0.12533150269894486, 0.19057720828609212, 0.05499999999999999]"
29,1+AB,2,1.0,0.392590914051,0.170668174525,0.43423913889762683,0.43423913887660304,optimal,0.58,"[0.052500000000000005, 0.052500000000000005, 0.20432827633164943, 0.15781978977693978, 0.1620893403711939, 0.12534334208105005, 0.19291925143916683, 0.052500000000000005]"
30,1+AB,2,1.0,0.395184845469,0.176553283992,0.4346890692683749,0.4346890631659074,optimal,0.6,"[0.05, 0.05, 0.20706373413618906, 0.15895150666579977, 0.16336828314261437, 0.12535518146315522, 0.19526129459224156, 0.05]"
31,1+AB,2,1.0,0.397848925357,0.182438393458,0.4351492306248578,0.4351492281328405,optimal,0.62,"[0.0475, 0.0475, 0.2097991919407287, 0.16008322355465976, 0.16464722591403486, 0.12536702084526039, 0.19760333774531627, 0.0475]"
32,1+AB,2,1.0,0.400581754145,0.188323502924,0.4356193598272829,0.43561935980265354,optimal,0.64,"[0.045, 0.045, 0.21253464974526837, 0.16121494044351975, 0.16592616868545534, 0.12537886022736555, 0.19994538089839098, 0.045]"
33,1+AB,2,0.9999999999999999,0.403381934557,0.194208612391,0.43609935389844096,0.43609935389761995,optimal,0.66,"[0.042499999999999996, 0.042499999999999996, 0.215270107549808, 0.16234665733237977, 0.16720511145687583, 0.12539069960947075, 0.20228742405146571, 0.042499999999999996]"
34,1+AB,2,1.0,0.406248073874,0.200093721857,0.43658912648943177,0.43658912458529864,optimal,0.68,"[0.039999999999999994, 0.039999999999999994, 0.21800556535434762, 0.16347837422123976, 0.1684840542282963, 0.1254025389915759, 0.20462946720454042, 0.039999999999999994]"
35,1+AB,2,0.9999999999999999,0.40917878605,0.205978831324,0.43708865167484595,0.4370886515457868,optimal,0.7000000000000001,"[0.03749999999999999, 0.03749999999999999, 0.22074102315888727, 0.16461009111009975, 0.16976299699971678, 0.12541437837368108, 0.20697151035761513, 0.03749999999999999]"
36,1+AB,2,1.0,0.41217269367,0.21186394079,0.4375978184403084,0.4375978183953223,optimal,0.72,"[0.035, 0.035, 0.2234764809634269, 0.16574180799895974, 0.17104193977113724, 0.12542621775578625, 0.20931355351068986, 0.035]"
37,1+AB,2,1.0,0.415228429768,0.217749050256,0.4381165721289848,0.43811656981853303,optimal,0.74,"[0.0325, 0.0325, 0.22621193876796652, 0.16687352488781973, 0.17232088254255773, 0.12543805713789144, 0.21165559666376457, 0.0325]"
38,1+AB,2,1.0,0.418344639496,0.223634159723,0.438644940380935,0.4386449392274706,optimal,0.76,"[0.03, 0.03, 0.22894739657250618, 0.16800524177667972, 0.17359982531397822, 0.1254498965199966, 0.21399763981683928, 0.03]"
39,1+AB,2,0.9999999999999999,0.421519981649,0.229519269189,0.43918286785059246,0.43918286644629184,optimal,0.78,"[0.027499999999999997, 0.027499999999999997, 0.2316828543770458, 0.1691369586655397, 0.1748787680853987, 0.12546173590210177, 0.21633968296991402, 0.027499999999999997]"
40,1+AB,2,1.0,0.424753130053,0.235404378655,0.4397310195211971,0.4397310188304178,optimal,0.8,"[0.024999999999999994, 0.024999999999999994, 0.23441831218158543, 0.1702686755543997, 0.17615771085681917, 0.12547357528420694, 0.21868172612298875, 0.024999999999999994]"
41,1+AB,2,1.0,0.428042774823,0.241289488122,0.4404636052346977,0.4404636019062185,optimal,0.8200000000000001,"[0.022499999999999992, 0.022499999999999992, 0.23715376998612508, 0.17140039244325972, 0.17743665362823965, 0.12548541466631213, 0.22102376927606346, 0.022499999999999992]"
42,1+AB,2,1.0,0.431387623481,0.247174597588,0.44145929524389876,0.44145929401041883,optimal,0.84,"[0.020000000000000004, 0.020000000000000004, 0.2398892277906647, 0.17253210933211968, 0.17871559639966011, 0.1254972540484173, 0.22336581242913817, 0.020000000000000004]"
43,1+AB,2,1.0000000000000002,0.434786401966,0.253059707055,0.442653844595159,0.44265384321356915,optimal,0.86,"[0.0175, 0.0175, 0.24262468559520434, 0.1736638262209797, 0.1799945391710806, 0.12550909343052247, 0.2257078555822129, 0.0175]"
44,1+AB,2,1.0,0.438237855511,0.258944816521,0.4440117179049145,0.4440117113197419,optimal,0.88,"[0.015, 0.015, 0.245360143399744, 0.1747955431098397, 0.1812734819425011, 0.12552093281262763, 0.22804989873528758, 0.015]"
45,1+AB,2,1.0,0.44174074942,0.264829925987,0.4455196409091661,0.4455196384636952,optimal,0.9,"[0.012499999999999997, 0.012499999999999997, 0.24809560120428364, 0.17592725999869968, 0.18255242471392158, 0.12553277219473283, 0.23039194188836232, 0.012499999999999997]"
46,1+AB,2,1.0,0.445293869732,0.270715035454,0.4471020162871718,0.4471020093191145,optimal,0.92,"[0.009999999999999995, 0.009999999999999995, 0.2508310590088233, 0.17705897688755967, 0.18383136748534204, 0.125544611576838, 0.23273398504143705, 0.009999999999999995]"
47,1+AB,2,1.0,0.448896023785,0.27660014492,0.44872795352816786,0.4487279463322747,optimal,0.9400000000000001,"[0.007499999999999993, 0.007499999999999993, 0.2535665168133629, 0.17819069377641966, 0.18511031025676253, 0.12555645095894316, 0.23507602819451176, 0.007499999999999993]"
48,1+AB,2,0.9999999999999999,0.452546040692,0.282485254387,0.4504030999043216,0.45040309468849277,optimal,0.96,"[0.0050000000000000044, 0.0050000000000000044, 0.2563019746179025, 0.17932241066527965, 0.186389253028183, 0.12556829034104833, 0.23741807134758647, 0.0050000000000000044]"
49,1+AB,2,1.0,0.456242771722,0.288370363853,0.4521345686544208,0.45213456330479784,optimal,0.98,"[0.0025000000000000022, 0.0025000000000000022, 0.25903743242244215, 0.18045412755413964, 0.18766819579960348, 0.12558012972315352, 0.2397601145006612, 0.0025000000000000022]"
50,1+AB,2,1.0,0.459985090604,0.294255473319,0.45393169787781285,0.4539316847666454,optimal,1.0,"[0.0, 0.0, 0.2617728902269818, 0.18158584444299963, 0.18894713857102396, 0.1255919691052587, 0.2421021576537359, 0.0]"
