Index, Level, Gleichung, 1-norm, 2-norm, varianz, primal, dual, status, eps, b
Gleichung: 1 - CHSH; 2 - 33,33; 3-44,1111; 4-44,43; 5-44,33_1; 6-44,311; 7-44,411; 8-43,311; 9-411,33; 10-43,43_1; 11-43,411; 12-43,33_1; 13-43,33_2; 14-44,33_2; 15-43,43_2
0,1+AB,1,1.0,0.353553390593,0.0,0.42677669433719756,0.42677669423124287,optimal,0.0,"[0.125, 0.125, 0.125, 0.125, 0.125, 0.125, 0.125, 0.125]"
1,1+AB,1,1.0,0.353643935544,0.00800207143001,0.42679736471002805,0.42679736470620405,optimal,0.02,"[0.1225, 0.1225, 0.12963414703266107, 0.12842706522733766, 0.12761546794385267, 0.12370892346311126, 0.12311439633303735, 0.1225]"
2,1+AB,1,1.0,0.353915431408,0.01600414286,0.42686096031288767,0.42686095893059783,optimal,0.04,"[0.12, 0.12, 0.13426829406532217, 0.13185413045467531, 0.13023093588770532, 0.12241784692622251, 0.1212287926660747, 0.12]"
3,1+AB,1,1.0,0.354367462283,0.02400621429,0.4269702481528211,0.4269702481517108,optimal,0.06,"[0.1175, 0.1175, 0.13890244109798325, 0.13528119568201297, 0.13284640383155799, 0.12112677038933375, 0.11934318899911206, 0.1175]"
4,1+AB,1,1.0,0.354999338527,0.0320082857201,0.42712841072293534,0.427128410689527,optimal,0.08,"[0.115, 0.115, 0.14353658813064435, 0.13870826090935059, 0.13546187177541064, 0.11983569385244501, 0.11745758533214941, 0.115]"
5,1+AB,1,1.0,0.355810101992,0.0400103571501,0.4273393213969818,0.42733932139639724,optimal,0.1,"[0.1125, 0.1125, 0.14817073516330542, 0.14213532613668825, 0.13807733971926331, 0.11854461731555627, 0.11557198166518676, 0.1125]"
6,1+AB,1,1.0,0.356798533206,0.0480124285801,0.42760764343625657,0.4276076434358467,optimal,0.12,"[0.11, 0.11, 0.1528048821959665, 0.14556239136402591, 0.14069280766311595, 0.11725354077866752, 0.11368637799822411, 0.11]"
7,1+AB,1,1.0,0.357963160411,0.0560145000101,0.4279390976819594,0.4279390976774037,optimal,0.14,"[0.1075, 0.1075, 0.1574390292286276, 0.14898945659136356, 0.14330827560696863, 0.11596246424177878, 0.11180077433126145, 0.1075]"
8,1+AB,1,1.0,0.359302270267,0.0640165714401,0.42834082957179487,0.4283408295707474,optimal,0.16,"[0.105, 0.105, 0.16207317626128867, 0.15241652181870122, 0.14592374355082127, 0.11467138770489002, 0.10991517066429882, 0.105]"
9,1+AB,1,1.0,0.360813920076,0.0720186428701,0.4288219740389248,0.4288219735684517,optimal,0.18,"[0.10250000000000001, 0.10250000000000001, 0.16670732329394974, 0.15584358704603885, 0.14853921149467395, 0.11338031116800128, 0.10802956699733617, 0.10250000000000001]"
10,1+AB,1,1.0,0.362495951311,0.0800207143001,0.42939460781222893,0.4293946078115129,optimal,0.2,"[0.1, 0.1, 0.17134147032661085, 0.1592706522733765, 0.15115467943852662, 0.11208923463111253, 0.10614396333037351, 0.1]"
11,1+AB,1,1.0,0.364346004243,0.0880227857301,0.43007536755806475,0.43007536755751385,optimal,0.22,"[0.0975, 0.0975, 0.17597561735927192, 0.16269771750071416, 0.15377014738237926, 0.11079815809422379, 0.10425835966341086, 0.0975]"
12,1+AB,1,1.0,0.366361533451,0.0960248571602,0.4319953785732697,0.43199537836162144,optimal,0.24,"[0.095, 0.095, 0.18060976439193299, 0.16612478272805181, 0.15638561532623194, 0.10950708155733505, 0.10237275599644821, 0.095]"
13,1+AB,1,1.0,0.368539823997,0.10402692859,0.4367449943441566,0.43674499429498137,optimal,0.26,"[0.0925, 0.0925, 0.18524391142459409, 0.16955184795538947, 0.15900108327008458, 0.10821600502044629, 0.10048715232948557, 0.0925]"
14,1+AB,1,1.0,0.370878008037,0.11202900002,0.44149460961671316,0.44149460960936115,optimal,0.28,"[0.09, 0.09, 0.18987805845725519, 0.17297891318272712, 0.16161655121393725, 0.10692492848355754, 0.098601548662522909, 0.09]"
15,1+AB,1,1.0,0.373373081667,0.12003107145,0.4462442246154784,0.44624422461081975,optimal,0.3,"[0.0875, 0.0875, 0.19451220548991627, 0.17640597841006478, 0.1642320191577899, 0.1056338519466688, 0.096715944995560271, 0.0875]"
16,1+AB,1,1.0,0.376021921802,0.12803314288,0.4509938396091097,0.4509938396069004,optimal,0.32,"[0.08499999999999999, 0.08499999999999999, 0.19914635252257734, 0.17983304363740243, 0.16684748710164257, 0.10434277540978006, 0.09483034132859762, 0.08499999999999999]"
17,1+AB,1,1.0,0.378821302902,0.13603521431,0.4557434539741061,0.4557434538876065,optimal,0.34,"[0.08249999999999999, 0.08249999999999999, 0.20378049955523841, 0.18326010886474009, 0.16946295504549524, 0.10305169887289131, 0.092944737661634969, 0.08249999999999999]"
18,1+AB,1,1.0,0.381767913376,0.14403728574,0.46049306942798873,0.46049306940999063,optimal,0.36,"[0.08, 0.08, 0.20841464658789949, 0.18668717409207772, 0.17207842298934789, 0.10176062233600255, 0.091059133994672331, 0.08]"
19,1+AB,1,1.0,0.38485837152,0.15203935717,0.4652426845247335,0.4652426845225999,optimal,0.38,"[0.0775, 0.0775, 0.21304879362056059, 0.19011423931941537, 0.17469389093320056, 0.10046954579911381, 0.08917353032770968, 0.0775]"
20,1+AB,1,1.0,0.388089240856,0.1600414286,0.46999229553043337,0.46999229495447925,optimal,0.4,"[0.075, 0.075, 0.21768294065322169, 0.19354130454675303, 0.17730935887705321, 0.099178469262225066, 0.087287926660747028, 0.075]"
21,1+AB,1,1.0,0.391457044773,0.16804350003,0.4747419143354389,0.4747419143025612,optimal,0.42,"[0.07250000000000001, 0.07250000000000001, 0.22231708768588276, 0.19696836977409066, 0.17992482682090588, 0.097887392725336322, 0.085402322993784391, 0.07250000000000001]"
22,1+AB,1,1.0,0.394958280367,0.17604557146,0.4794915294417421,0.47949152943532647,optimal,0.44,"[0.07, 0.07, 0.22695123471854384, 0.20039543500142831, 0.18254029476475853, 0.096596316188447578, 0.083516719326821726, 0.07]"
23,1+AB,1,1.0,0.398589431437,0.18404764289,0.48424107912088726,0.4842410685691805,optimal,0.46,"[0.0675, 0.0675, 0.23158538175120491, 0.20382250022876597, 0.1851557627086112, 0.095305239651558821, 0.081631115659859088, 0.0675]"
24,1+AB,1,1.0,0.402346980566,0.19204971432,0.48899075875803244,0.4889907586593553,optimal,0.48,"[0.065, 0.065, 0.23621952878386598, 0.20724956545610362, 0.18777123065246387, 0.094014163114670077, 0.079745511992896437, 0.065]"
25,1+AB,1,1.0,0.406227420273,0.20005178575,0.4937403570214539,0.4937403542112834,optimal,0.5,"[0.0625, 0.0625, 0.24085367581652709, 0.21067663068344128, 0.19038669859631652, 0.092723086577781333, 0.077859908325933785, 0.0625]"
26,1+AB,1,1.0,0.410227263218,0.20805385718,0.49848990005252236,0.49848988574971625,optimal,0.52,"[0.06, 0.06, 0.24548782284918819, 0.21410369591077894, 0.19300216654016916, 0.091432010040892575, 0.075974304658971134, 0.06]"
27,1+AB,1,1.0,0.414343051453,0.21605592861,0.503239598593926,0.5032395976844523,optimal,0.54,"[0.057499999999999996, 0.057499999999999996, 0.25012196988184926, 0.21753076113811659, 0.19561763448402186, 0.090140933504003845, 0.074088700992008483, 0.057499999999999996]"
28,1+AB,1,1.0,0.418571364742,0.22405800004,0.5079892116390476,0.5079892104604956,optimal,0.56,"[0.05499999999999999, 0.05499999999999999, 0.25475611691451039, 0.22095782636545425, 0.19823310242787451, 0.088849856967115087, 0.072203097325045831, 0.05499999999999999]"
29,1+AB,1,1.0,0.422908827965,0.23206007147,0.5127388268516863,0.5127388257367886,optimal,0.58,"[0.052500000000000005, 0.052500000000000005, 0.25939026394717141, 0.22438489159279187, 0.20084857037172715, 0.087558780430226357, 0.070317493658083194, 0.052500000000000005]"
30,1+AB,1,1.0,0.427352117643,0.2400621429,0.5174884487768907,0.5174884487038252,optimal,0.6,"[0.05, 0.05, 0.26402441097983254, 0.22781195682012953, 0.2034640383155798, 0.086267703893337599, 0.068431889991120542, 0.05]"
31,1+AB,1,1.0,0.431897967617,0.24806421433,0.5222380619042617,0.5222380615528928,optimal,0.62,"[0.0475, 0.0475, 0.26865855801249361, 0.23123902204746719, 0.2060795062594325, 0.084976627356448856, 0.066546286324157891, 0.0475]"
32,1+AB,1,1.0,0.436543173928,0.25606628576,0.5269876497583842,0.5269876453649212,optimal,0.64,"[0.045, 0.045, 0.27329270504515468, 0.23466608727480484, 0.20869497420328514, 0.083685550819560112, 0.06466068265719524, 0.045]"
33,1+AB,1,1.0,0.441284598949,0.26406835719,0.5317372877890038,0.5317372868297908,optimal,0.66,"[0.042499999999999996, 0.042499999999999996, 0.27792685207781576, 0.2380931525021425, 0.21131044214713779, 0.082394474282671354, 0.062775078990232602, 0.042499999999999996]"
34,1+AB,1,1.0,0.446119174806,0.27207042862,0.5364869002358383,0.5364868988680289,optimal,0.68,"[0.039999999999999994, 0.039999999999999994, 0.28256099911047683, 0.24152021772948015, 0.21392591009099049, 0.08110339774578261, 0.060889475323269937, 0.039999999999999994]"
35,1+AB,1,1.0,0.45104390616,0.28007250005,0.5412365225414292,0.541236522297013,optimal,0.7000000000000001,"[0.03749999999999999, 0.03749999999999999, 0.2871951461431379, 0.24494728295681781, 0.21654137803484313, 0.079812321208893866, 0.0590038716563073, 0.03749999999999999]"
36,1+AB,1,1.0,0.456055872382,0.28807457148,0.5459861154014287,0.5459861118740531,optimal,0.72,"[0.035, 0.035, 0.29182929317579898, 0.24837434818415544, 0.21915684597869578, 0.078521244672005122, 0.057118267989344648, 0.035]"
37,1+AB,1,1.0,0.461152229179,0.29607664291,0.5507357535498798,0.5507357534669695,optimal,0.74,"[0.0325, 0.0325, 0.29646344020846005, 0.25180141341149309, 0.22177231392254843, 0.077230168135116378, 0.055232664322381997, 0.0325]"
38,1+AB,1,1.0,0.466330209739,0.304078714341,0.5554853624683673,0.5554853614627699,optimal,0.76,"[0.03, 0.03, 0.30109758724112118, 0.25522847863883075, 0.22438778186640113, 0.07593909159822762, 0.053347060655419359, 0.03]"
39,1+AB,1,1.0,0.471587125404,0.312080785771,0.5602349811370608,0.5602349807055886,optimal,0.78,"[0.027499999999999997, 0.027499999999999997, 0.30573173427378225, 0.2586555438661684, 0.22700324981025377, 0.074648015061338877, 0.051461456988456708, 0.027499999999999997]"
40,1+AB,1,1.0,0.476920365967,0.320082857201,0.5649845974270963,0.564984597189619,optimal,0.8,"[0.024999999999999994, 0.024999999999999994, 0.31036588130644338, 0.26208260909350606, 0.22961871775410642, 0.073356938524450133, 0.049575853321494057, 0.024999999999999994]"
41,1+AB,1,1.0,0.482327399589,0.328084928631,0.5697342113080109,0.5697342108867652,optimal,0.8200000000000001,"[0.022499999999999992, 0.022499999999999992, 0.31500002833910445, 0.26550967432084371, 0.23223418569795912, 0.072065861987561375, 0.047690249654531405, 0.022499999999999992]"
42,1+AB,1,1.0,0.487805772424,0.336087000061,0.5744838251687236,0.5744838245807321,optimal,0.84,"[0.020000000000000004, 0.020000000000000004, 0.31963417537176553, 0.26893673954818131, 0.23484965364181176, 0.070774785450672645, 0.045804645987568768, 0.020000000000000004]"
43,1+AB,1,1.0,0.493353107945,0.344089071491,0.5792334175609827,0.5792334134569282,optimal,0.86,"[0.0175, 0.0175, 0.3242683224044266, 0.27236380477551903, 0.23746512158566441, 0.069483708913783887, 0.043919042320606116, 0.0175]"
44,1+AB,1,1.0,0.498967106053,0.352091142921,0.5839830586937395,0.5839830586433433,optimal,0.88,"[0.015, 0.015, 0.32890246943708767, 0.27579087000285663, 0.24008058952951705, 0.068192632376895143, 0.042033438653643465, 0.015]"
45,1+AB,1,1.0,0.504645541961,0.360093214351,0.5887326735851447,0.5887326735285155,optimal,0.9,"[0.012499999999999997, 0.012499999999999997, 0.33353661646974875, 0.27921793523019434, 0.24269605747336975, 0.066901555840006399, 0.040147834986680814, 0.012499999999999997]"
46,1+AB,1,1.0,0.510386264915,0.368095285781,0.5934822661706176,0.593482262638333,optimal,0.92,"[0.009999999999999995, 0.009999999999999995, 0.33817076350240982, 0.28264500045753194, 0.2453115254172224, 0.065610479303117641, 0.038262231319718162, 0.009999999999999995]"
47,1+AB,1,1.0,0.516187196762,0.376097357211,0.5982319028181534,0.5982319026596316,optimal,0.9400000000000001,"[0.007499999999999993, 0.007499999999999993, 0.34280491053507089, 0.28607206568486965, 0.24792699336107504, 0.064319402766228911, 0.036376627652755511, 0.007499999999999993]"
48,1+AB,1,1.0,0.522046330398,0.384099428641,0.6029815188200623,0.6029815188120335,optimal,0.96,"[0.0050000000000000044, 0.0050000000000000044, 0.34743905756773197, 0.28949913091220725, 0.25054246130492774, 0.063028326229340154, 0.034491023985792874, 0.0050000000000000044]"
49,1+AB,1,1.0,0.527961728118,0.392101500071,0.6077311337370718,0.6077311337165882,optimal,0.98,"[0.0025000000000000022, 0.0025000000000000022, 0.35207320460039304, 0.2929261961395449, 0.25315792924878033, 0.06173724969245141, 0.032605420318830222, 0.0025000000000000022]"
50,1+AB,1,1.0,0.533931519886,0.400103571501,0.6124807348694298,0.6124807306162801,optimal,1.0,"[0.0, 0.0, 0.35670735163305417, 0.29635326136688256, 0.25577339719263303, 0.060446173155562666, 0.030719816651867571, 0.0]"
