Index, Level, Gleichung, 1-norm, 2-norm, varianz, primal, dual, status, eps, b
Gleichung: 1 - CHSH; 2 - 33,33; 3-44,1111; 4-44,43; 5-44,33_1; 6-44,311; 7-44,411; 8-43,311; 9-411,33; 10-43,43_1; 11-43,411; 12-43,33_1; 13-43,33_2; 14-44,33_2; 15-43,43_2
0,1+AB,3,1.0,0.353553390593,0.0,0.42677669528951856,0.42677669528914186,optimal,0.0,"[0.125, 0.125, 0.125, 0.125, 0.125, 0.125, 0.125, 0.125]"
1,1+AB,3,1.0,0.353609252426,0.0062851731472,0.42679940275286365,0.42679940273917044,optimal,0.02,"[0.1225, 0.1225, 0.12816323321749623, 0.12488397632872507, 0.12527778304844284, 0.1261022654648925, 0.12807274194044332, 0.1225]"
2,1+AB,3,0.9999999999999999,0.353776785001,0.0125703462944,0.426865201582152,0.42686518901278325,optimal,0.04,"[0.12, 0.12, 0.13132646643499246, 0.12476795265745014, 0.1255555660968857, 0.12720453092978504, 0.13114548388088668, 0.12]"
3,1+AB,3,1.0,0.354055829797,0.0188555194416,0.42697145993659946,0.4269714599341846,optimal,0.06,"[0.1175, 0.1175, 0.1344896996524887, 0.1246519289861752, 0.12583334914532854, 0.12830679639467754, 0.13421822582133, 0.1175]"
4,1+AB,3,1.0,0.354446123443,0.0251406925888,0.4271152852515668,0.42711528525072684,optimal,0.08,"[0.115, 0.115, 0.13765293286998492, 0.12453590531490027, 0.1261111321937714, 0.12940906185957007, 0.13729096776177332, 0.115]"
5,1+AB,3,1.0,0.354947298958,0.031425865736,0.42729457035383106,0.4272945703495558,optimal,0.1,"[0.1125, 0.1125, 0.14081616608748118, 0.12441988164362534, 0.12638891524221424, 0.13051132732446258, 0.14036370970221665, 0.1125]"
6,1+AB,3,1.0000000000000002,0.355558887463,0.0377110388832,0.4275073850624861,0.42750738506163327,optimal,0.12,"[0.11, 0.11, 0.1439793993049774, 0.12430385797235041, 0.12666669829065708, 0.1316135927893551, 0.14343645164266, 0.11]"
7,1+AB,3,1.0,0.356280320356,0.0439962120304,0.42775204469320227,0.4277520446099655,optimal,0.14,"[0.1075, 0.1075, 0.14714263252247364, 0.12418783430107547, 0.12694448133909994, 0.13271585825424762, 0.14650919358310333, 0.1075]"
8,1+AB,3,1.0,0.357110931918,0.0502813851776,0.4280270785929998,0.4280270784049699,optimal,0.16,"[0.105, 0.105, 0.15030586573996987, 0.12407181062980054, 0.12722226438754278, 0.13381812371914015, 0.14958193552354665, 0.105]"
9,1+AB,3,1.0,0.358049962325,0.0565665583248,0.42833120286674947,0.42833120276922054,optimal,0.18,"[0.10250000000000001, 0.10250000000000001, 0.1534690989574661, 0.1239557869585256, 0.12750004743598561, 0.13492038918403265, 0.15265467746398997, 0.10250000000000001]"
10,1+AB,3,1.0,0.359096561038,0.062851731472,0.4286632923437923,0.42866329232558464,optimal,0.2,"[0.1, 0.1, 0.15663233217496234, 0.12383976328725067, 0.12777783048442848, 0.13602265464892518, 0.15572741940443333, 0.1]"
11,1+AB,3,1.0,0.360249790535,0.0691369046191,0.429022362174573,0.4290223615878022,optimal,0.22,"[0.0975, 0.0975, 0.15979556539245857, 0.12372373961597574, 0.12805561353287132, 0.1371249201138177, 0.15880016134487665, 0.0975]"
12,1+AB,3,1.0000000000000002,0.361508630346,0.0754220777663,0.4294075586855074,0.4294075565655893,optimal,0.24,"[0.095, 0.095, 0.16295879860995482, 0.12360771594470081, 0.12833339658131418, 0.13822718557871022, 0.16187290328531997, 0.095]"
13,1+AB,3,1.0,0.362871981354,0.0817072509135,0.42981818797098886,0.42981818796774524,optimal,0.26,"[0.0925, 0.0925, 0.16612203182745106, 0.12349169227342588, 0.12861117962975702, 0.13932945104360273, 0.16494564522576333, 0.0925]"
14,1+AB,3,1.0,0.364338670322,0.0879924240607,0.4302535683450865,0.4302535683400227,optimal,0.28,"[0.09, 0.09, 0.1692852650449473, 0.12337566860215095, 0.12888896267819985, 0.14043171650849526, 0.16801838716620665, 0.09]"
15,1+AB,3,1.0,0.365907454605,0.0942775972079,0.4307131840156324,0.43071318401538355,optimal,0.3,"[0.0875, 0.0875, 0.17244849826244352, 0.12325964493087602, 0.12916674572664272, 0.14153398197338776, 0.17109112910664998, 0.0875]"
16,1+AB,3,0.9999999999999999,0.367577027005,0.100562770355,0.4311965882122297,0.43119658821182993,optimal,0.32,"[0.08499999999999999, 0.08499999999999999, 0.17561173147993975, 0.12314362125960109, 0.12944452877508555, 0.1426362474382803, 0.1741638710470933, 0.08499999999999999]"
17,1+AB,3,1.0,0.369346020732,0.106847943502,0.43170341600439716,0.43170341600426076,optimal,0.34,"[0.08249999999999999, 0.08249999999999999, 0.17877496469743598, 0.12302759758832615, 0.1297223118235284, 0.1437385129031728, 0.17723661298753665, 0.08249999999999999]"
18,1+AB,3,0.9999999999999999,0.371213014431,0.11313311665,0.4322333785508626,0.4322333785279133,optimal,0.36,"[0.08, 0.08, 0.1819381979149322, 0.12291157391705122, 0.13000009487197126, 0.14484077836806533, 0.18030935492797998, 0.08]"
19,1+AB,3,1.0,0.373176537229,0.119418289797,0.432786259842925,0.43278625984281055,optimal,0.38,"[0.0775, 0.0775, 0.18510143113242844, 0.12279555024577628, 0.1302778779204141, 0.14594304383295784, 0.1833820968684233, 0.0775]"
20,1+AB,3,1.0,0.375235073782,0.125703462944,0.43336190857810863,0.43336190832566535,optimal,0.4,"[0.075, 0.075, 0.18826466434992467, 0.12267952657450135, 0.13055566096885696, 0.14704530929785037, 0.18645483880886665, 0.075]"
21,1+AB,3,1.0,0.377387069277,0.131988636091,0.43396014537127253,0.4339601355244168,optimal,0.42,"[0.07250000000000001, 0.07250000000000001, 0.1914278975674209, 0.12256350290322642, 0.1308334440172998, 0.14814757476274287, 0.18952758074930998, 0.07250000000000001]"
22,1+AB,3,1.0,0.379630934358,0.138273809238,0.43458125653382806,0.43458125653353064,optimal,0.44,"[0.07, 0.07, 0.19459113078491713, 0.12244747923195148, 0.13111122706574263, 0.1492498402276354, 0.1926003226897533, 0.07]"
23,1+AB,3,1.0,0.381965049957,0.144558982385,0.43522497390963044,0.4352249738725443,optimal,0.46,"[0.0675, 0.0675, 0.1977543640024134, 0.12233145556067655, 0.1313890101141855, 0.1503521056925279, 0.19567306463019662, 0.0675]"
24,1+AB,3,1.0,0.384387771994,0.150844155533,0.43589150628625645,0.4358915062861474,optimal,0.48,"[0.065, 0.065, 0.20091759721990962, 0.12221543188940162, 0.13166679316262833, 0.15145437115742044, 0.19874580657063995, 0.065]"
25,1+AB,3,1.0,0.386897435933,0.15712932868,0.4365810165119829,0.43658101651166514,optimal,0.5,"[0.0625, 0.0625, 0.20408083043740585, 0.12209940821812669, 0.1319445762110712, 0.15255663662231295, 0.2018185485110833, 0.0625]"
26,1+AB,3,1.0,0.389492361167,0.163414501827,0.4372937293192965,0.4372937293189742,optimal,0.52,"[0.06, 0.06, 0.20724406365490208, 0.12198338454685176, 0.13222235925951403, 0.15365890208720545, 0.20489129045152665, 0.06]"
27,1+AB,3,0.9999999999999999,0.392170855223,0.169699674974,0.4380299301451733,0.438029930137669,optimal,0.54,"[0.057499999999999996, 0.057499999999999996, 0.21040729687239834, 0.12186736087557683, 0.13250014230795687, 0.15476116755209798, 0.20796403239196998, 0.057499999999999996]"
28,1+AB,3,1.0,0.394931217769,0.175984848121,0.438789967100094,0.43878996709874957,optimal,0.56,"[0.05499999999999999, 0.05499999999999999, 0.21357053008989457, 0.1217513372043019, 0.13277792535639973, 0.15586343301699052, 0.2110367743324133, 0.05499999999999999]"
29,1+AB,3,1.0,0.397771744413,0.182270021269,0.43957425192027955,0.4395742519200986,optimal,0.58,"[0.052500000000000005, 0.052500000000000005, 0.2167337633073908, 0.12163531353302696, 0.13305570840484257, 0.15696569848188302, 0.21410951627285663, 0.052500000000000005]"
30,1+AB,3,0.9999999999999999,0.400690730291,0.188555194416,0.4403832631461219,0.4403832631450903,optimal,0.6,"[0.05, 0.05, 0.21989699652488703, 0.12151928986175203, 0.1333334914532854, 0.15806796394677552, 0.21718225821329995, 0.05]"
31,1+AB,3,0.9999999999999999,0.403686473432,0.194840367563,0.4412175488815656,0.4412175488791493,optimal,0.62,"[0.0475, 0.0475, 0.22306022974238326, 0.1214032661904771, 0.13361127450172827, 0.15917022941166806, 0.22025500015374327, 0.0475]"
32,1+AB,3,0.9999999999999999,0.406757277902,0.20112554071,0.4420777081037497,0.4420777060965879,optimal,0.64,"[0.045, 0.045, 0.2262234629598795, 0.12128724251920216, 0.1338890575501711, 0.1602724948765606, 0.22332774209418663, 0.045]"
33,1+AB,3,0.9999999999999999,0.409901456722,0.207410713857,0.44296450846526103,0.4429645084564656,optimal,0.66,"[0.042499999999999996, 0.042499999999999996, 0.22938669617737573, 0.12117121884792723, 0.13416684059861397, 0.1613747603414531, 0.22640048403462998, 0.042499999999999996]"
34,1+AB,3,1.0,0.413117334571,0.213695887005,0.44387854390435855,0.44387853199367766,optimal,0.68,"[0.039999999999999994, 0.039999999999999994, 0.23254992939487196, 0.1210551951766523, 0.1344446236470568, 0.1624770258063456, 0.2294732259750733, 0.039999999999999994]"
35,1+AB,3,0.9999999999999999,0.416403250258,0.219981060152,0.44482107760459516,0.4448210775223032,optimal,0.7000000000000001,"[0.03749999999999999, 0.03749999999999999, 0.2357131626123682, 0.12093917150537736, 0.13472240669549965, 0.16357929127123813, 0.23254596791551663, 0.03749999999999999]"
36,1+AB,3,0.9999999999999999,0.419757558992,0.226266233299,0.44579271900260914,0.44579271892683925,optimal,0.72,"[0.035, 0.035, 0.23887639582986442, 0.12082314783410243, 0.1350001897439425, 0.16468155673613064, 0.23561870985595995, 0.035]"
37,1+AB,3,1.0,0.423178634432,0.232551406446,0.44679466329298545,0.446794662121065,optimal,0.74,"[0.0325, 0.0325, 0.24203962904736065, 0.1207071241628275, 0.13527797279238535, 0.16578382220102317, 0.23869145179640328, 0.0325]"
38,1+AB,3,1.0,0.426664870539,0.238836579593,0.447827997364552,0.4478279837348345,optimal,0.76,"[0.03, 0.03, 0.24520286226485688, 0.12059110049155257, 0.13555575584082818, 0.16688608766591567, 0.2417641937368466, 0.03]"
39,1+AB,3,0.9999999999999999,0.43021468323,0.245121752741,0.4488944054281334,0.44889439696526073,optimal,0.78,"[0.027499999999999997, 0.027499999999999997, 0.24836609548235314, 0.12047507682027764, 0.13583353888927105, 0.1679883531308082, 0.24483693567728995, 0.027499999999999997]"
40,1+AB,3,1.0,0.43382651185,0.251406925888,0.4499950869519127,0.44999507679726974,optimal,0.8,"[0.024999999999999994, 0.024999999999999994, 0.25152932869984934, 0.1203590531490027, 0.13611132193771389, 0.1690906185957007, 0.2479096776177333, 0.024999999999999994]"
41,1+AB,3,1.0,0.437498820461,0.257692099035,0.4511319313990443,0.45113193078726327,optimal,0.8200000000000001,"[0.022499999999999992, 0.022499999999999992, 0.2546925619173456, 0.12024302947772778, 0.13638910498615675, 0.17019288406059324, 0.25098241955817663, 0.022499999999999992]"
42,1+AB,3,1.0,0.441230098961,0.263977272182,0.4523066216278433,0.45230662161884816,optimal,0.84,"[0.020000000000000004, 0.020000000000000004, 0.2578557951348418, 0.12012700580645284, 0.1366668880345996, 0.17129514952548575, 0.25405516149861995, 0.020000000000000004]"
43,1+AB,3,0.9999999999999999,0.445018864044,0.270262445329,0.4535213466077851,0.45352134298955826,optimal,0.86,"[0.0175, 0.0175, 0.26101902835233803, 0.12001098213517791, 0.13694467108304242, 0.17239741499037825, 0.2571279034390633, 0.0175]"
44,1+AB,3,0.9999999999999999,0.448863660018,0.276547618477,0.45477865924785393,0.4547786588324433,optimal,0.88,"[0.015, 0.015, 0.26418226156983426, 0.11989495846390297, 0.1372224541314853, 0.17349968045527078, 0.2602006453795066, 0.015]"
45,1+AB,3,0.9999999999999999,0.452763059467,0.282832791624,0.4560812590942504,0.45608125758846846,optimal,0.9,"[0.012499999999999997, 0.012499999999999997, 0.26734549478733055, 0.11977893479262804, 0.13750023717992813, 0.17460194592016332, 0.26327338731995, 0.012499999999999997]"
46,1+AB,3,0.9999999999999998,0.456715663792,0.289117964771,0.4574324963920425,0.45743249602043995,optimal,0.92,"[0.009999999999999995, 0.009999999999999995, 0.2705087280048268, 0.1196629111213531, 0.137778020228371, 0.17570421138505582, 0.26634612926039325, 0.009999999999999995]"
47,1+AB,3,0.9999999999999999,0.460720103633,0.295403137918,0.4588362500769745,0.45883625003654643,optimal,0.9400000000000001,"[0.007499999999999993, 0.007499999999999993, 0.273671961222323, 0.11954688745007817, 0.13805580327681383, 0.17680647684994835, 0.26941887120083663, 0.007499999999999993]"
48,1+AB,3,1.0,0.464775039168,0.301688311065,0.4602973138688861,0.460297313523125,optimal,0.96,"[0.0050000000000000044, 0.0050000000000000044, 0.27683519443981924, 0.11943086377880324, 0.13833358632525666, 0.17790874231484086, 0.2724916131412799, 0.0050000000000000044]"
49,1+AB,3,1.0,0.468879160315,0.307973484213,0.4618219141530637,0.46182191412038714,optimal,0.98,"[0.0025000000000000022, 0.0025000000000000022, 0.2799984276573155, 0.11931484010752831, 0.13861136937369953, 0.1790110077797334, 0.2755643550817233, 0.0025000000000000022]"
50,1+AB,3,1.0,0.473031186842,0.31425865736,0.46341942557538074,0.46341941778390183,optimal,1.0,"[0.0, 0.0, 0.2831616608748117, 0.11919881643625338, 0.13888915242214236, 0.1801132732446259, 0.2786370970221666, 0.0]"
