0,1+AB,2,1.0,0.3535533905932738,0.0,0.42677669453918005,0.42677669445517347,optimal,0.0,"[0.125, 0.125, 0.125, 0.125, 0.125, 0.125, 0.125, 0.125]"
1,1+AB,2,1.0,0.353933327315263,0.01639512685077802,0.4268209164032382,0.4268209161715185,optimal,0.05,"[0.12475687591849412, 0.1229944287014504, 0.13259434288566013, 0.13179934141212302, 0.13160501108227235, 0.11875, 0.11875, 0.11875]"
2,1+AB,2,1.0,0.35507069822475135,0.032790253701556006,0.4269603553484542,0.4269603519029657,optimal,0.1,"[0.12451375183698825, 0.1209888574029008, 0.14018868577132026, 0.138598682824246, 0.13821002216454467, 0.1125, 0.1125, 0.1125]"
3,1+AB,2,0.9999999999999999,0.35695826319063956,0.04918538055233403,0.42720808318424663,0.4272080826823063,optimal,0.15000000000000002,"[0.12427062775548237, 0.11898328610435119, 0.1477830286569804, 0.14539802423636902, 0.14481503324681702, 0.10625, 0.10625, 0.10625]"
4,1+AB,2,0.9999999999999999,0.35958420842863725,0.06558050740311203,0.4275820870973878,0.4275820870969045,optimal,0.2,"[0.1240275036739765, 0.11697771480580159, 0.15537737154264053, 0.15219736564849204, 0.15142004432908934, 0.1, 0.1, 0.1]"
5,1+AB,2,1.0,0.36293250696421164,0.08197563425389003,0.4281084642522161,0.4281084642519367,optimal,0.25,"[0.12378437959247061, 0.11497214350725199, 0.16297171442830066, 0.15899670706061503, 0.1580250554113617, 0.09375, 0.09375, 0.09375]"
6,1+AB,2,1.0,0.3669833874173485,0.09837076110466807,0.42882705388324877,0.42882705388225456,optimal,0.30000000000000004,"[0.12354125551096475, 0.11296657220870239, 0.1705660573139608, 0.16579604847273804, 0.16463006649363404, 0.0875, 0.0875, 0.0875]"
7,1+AB,2,1.0000000000000002,0.37171388061007615,0.11476588795544607,0.4306454773122152,0.4306454772323478,optimal,0.35000000000000003,"[0.12329813142945886, 0.11096100091015279, 0.17816040019962093, 0.17259538988486106, 0.17123507757590636, 0.08124999999999999, 0.08124999999999999, 0.08124999999999999]"
8,1+AB,2,0.9999999999999999,0.37709841130001925,0.13116101480622408,0.43859483148452744,0.43859483145001343,optimal,0.4,"[0.123055007347953, 0.10895542961160319, 0.18575474308528106, 0.17939473129698408, 0.1778400886581787, 0.075, 0.075, 0.075]"
9,1+AB,2,0.9999999999999999,0.3831094033571889,0.14755614165700207,0.4465441831206282,0.44654418281668085,optimal,0.45,"[0.12281188326644711, 0.10694985831305359, 0.1933490859709412, 0.18619407270910707, 0.18444509974045104, 0.06875, 0.06875, 0.06875]"
10,1+AB,2,1.0,0.38971787031814464,0.16395126850778008,0.45449353966475814,0.45449353966281175,optimal,0.5,"[0.12256875918494123, 0.10494428701450398, 0.20094342885660132, 0.19299341412123008, 0.19105011082272338, 0.0625, 0.0625, 0.0625]"
11,1+AB,2,1.0,0.39689396860978543,0.18034639535855812,0.4624428932904144,0.4624428932393836,optimal,0.55,"[0.12232563510343536, 0.10293871571595438, 0.20853777174226146, 0.1997927555333531, 0.19765512190499573, 0.056249999999999994, 0.056249999999999994, 0.056249999999999994]"
12,1+AB,2,1.0000000000000002,0.4046074969167609,0.19674152220933613,0.47039205395500744,0.4703920235969487,optimal,0.6000000000000001,"[0.12208251102192948, 0.10093314441740478, 0.2161321146279216, 0.20659209694547612, 0.20426013298726808, 0.04999999999999999, 0.04999999999999999, 0.04999999999999999]"
13,1+AB,2,0.9999999999999999,0.4128283313589006,0.2131366490601141,0.47834160157813593,0.4783416015767226,optimal,0.65,"[0.12183938694042361, 0.09892757311885518, 0.22372645751358172, 0.2133914383575991, 0.2108651440695404, 0.04375, 0.04375, 0.04375]"
14,1+AB,2,0.9999999999999999,0.4215267917378538,0.2295317759108921,0.4862909555420127,0.4862909555409965,optimal,0.7000000000000001,"[0.12159626285891773, 0.09692200182030558, 0.23132080039924185, 0.22019077976972212, 0.21747015515181273, 0.03749999999999999, 0.03749999999999999, 0.03749999999999999]"
15,1+AB,2,1.0,0.4306739387308547,0.24592690276167012,0.49424030806653263,0.4942403078557173,optimal,0.75,"[0.12135313877741186, 0.09491643052175598, 0.238915143284902, 0.22699012118184514, 0.22407516623408508, 0.03125, 0.03125, 0.03125]"
16,1+AB,2,1.0,0.4402418053978905,0.26232202961244816,0.5021896619276355,0.5021896616984944,optimal,0.8,"[0.12111001469590597, 0.09291085922320638, 0.24650948617056212, 0.23378946259396816, 0.23068017731635743, 0.024999999999999994, 0.024999999999999994, 0.024999999999999994]"
17,1+AB,2,1.0000000000000002,0.45020356874079376,0.27871715646322615,0.5101388043571515,0.5101387714002972,optimal,0.8500000000000001,"[0.1208668906144001, 0.09090528792465677, 0.25410382905622225, 0.24058880400609117, 0.23728518839862978, 0.01874999999999999, 0.01874999999999999, 0.01874999999999999]"
18,1+AB,2,0.9999999999999999,0.46053366843565846,0.29511228331400413,0.5180883563756989,0.5180883539767017,optimal,0.9,"[0.12062376653289422, 0.08889971662610717, 0.2616981719418824, 0.24738814541821413, 0.2438901994809021, 0.012499999999999997, 0.012499999999999997, 0.012499999999999997]"
19,1+AB,2,1.0,0.47120788043873996,0.3115074101647822,0.5260376763800308,0.5260376706324743,optimal,0.9500000000000001,"[0.12038064245138835, 0.08689414532755757, 0.2692925148275425, 0.2541874868303372, 0.2504952105631745, 0.006249999999999992, 0.006249999999999992, 0.006249999999999992]"
20,1+AB,2,1.0,0.48220335314184704,0.32790253701556016,0.5339870792741779,0.5339870792396321,optimal,1.0,"[0.12013751836988247, 0.08488857402900797, 0.27688685771320265, 0.26098682824246017, 0.25710022164544677, 0.0, 0.0, 0.0]"
