Index, Level, Gleichung, 1-norm, 2-norm, varianz, primal, dual, status, eps, b
Gleichung: 1 - CHSH; 2 - 33,33; 3-44,1111; 4-44,43; 5-44,33_1; 6-44,311; 7-44,411; 8-43,311; 9-411,33; 10-43,43_1; 11-43,411; 12-43,33_1; 13-43,33_2; 14-44,33_2; 15-43,43_2
0,1+AB,1,1.0,0.353553390593,0.0,0.42677669433719756,0.42677669423124287,optimal,0.0,"[0.125, 0.125, 0.125, 0.125, 0.125, 0.125, 0.125, 0.125]"
1,1+AB,1,1.0,0.35368022429,0.00947106404198,0.42688405194239054,0.42688405065248947,optimal,0.05,"[0.12791025662324212, 0.126080159990833, 0.12159478797273895, 0.12152605524454164, 0.12860922079173981, 0.12710571730300266, 0.12776701684344155, 0.11940678523046025]"
2,1+AB,1,1.0,0.354060452771,0.018942128084,0.42720165609667293,0.42720165500900376,optimal,0.1,"[0.13082051324648428, 0.12716031998166602, 0.11818957594547791, 0.11805211048908329, 0.13221844158347962, 0.12921143460600534, 0.13053403368688307, 0.11381357046092049]"
3,1+AB,1,1.0,0.354693261124,0.0284131921259,0.4277263165758545,0.4277263162078464,optimal,0.15000000000000002,"[0.1337307698697264, 0.12824047997249902, 0.11478436391821685, 0.11457816573362495, 0.13582766237521943, 0.131317151909008, 0.13330105053032462, 0.10822035569138072]"
4,1+AB,1,1.0,0.35557730083,0.0378842561679,0.4284603198917828,0.4284603195597882,optimal,0.2,"[0.13664102649296855, 0.12932063996333201, 0.1113791518909558, 0.11110422097816659, 0.13943688316695924, 0.13342286921201066, 0.13606806737376614, 0.10262714092184097]"
5,1+AB,1,1.0,0.356710704006,0.0473553202099,0.4294130848428761,0.4294130846015746,optimal,0.25,"[0.13955128311621068, 0.13040079995416504, 0.10797393986369476, 0.10763027622270824, 0.14304610395869904, 0.13552858651501334, 0.13883508421720769, 0.09703392615230122]"
6,1+AB,1,1.0,0.35809110286,0.0568263842519,0.4306043668546435,0.43060436680878367,optimal,0.30000000000000004,"[0.14246153973945283, 0.13148095994499803, 0.1045687278364337, 0.10415633146724988, 0.14665532475043885, 0.137634303818016, 0.14160210106064922, 0.091440711382761442]"
7,1+AB,1,1.0,0.359715653886,0.0662974482939,0.43207104594703316,0.43207104011143044,optimal,0.35000000000000003,"[0.14537179636269495, 0.13256111993583103, 0.10116351580917265, 0.10068238671179153, 0.15026454554217866, 0.13974002112101869, 0.14436911790409077, 0.085847496613221691]"
8,1+AB,1,1.0,0.361581066238,0.0757685123358,0.43465108581705175,0.43465107301012884,optimal,0.4,"[0.14828205298593711, 0.13364127992666405, 0.09775830378191161, 0.097208441956333186, 0.15387376633391847, 0.14184573842402134, 0.14713613474753229, 0.080254281843681941]"
9,1+AB,1,1.0,0.363683633645,0.0852395763778,0.44210757844571563,0.44210757841951426,optimal,0.45,"[0.15119230960917923, 0.13472143991749705, 0.094353091754650564, 0.093734497200874817, 0.15748298712565828, 0.143951455727024, 0.14990315159097384, 0.07466106707414219]"
10,1+AB,1,1.0,0.366019269177,0.0947106404198,0.4495639757250504,0.44956397564659256,optimal,0.5,"[0.15410256623242136, 0.13580159990833007, 0.090947879727389519, 0.090260552445416475, 0.16109220791739809, 0.14605717303002669, 0.15267016843441539, 0.069067852304602426]"
11,1+AB,1,1.0,0.368583542151,0.104181704462,0.4570203738456571,0.457020373840142,optimal,0.55,"[0.15701282285566351, 0.13688175989916307, 0.087542667700128474, 0.08678660768995812, 0.16470142870913793, 0.14816289033302935, 0.15543718527785691, 0.063474637535062661]"
12,1+AB,1,1.0,0.371371716463,0.113652768504,0.4644767714996806,0.4644767714974948,optimal,0.6000000000000001,"[0.15992307947890566, 0.13796191988999607, 0.084137455672867414, 0.083312662934499765, 0.16831064950087773, 0.150268607636032, 0.15820420212129846, 0.057881422765522897]"
13,1+AB,1,1.0,0.374378789651,0.123123832546,0.47193316909327976,0.4719331690859588,optimal,0.65,"[0.16283333610214779, 0.13904207988082909, 0.080732243645606383, 0.079838718179041424, 0.17191987029261754, 0.15237432493903469, 0.16097121896473998, 0.052288207995983146]"
14,1+AB,1,1.0,0.377599532046,0.132594896588,0.47938955564701086,0.4793895539876293,optimal,0.7000000000000001,"[0.16574359272538991, 0.14012223987166209, 0.077327031618345324, 0.076364773423583054, 0.17552909108435735, 0.15448004224203735, 0.16373823580818153, 0.046694993226443382]"
15,1+AB,1,1.0,0.381028525401,0.14206596063,0.4868459603907476,0.4868459598199361,optimal,0.75,"[0.16865384934863206, 0.14120239986249508, 0.073921819591084278, 0.072890828668124713, 0.17913831187609716, 0.15658575954504, 0.16650525265162305, 0.041101778456903632]"
16,1+AB,1,1.0,0.384660200497,0.151537024672,0.494302358231515,0.4943023577046909,optimal,0.8,"[0.17156410597187419, 0.14228255985332811, 0.070516607563823219, 0.069416883912666358, 0.18274753266783697, 0.15869147684804269, 0.1692722694950646, 0.035508563687363881]"
17,1+AB,1,1.0,0.38848887324,0.161008088714,0.5017587596366455,0.5017587596360488,optimal,0.8500000000000001,"[0.17447436259511634, 0.1433627198441611, 0.067111395536562174, 0.065942939157208003, 0.18635675345957678, 0.16079719415104535, 0.17203928633850613, 0.029915348917824117]"
18,1+AB,1,1.0,0.392508778914,0.170479152756,0.5092151572267887,0.5092151572208764,optimal,0.9,"[0.17738461921835846, 0.1444428798349941, 0.063706183509301129, 0.062468994401749647, 0.18996597425131659, 0.162902911454048, 0.17480630318194768, 0.024322134148284366]"
19,1+AB,1,1.0,0.396714104268,0.179950216798,0.5166715548553218,0.5166715548496026,optimal,0.9500000000000001,"[0.18029487584160062, 0.14552303982582712, 0.060300971482040083, 0.058995049646291292, 0.1935751950430564, 0.16500862875705069, 0.17757332002538923, 0.018728919378744602]"
20,1+AB,1,1.0,0.401099017245,0.18942128084,0.5241279512611485,0.524127951083609,optimal,1.0,"[0.18320513246484274, 0.14660319981666012, 0.056895759454779038, 0.055521104890832951, 0.19718441583479621, 0.16711434606005335, 0.18034033686883075, 0.013135704609204851]"
