0,1+AB,1,1.0,0.3535533905932738,0.0,0.42677669433775545,0.426776694231918,optimal,0.0,"[0.125, 0.125, 0.125, 0.125, 0.125, 0.125, 0.125, 0.125]"
1,1+AB,1,1.0,0.3544216847678936,0.02479376199192349,0.42712417905828276,0.42712417904713085,optimal,0.05,"[0.1217100640165276, 0.1253849335859484, 0.14516585624667436, 0.13202154466929003, 0.11946760148155959, 0.11875, 0.11875, 0.11875]"
2,1+AB,1,1.0,0.357013896837152,0.04958752398384698,0.42816498017620785,0.42816498017426297,optimal,0.1,"[0.11842012803305522, 0.12576986717189678, 0.16533171249334871, 0.1390430893385801, 0.11393520296311918, 0.1125, 0.1125, 0.1125]"
3,1+AB,1,0.9999999999999998,0.36129292229908044,0.0743812859757705,0.4299126921080712,0.42991269208719957,optimal,0.15000000000000002,"[0.11513019204958283, 0.1261548007578452, 0.1854975687400231, 0.14606463400787012, 0.10840280444467877, 0.10625, 0.10625, 0.10625]"
4,1+AB,1,0.9999999999999999,0.3671997959413845,0.09917504796769397,0.43239518663502097,0.43239518647909797,optimal,0.2,"[0.11184025606611044, 0.12653973434379356, 0.20566342498669746, 0.15308617867716015, 0.10287040592623836, 0.1, 0.1, 0.1]"
5,1+AB,1,1.0,0.3746575314107588,0.12396880995961745,0.4356481631331084,0.43564816313269655,optimal,0.25,"[0.10855032008263805, 0.12692466792974197, 0.22582928123337181, 0.16010772334645018, 0.09733800740779795, 0.09375, 0.09375, 0.09375]"
6,1+AB,1,1.0,0.3835756806858816,0.148762571951541,0.4397532094771084,0.4397532000211811,optimal,0.30000000000000004,"[0.10526038409916566, 0.12730960151569035, 0.2459951374800462, 0.16712926801574024, 0.09180560888935754, 0.0875, 0.0875, 0.0875]"
7,1+AB,1,1.0,0.3938550508142498,0.17355633394346445,0.44938140476834887,0.44938139908432506,optimal,0.35000000000000003,"[0.10197044811569327, 0.12769453510163875, 0.26616099372672053, 0.17415081268503027, 0.08627321037091712, 0.08124999999999999, 0.08124999999999999, 0.08124999999999999]"
8,1+AB,1,0.9999999999999999,0.40539210717227536,0.19835009593538797,0.46000736128763076,0.46000736116058893,optimal,0.4,"[0.09868051213222089, 0.12807946868758713, 0.2863268499733949, 0.1811723573543203, 0.08074081185247672, 0.075, 0.075, 0.075]"
9,1+AB,1,0.9999999999999999,0.41808274459810485,0.22314385792731145,0.4706332057408399,0.4706331946389621,optimal,0.45,"[0.09539057614874849, 0.12846440227353553, 0.3064927062200693, 0.18819390202361036, 0.07520841333403631, 0.06875, 0.06875, 0.06875]"
10,1+AB,1,1.0,0.43182526949127814,0.2479376199192349,0.48125914812098974,0.48125914029318095,optimal,0.5,"[0.09210064016527611, 0.12884933585948394, 0.32665856246674363, 0.1952154466929004, 0.0696760148155959, 0.0625, 0.0625, 0.0625]"
11,1+AB,1,1.0,0.4465225712986637,0.2727313819111584,0.49188499939715447,0.49188498258545016,optimal,0.55,"[0.0888107041818037, 0.12923426944543231, 0.346824418713418, 0.20223699136219042, 0.06414361629715548, 0.056249999999999994, 0.056249999999999994, 0.056249999999999994]"
12,1+AB,1,1.0,0.46208355440823645,0.297525143903082,0.502511002209774,0.5025109960522176,optimal,0.6000000000000001,"[0.08552076819833132, 0.12961920303138072, 0.3669902749600924, 0.20925853603148048, 0.05861121777871507, 0.04999999999999999, 0.04999999999999999, 0.04999999999999999]"
13,1+AB,1,0.9999999999999999,0.4784239512162339,0.3223189058950054,0.51313693880179,0.5131369350537587,optimal,0.65,"[0.08223083221485894, 0.1300041366173291, 0.38715613120676673, 0.2162800807007705, 0.053078819260274676, 0.04375, 0.04375, 0.04375]"
14,1+AB,1,0.9999999999999998,0.4954666529723079,0.34711266788692896,0.5237628835760328,0.5237628835622529,optimal,0.7000000000000001,"[0.07894089623138653, 0.1303890702032775, 0.4073219874534411, 0.22330162537006054, 0.04754642074183425, 0.03749999999999999, 0.03749999999999999, 0.03749999999999999]"
15,1+AB,1,0.9999999999999999,0.5131416886058213,0.3719064298788524,0.5343886622491181,0.534388640065932,optimal,0.75,"[0.07565096024791415, 0.13077400378922588, 0.42748784370011544, 0.2303231700393506, 0.04201402222339386, 0.03125, 0.03125, 0.03125]"
16,1+AB,1,1.0,0.5313859635239816,0.39670019187077593,0.5450147240365196,0.5450147240068708,optimal,0.8,"[0.07236102426444177, 0.13115893737517428, 0.44765369994678983, 0.23734471470864063, 0.03648162370495345, 0.024999999999999994, 0.024999999999999994, 0.024999999999999994]"
17,1+AB,1,1.0,0.5501428479429787,0.4214939538626994,0.5556406290478488,0.5556406268643936,optimal,0.8500000000000001,"[0.06907108828096936, 0.13154387096112266, 0.4678195561934642, 0.24436625937793066, 0.030949225186513024, 0.01874999999999999, 0.01874999999999999, 0.01874999999999999]"
18,1+AB,1,0.9999999999999998,0.5693616823450071,0.4462877158546229,0.5662665629972472,0.5662665627520159,optimal,0.9,"[0.06578115229749698, 0.13192880454707107, 0.48798541244013854, 0.2513878040472207, 0.02541682666807263, 0.012499999999999997, 0.012499999999999997, 0.012499999999999997]"
19,1+AB,1,0.9999999999999999,0.5889972485250557,0.47108147784654636,0.5768924675557954,0.5768924647606088,optimal,0.9500000000000001,"[0.062491216314024586, 0.13231373813301944, 0.5081512686868129, 0.2584093487165108, 0.019884428149632205, 0.006249999999999992, 0.006249999999999992, 0.006249999999999992]"
20,1+AB,1,1.0,0.6090092392442499,0.4958752398384698,0.5875184052466513,0.5875184052432966,optimal,1.0,"[0.059201280330552206, 0.13269867171896785, 0.5283171249334873, 0.2654308933858008, 0.01435202963119181, 0.0, 0.0, 0.0]"
