Index, Level, Gleichung, 1-norm, 2-norm, varianz, primal, dual, status, eps, b
Gleichung: 1 - CHSH; 2 - 33,33; 3-44,1111; 4-44,43; 5-44,33_1; 6-44,311; 7-44,411; 8-43,311; 9-411,33; 10-43,43_1; 11-43,411; 12-43,33_1; 13-43,33_2; 14-44,33_2; 15-43,43_2
0,1+AB,3,1.0,0.353553390593,0.0,0.42677669528951856,0.42677669528914186,optimal,0.0,"[0.125, 0.125, 0.125, 0.125, 0.125, 0.125, 0.125, 0.125]"
1,1+AB,3,1.0,0.353632247656,0.0074677026288,0.42686478117720794,0.4268647744543278,optimal,0.02,"[0.1225, 0.1225, 0.12427790584217591, 0.12693783680926291, 0.12365247413469872, 0.1297651196118581, 0.12786666360200438, 0.1225]"
2,1+AB,3,1.0,0.35386871341,0.0149354052576,0.4271183963300381,0.4271183963141355,optimal,0.04,"[0.12, 0.12, 0.1235558116843518, 0.12887567361852581, 0.12230494826939745, 0.13453023922371618, 0.13073332720400876, 0.12]"
3,1+AB,3,1.0,0.354262472248,0.0224031078864,0.42752276180285453,0.42752276179067467,optimal,0.06,"[0.1175, 0.1175, 0.12283371752652771, 0.13081351042778869, 0.12095742240409617, 0.13929535883557428, 0.13359999080601315, 0.1175]"
4,1+AB,3,1.0,0.354813000496,0.0298708105152,0.4280654532161532,0.42806545321436984,optimal,0.08,"[0.115, 0.115, 0.12211162336870361, 0.13275134723705159, 0.11960989653879489, 0.14406047844743236, 0.13646665440801753, 0.115]"
5,1+AB,3,1.0,0.355519569875,0.037338513144,0.42873588742153595,0.4287358874190607,optimal,0.1,"[0.1125, 0.1125, 0.12138952921087952, 0.1346891840463145, 0.11826237067349361, 0.14882559805929046, 0.13933331801002191, 0.1125]"
6,1+AB,3,1.0,0.356381252273,0.0448062157728,0.42952520235341435,0.429525202299816,optimal,0.12,"[0.11, 0.11, 0.12066743505305541, 0.1366270208555774, 0.11691484480819234, 0.15359071767114857, 0.14219998161202629, 0.11]"
7,1+AB,3,1.0,0.357396925763,0.0522739184016,0.43042609537229914,0.43042609281058447,optimal,0.14,"[0.1075, 0.1075, 0.11994534089523132, 0.13856485766484031, 0.11556731894289105, 0.15835583728300665, 0.14506664521403068, 0.1075]"
8,1+AB,3,1.0,0.35856528176,0.0597416210304,0.4314328199822664,0.4314328195710176,optimal,0.16,"[0.105, 0.105, 0.11922324673740722, 0.14050269447410318, 0.11421979307758978, 0.16312095689486475, 0.14793330881603506, 0.105]"
9,1+AB,3,1.0,0.359884833227,0.0672093236592,0.4325409048285574,0.43254090053688155,optimal,0.18,"[0.10250000000000001, 0.10250000000000001, 0.11850115257958313, 0.14244053128336609, 0.11287226721228849, 0.16788607650672283, 0.15079997241803944, 0.10250000000000001]"
10,1+AB,3,1.0,0.361353923813,0.074677026288,0.4337475382475812,0.43374753824748763,optimal,0.2,"[0.1, 0.1, 0.11777905842175902, 0.14437836809262899, 0.11152474134698721, 0.17265119611858093, 0.15366663602004382, 0.1]"
11,1+AB,3,1.0,0.362970737786,0.0821447289168,0.43505103651200555,0.43505102231360504,optimal,0.22,"[0.0975, 0.0975, 0.11705696426393493, 0.1463162049018919, 0.11017721548168594, 0.17741631573043903, 0.15653329962204821, 0.0975]"
12,1+AB,3,1.0,0.364733310636,0.0896124315456,0.43645210471539286,0.43645210471324136,optimal,0.24,"[0.095, 0.095, 0.11633487010611084, 0.1482540417111548, 0.10882968961638466, 0.18218143534229711, 0.15939996322405259, 0.095]"
13,1+AB,3,1.0,0.366639540218,0.0970801341743,0.43795268650237607,0.43795268634853846,optimal,0.26,"[0.0925, 0.0925, 0.11561277594828674, 0.15019187852041768, 0.10748216375108338, 0.18694655495415521, 0.16226662682605697, 0.0925]"
14,1+AB,3,1.0,0.368687198286,0.104547836803,0.43955798727810697,0.4395579872206124,optimal,0.28,"[0.09, 0.09, 0.11489068179046263, 0.15212971532968059, 0.1061346378857821, 0.19171167456601329, 0.16513329042806135, 0.09]"
15,1+AB,3,1.0,0.370873942296,0.112015539432,0.44127704349068897,0.44127703909288996,optimal,0.3,"[0.0875, 0.0875, 0.11416858763263854, 0.15406755213894349, 0.10478711202048083, 0.19647679417787139, 0.16799995403006571, 0.0875]"
16,1+AB,3,1.0,0.373197327339,0.119483242061,0.44312575681272504,0.4431257529439337,optimal,0.32,"[0.08499999999999999, 0.08499999999999999, 0.11344649347481445, 0.1560053889482064, 0.10343958615517955, 0.2012419137897295, 0.17086661763207012, 0.08499999999999999]"
17,1+AB,3,1.0,0.375654818094,0.12695094469,0.44645024768585184,0.4464502462096042,optimal,0.34,"[0.08249999999999999, 0.08249999999999999, 0.11272439931699035, 0.1579432257574693, 0.10209206028987827, 0.2060070334015876, 0.1737332812340745, 0.08249999999999999]"
18,1+AB,3,1.0,0.378243800672,0.134418647318,0.4506532154635826,0.45065321544208964,optimal,0.36,"[0.08, 0.08, 0.11200230515916625, 0.15988106256673218, 0.100744534424577, 0.21077215301344565, 0.17659994483607885, 0.08]"
19,1+AB,3,1.0,0.38096159426,0.141886349947,0.45485617194476724,0.4548561719352231,optimal,0.38,"[0.0775, 0.0775, 0.11128021100134215, 0.16181889937599508, 0.099397008559275718, 0.21553727262530376, 0.17946660843808324, 0.0775]"
20,1+AB,3,1.0,0.383805462469,0.149354052576,0.45905911012034767,0.45905910777771075,optimal,0.4,"[0.075, 0.075, 0.11055811684351806, 0.16375673618525799, 0.098049482693974441, 0.22030239223716186, 0.18233327204008762, 0.075]"
21,1+AB,3,1.0,0.386772624297,0.156821755205,0.46326206022449495,0.46326205619091154,optimal,0.42,"[0.07250000000000001, 0.07250000000000001, 0.10983602268569397, 0.16569457299452089, 0.096701956828673163, 0.22506751184901996, 0.185199935642092, 0.07250000000000001]"
22,1+AB,3,1.0,0.389860264653,0.164289457834,0.46746503728784644,0.46746503674408724,optimal,0.44,"[0.07, 0.07, 0.10911392852786986, 0.1676324098037838, 0.095354430963371886, 0.22983263146087804, 0.18806659924409638, 0.07]"
23,1+AB,3,1.0,0.393065544369,0.171757160462,0.4716679751014308,0.4716679721687829,optimal,0.46,"[0.0675, 0.0675, 0.10839183437004576, 0.1695702466130467, 0.094006905098070609, 0.23459775107273614, 0.19093326284610077, 0.0675]"
24,1+AB,3,1.0,0.396385609666,0.179224863091,0.4758709532942824,0.47587095317515726,optimal,0.48,"[0.065, 0.065, 0.10766974021222167, 0.17150808342230958, 0.092659379232769318, 0.23936287068459422, 0.19379992644810515, 0.065]"
25,1+AB,3,1.0,0.399817601032,0.18669256572,0.48007390814404655,0.4800739077602294,optimal,0.5,"[0.0625, 0.0625, 0.10694764605439758, 0.17344592023157249, 0.091311853367468054, 0.24412799029645232, 0.19666659005010953, 0.0625]"
26,1+AB,3,1.0,0.403358661498,0.194160268349,0.48427686499539996,0.4842768647028107,optimal,0.52,"[0.06, 0.06, 0.10622555189657347, 0.17538375704083539, 0.089964327502166763, 0.24889310990831043, 0.19953325365211391, 0.06]"
27,1+AB,3,1.0,0.407005944282,0.201627970977,0.48847982114081523,0.4884798208049601,optimal,0.54,"[0.057499999999999996, 0.057499999999999996, 0.10550345773874938, 0.1773215938500983, 0.088616801636865486, 0.25365822952016853, 0.20239991725411829, 0.057499999999999996]"
28,1+AB,3,1.0,0.410756619814,0.209095673606,0.4926827408034524,0.49268273512179694,optimal,0.56,"[0.05499999999999999, 0.05499999999999999, 0.10478136358092527, 0.17925943065936117, 0.087269275771564209, 0.25842334913202658, 0.20526658085612268, 0.05499999999999999]"
29,1+AB,3,1.0,0.414607882132,0.216563376235,0.49688568356563473,0.496885675552435,optimal,0.58,"[0.052500000000000005, 0.052500000000000005, 0.10405926942310118, 0.18119726746862408, 0.085921749906262945, 0.26318846874388468, 0.20813324445812703, 0.052500000000000005]"
30,1+AB,3,1.0,0.418556954663,0.224031078864,0.5010886905939241,0.5010886902854923,optimal,0.6,"[0.05, 0.05, 0.10333717526527708, 0.18313510427788698, 0.084574224040961654, 0.26795358835574279, 0.21099990806013141, 0.05]"
31,1+AB,3,1.0,0.422601095399,0.231498781493,0.5052916036019026,0.5052915983525483,optimal,0.62,"[0.0475, 0.0475, 0.10261508110745299, 0.18507294108714989, 0.083226698175660377, 0.27271870796760089, 0.2138665716621358, 0.0475]"
32,1+AB,3,1.0,0.426737601499,0.238966484121,0.509494517310646,0.5094945060963469,optimal,0.64,"[0.045, 0.045, 0.10189298694962889, 0.18701077789641279, 0.0818791723103591, 0.277483827579459, 0.21673323526414021, 0.045]"
33,1+AB,3,1.0,0.430963813329,0.24643418675,0.5136975617352857,0.5136975617117256,optimal,0.66,"[0.042499999999999996, 0.042499999999999996, 0.10117089279180479, 0.1889486147056757, 0.080531646445057822, 0.2822489471913171, 0.21959989886614459, 0.042499999999999996]"
34,1+AB,3,1.0,0.435277117972,0.253901889379,0.5179005160949033,0.5179005157687457,optimal,0.68,"[0.039999999999999994, 0.039999999999999994, 0.10044879863398069, 0.1908864515149386, 0.079184120579756545, 0.28701406680317521, 0.22246656246814897, 0.039999999999999994]"
35,1+AB,3,1.0,0.439674952239,0.261369592008,0.5221034658282581,0.5221034644544018,optimal,0.7000000000000001,"[0.03749999999999999, 0.03749999999999999, 0.0997267044761566, 0.19282428832420148, 0.077836594714455254, 0.29177918641503331, 0.22533322607015335, 0.03749999999999999]"
36,1+AB,3,1.0,0.444154805206,0.268837294637,0.5263064310969349,0.5263064310888977,optimal,0.72,"[0.035, 0.035, 0.099004610318332506, 0.19476212513346436, 0.076489068849153991, 0.2965443060268913, 0.22819988967215771, 0.035]"
37,1+AB,3,1.0,0.448714220316,0.276304997265,0.5305093854221008,0.5305093850756857,optimal,0.74,"[0.0325, 0.0325, 0.098282516160508399, 0.19669996194272726, 0.075141542983852713, 0.30130942563874941, 0.23106655327416209, 0.0325]"
38,1+AB,3,1.0,0.453350797071,0.283772699894,0.5347123439720389,0.5347123439673604,optimal,0.76,"[0.03, 0.03, 0.097560422002684305, 0.19863779875199017, 0.073794017118551436, 0.30607454525060751, 0.23393321687616647, 0.03]"
39,1+AB,3,1.0,0.458062192351,0.291240402523,0.5389153003569511,0.5389153003459586,optimal,0.78,"[0.027499999999999997, 0.027499999999999997, 0.096838327844860211, 0.20057563556125307, 0.072446491253250145, 0.31083966486246561, 0.23679988047817085, 0.027499999999999997]"
40,1+AB,3,1.0,0.462846121387,0.298708105152,0.5431182321753106,0.5431182286461597,optimal,0.8,"[0.024999999999999994, 0.024999999999999994, 0.096116233687036118, 0.20251347237051598, 0.071098965387948881, 0.31560478447432372, 0.23966654408017524, 0.024999999999999994]"
41,1+AB,3,1.0,0.467700358424,0.306175807781,0.547321168070654,0.5473211617987618,optimal,0.8200000000000001,"[0.022499999999999992, 0.022499999999999992, 0.09539413952921201, 0.20445130917977888, 0.06975143952264759, 0.32036990408618182, 0.24253320768217962, 0.022499999999999992]"
42,1+AB,3,1.0,0.472622737098,0.313643510409,0.5515241613992905,0.5515241602871495,optimal,0.84,"[0.020000000000000004, 0.020000000000000004, 0.094672045371387917, 0.20638914598904179, 0.068403913657346327, 0.32513502369803993, 0.245399871284184, 0.020000000000000004]"
43,1+AB,3,1.0,0.47761115056,0.321111213038,0.5557271024704598,0.5557270992705156,optimal,0.86,"[0.0175, 0.0175, 0.093949951213563823, 0.20832698279830469, 0.067056387792045036, 0.32990014330989803, 0.24826653488618838, 0.0175]"
44,1+AB,3,1.0,0.48266355137,0.328578915667,0.5599300772256042,0.5599300764419541,optimal,0.88,"[0.015, 0.015, 0.093227857055739716, 0.21026481960756757, 0.065708861926743772, 0.33466526292175608, 0.25113319848819277, 0.015]"
45,1+AB,3,1.0,0.487777951191,0.336046618296,0.5641330165235685,0.5641330129245244,optimal,0.9,"[0.012499999999999997, 0.012499999999999997, 0.092505762897915622, 0.21220265641683048, 0.064361336061442481, 0.33943038253361418, 0.25399986209019715, 0.012499999999999997]"
46,1+AB,3,1.0,0.492952420301,0.343514320925,0.5683359953368745,0.5683359953332942,optimal,0.92,"[0.009999999999999995, 0.009999999999999995, 0.091783668740091529, 0.21414049322609338, 0.063013810196141204, 0.34419550214547229, 0.25686652569220153, 0.009999999999999995]"
47,1+AB,3,1.0,0.498185086948,0.350982023553,0.5725389517650313,0.5725389517611735,optimal,0.9400000000000001,"[0.007499999999999993, 0.007499999999999993, 0.091061574582267435, 0.21607833003535629, 0.061666284330839927, 0.34896062175733039, 0.25973318929420591, 0.007499999999999993]"
48,1+AB,3,1.0,0.503474136575,0.358449726182,0.5767419072718406,0.57674190710907,optimal,0.96,"[0.0050000000000000044, 0.0050000000000000044, 0.090339480424443341, 0.21801616684461916, 0.060318758465538649, 0.35372574136918844, 0.2625998528962103, 0.0050000000000000044]"
49,1+AB,3,1.0,0.508817810918,0.365917428811,0.5809448644546862,0.5809448644248117,optimal,0.98,"[0.0025000000000000022, 0.0025000000000000022, 0.089617386266619248, 0.21995400365388207, 0.058971232600237372, 0.35849086098104654, 0.26546651649821468, 0.0025000000000000022]"
50,1+AB,3,1.0,0.514214407014,0.37338513144,0.5851478209931869,0.5851478209667206,optimal,1.0,"[0.0, 0.0, 0.08889529210879514, 0.22189184046314497, 0.057623706734936095, 0.36325598059290465, 0.26833318010021906, 0.0]"
