Index, Level, Gleichung, 1-norm, 2-norm, varianz, primal, dual, status, eps, b
Gleichung: 1 - CHSH, 2 - 33,33, 3-44,1111
0,1+AB,1,1.0,0.353553390593,0.0,0.42677669433719756,0.42677669423124287,optimal,0.0,"[0.125, 0.125, 0.125, 0.125, 0.125, 0.125, 0.125, 0.125]"
1,1+AB,1,1.0,0.353563997036,0.00273861278753,0.4267854537566145,0.4267854537526323,optimal,0.01,"[0.12375, 0.12575, 0.12375, 0.12575, 0.12375, 0.12575, 0.12575, 0.12575]"
2,1+AB,1,1.0000000000000002,0.353595814455,0.00547722557505,0.4268118984291721,0.4268118983621616,optimal,0.02,"[0.1225, 0.1265, 0.1225, 0.1265, 0.1225, 0.1265, 0.1265, 0.1265]"
3,1+AB,1,0.9999999999999999,0.353648837125,0.00821583836258,0.42685629987879636,0.42685629986429524,optimal,0.03,"[0.12125, 0.12725, 0.12125, 0.12725, 0.12125, 0.12725, 0.12725, 0.12725]"
4,1+AB,1,1.0,0.353723055511,0.0109544511501,0.4269189457670243,0.426918945759787,optimal,0.04,"[0.12, 0.128, 0.12, 0.128, 0.12, 0.128, 0.128, 0.128]"
5,1+AB,1,1.0,0.353818456274,0.0136930639376,0.42700014857250235,0.42700014856470275,optimal,0.05,"[0.11875, 0.12875, 0.11875, 0.12875, 0.11875, 0.12875, 0.12875, 0.12875]"
6,1+AB,1,0.9999999999999998,0.353935022285,0.0164316767252,0.42710024583081185,0.4271002458168585,optimal,0.06,"[0.1175, 0.1295, 0.1175, 0.1295, 0.1175, 0.1295, 0.1295, 0.1295]"
7,1+AB,1,0.9999999999999999,0.354072732641,0.0191702895127,0.42721960354869465,0.4272196035312805,optimal,0.07,"[0.11624999999999999, 0.13025, 0.11624999999999999, 0.13025, 0.11624999999999999, 0.13025, 0.13025, 0.13025]"
8,1+AB,1,1.0,0.354231562682,0.0219089023002,0.42735861953202714,0.42735861953031345,optimal,0.08,"[0.115, 0.131, 0.115, 0.131, 0.115, 0.131, 0.131, 0.131]"
9,1+AB,1,1.0,0.354411484013,0.0246475150877,0.42751772655814463,0.4275177265568244,optimal,0.09,"[0.11375, 0.13175, 0.11375, 0.13175, 0.11375, 0.13175, 0.13175, 0.13175]"
10,1+AB,1,1.0000000000000002,0.35461246453,0.0273861278753,0.42769739783466537,0.42769739783040245,optimal,0.1,"[0.1125, 0.1325, 0.1125, 0.1325, 0.1125, 0.1325, 0.1325, 0.1325]"
11,1+AB,1,0.9999999999999999,0.35483446845,0.0301247406628,0.4278980385386525,0.42789802598696636,optimal,0.11,"[0.11125, 0.13325, 0.11125, 0.13325, 0.11125, 0.13325, 0.13325, 0.13325]"
12,1+AB,1,1.0,0.355077456339,0.0328633534503,0.4281205561413209,0.4281205561401468,optimal,0.12,"[0.11, 0.134, 0.11, 0.134, 0.11, 0.134, 0.134, 0.134]"
13,1+AB,1,1.0,0.35534138515,0.0356019662378,0.4283652253728922,0.42836522402782323,optimal,0.13,"[0.10875, 0.13475, 0.10875, 0.13475, 0.10875, 0.13475, 0.13475, 0.13475]"
14,1+AB,1,1.0,0.355626208258,0.0383405790254,0.42863287116367993,0.42863286900675196,optimal,0.14,"[0.1075, 0.1355, 0.1075, 0.1355, 0.1075, 0.1355, 0.1355, 0.1355]"
15,1+AB,1,0.9999999999999999,0.355931875504,0.0410791918129,0.42892428108238806,0.4289242810808744,optimal,0.15,"[0.10625, 0.13625, 0.10625, 0.13625, 0.10625, 0.13625, 0.13625, 0.13625]"
16,1+AB,1,1.0,0.356258333236,0.0438178046004,0.42924026456845843,0.4292402645670258,optimal,0.16,"[0.105, 0.137, 0.105, 0.137, 0.105, 0.137, 0.137, 0.137]"
17,1+AB,1,1.0,0.356605524354,0.0465564173879,0.4295817981929018,0.42958179819048287,optimal,0.17,"[0.10375, 0.13775, 0.10375, 0.13775, 0.10375, 0.13775, 0.13775, 0.13775]"
18,1+AB,1,1.0000000000000002,0.356973388364,0.0492950301755,0.42994995837103883,0.42994995836756045,optimal,0.18,"[0.10250000000000001, 0.1385, 0.10250000000000001, 0.1385, 0.10250000000000001, 0.1385, 0.1385, 0.1385]"
19,1+AB,1,0.9999999999999999,0.357361861423,0.052033642963,0.43034596323496827,0.4303459632209796,optimal,0.19,"[0.10125, 0.13925, 0.10125, 0.13925, 0.10125, 0.13925, 0.13925, 0.13925]"
20,1+AB,1,1.0,0.3577708764,0.0547722557505,0.430771201743992,0.43077120174365663,optimal,0.2,"[0.1, 0.14, 0.1, 0.14, 0.1, 0.14, 0.14, 0.14]"
21,1+AB,1,0.9999999999999998,0.358200362926,0.057510868538,0.43122726993431976,0.4312272699331388,optimal,0.21,"[0.09875, 0.14075, 0.09875, 0.14075, 0.09875, 0.14075, 0.14075, 0.14075]"
22,1+AB,1,1.0,0.358650247456,0.0602494813256,0.4317160218989388,0.4317160218954958,optimal,0.22,"[0.0975, 0.14150000000000001, 0.0975, 0.14150000000000001, 0.0975, 0.14150000000000001, 0.14150000000000001, 0.14150000000000001]"
23,1+AB,1,1.0,0.35912045333,0.0629880941131,0.4322395567768062,0.4322395451889353,optimal,0.23,"[0.09625, 0.14225, 0.09625, 0.14225, 0.09625, 0.14225, 0.14225, 0.14225]"
24,1+AB,1,1.0,0.359610900836,0.0657267069006,0.43280062908657063,0.43280061666591757,optimal,0.24,"[0.095, 0.143, 0.095, 0.143, 0.095, 0.143, 0.143, 0.143]"
25,1+AB,1,1.0,0.360121507272,0.0684653196881,0.4334023804619263,0.4334023743294469,optimal,0.25,"[0.09375, 0.14375, 0.09375, 0.14375, 0.09375, 0.14375, 0.14375, 0.14375]"
26,1+AB,1,0.9999999999999999,0.360652187017,0.0712039324757,0.43404875313922264,0.43404875273216514,optimal,0.26,"[0.0925, 0.1445, 0.0925, 0.1445, 0.0925, 0.1445, 0.1445, 0.1445]"
27,1+AB,1,0.9999999999999999,0.361202851595,0.0739425452632,0.4357499983239422,0.4357499980801939,optimal,0.27,"[0.09125, 0.14525, 0.09125, 0.14525, 0.09125, 0.14525, 0.14525, 0.14525]"
28,1+AB,1,1.0,0.361773409747,0.0766811580507,0.43799991858350323,0.43799990623558466,optimal,0.28,"[0.09, 0.146, 0.09, 0.146, 0.09, 0.146, 0.146, 0.146]"
29,1+AB,1,0.9999999999999998,0.362363767504,0.0794197708382,0.44024999497362977,0.44024999420842964,optimal,0.29,"[0.08875, 0.14675, 0.08875, 0.14675, 0.08875, 0.14675, 0.14675, 0.14675]"
30,1+AB,1,0.9999999999999999,0.362973828258,0.0821583836258,0.44249999885465346,0.4424999986881921,optimal,0.3,"[0.0875, 0.1475, 0.0875, 0.1475, 0.0875, 0.1475, 0.1475, 0.1475]"
31,1+AB,1,1.0,0.363603492833,0.0848969964133,0.44474999944739974,0.4447499993629284,optimal,0.31,"[0.08625, 0.14825, 0.08625, 0.14825, 0.08625, 0.14825, 0.14825, 0.14825]"
32,1+AB,1,1.0,0.364252659565,0.0876356092008,0.4469999991243127,0.4469999989996217,optimal,0.32,"[0.08499999999999999, 0.149, 0.08499999999999999, 0.149, 0.08499999999999999, 0.149, 0.149, 0.149]"
33,1+AB,1,1.0,0.364921224376,0.0903742219884,0.44924999998679127,0.44924999998567894,optimal,0.33,"[0.08374999999999999, 0.14975, 0.08374999999999999, 0.14975, 0.08374999999999999, 0.14975, 0.14975, 0.14975]"
34,1+AB,1,0.9999999999999999,0.36560908085,0.0931128347759,0.4514999840264664,0.45149998164412625,optimal,0.34,"[0.08249999999999999, 0.1505, 0.08249999999999999, 0.1505, 0.08249999999999999, 0.1505, 0.1505, 0.1505]"
35,1+AB,1,0.9999999999999999,0.366316120311,0.0958514475634,0.4537499871784595,0.4537499853550157,optimal,0.35000000000000003,"[0.08124999999999999, 0.15125, 0.08124999999999999, 0.15125, 0.08124999999999999, 0.15125, 0.15125, 0.15125]"
36,1+AB,1,1.0,0.367042231903,0.0985900603509,0.45599998923090973,0.45599998757955584,optimal,0.36,"[0.08, 0.152, 0.08, 0.152, 0.08, 0.152, 0.152, 0.152]"
37,1+AB,1,0.9999999999999998,0.367787302663,0.101328673138,0.45824999996527815,0.4582499999599346,optimal,0.37,"[0.07875, 0.15275, 0.07875, 0.15275, 0.07875, 0.15275, 0.15275, 0.15275]"
38,1+AB,1,0.9999999999999999,0.368551217608,0.104067285926,0.4604999999941473,0.46049999999319985,optimal,0.38,"[0.0775, 0.1535, 0.0775, 0.1535, 0.0775, 0.1535, 0.1535, 0.1535]"
39,1+AB,1,1.0,0.369333859807,0.106805898714,0.4627499999841457,0.4627499999819149,optimal,0.39,"[0.07625, 0.15425, 0.07625, 0.15425, 0.07625, 0.15425, 0.15425, 0.15425]"
40,1+AB,1,1.0,0.370135110466,0.109544511501,0.464999930021787,0.46499991982764816,optimal,0.4,"[0.075, 0.155, 0.075, 0.155, 0.075, 0.155, 0.155, 0.155]"
41,1+AB,1,1.0,0.370954849005,0.112283124289,0.46724997762974557,0.4672499743269809,optimal,0.41000000000000003,"[0.07375, 0.15575, 0.07375, 0.15575, 0.07375, 0.15575, 0.15575, 0.15575]"
42,1+AB,1,0.9999999999999999,0.371792953134,0.115021737076,0.4694999859265177,0.4694999838355271,optimal,0.42,"[0.07250000000000001, 0.1565, 0.07250000000000001, 0.1565, 0.07250000000000001, 0.1565, 0.1565, 0.1565]"
43,1+AB,1,1.0,0.372649298939,0.117760349864,0.4717499907375617,0.4717499894275782,optimal,0.43,"[0.07125000000000001, 0.15725, 0.07125000000000001, 0.15725, 0.07125000000000001, 0.15725, 0.15725, 0.15725]"
44,1+AB,1,1.0,0.373523760958,0.120498962651,0.47399999387257524,0.47399999301976203,optimal,0.44,"[0.07, 0.158, 0.07, 0.158, 0.07, 0.158, 0.158, 0.158]"
45,1+AB,1,1.0,0.374416212256,0.123237575439,0.4762499925357045,0.4762499915282245,optimal,0.45,"[0.06875, 0.15875, 0.06875, 0.15875, 0.06875, 0.15875, 0.15875, 0.15875]"
46,1+AB,1,0.9999999999999999,0.375326524509,0.125976188226,0.47849999138359234,0.4784999902345464,optimal,0.46,"[0.0675, 0.1595, 0.0675, 0.1595, 0.0675, 0.1595, 0.1595, 0.1595]"
47,1+AB,1,1.0,0.376254568079,0.128714801014,0.4807499859468996,0.4807499840690511,optimal,0.47000000000000003,"[0.06625, 0.16025, 0.06625, 0.16025, 0.06625, 0.16025, 0.16025, 0.16025]"
48,1+AB,1,1.0000000000000002,0.377200212089,0.131453413801,0.4829999605465059,0.4829999553269874,optimal,0.48,"[0.065, 0.161, 0.065, 0.161, 0.065, 0.161, 0.161, 0.161]"
49,1+AB,1,1.0000000000000002,0.378163324504,0.134192026589,0.4852499976991746,0.4852499974162482,optimal,0.49,"[0.06375, 0.16175, 0.06375, 0.16175, 0.06375, 0.16175, 0.16175, 0.16175]"
50,1+AB,1,0.9999999999999999,0.379143772203,0.136930639376,0.48749999757842927,0.4874999972419466,optimal,0.5,"[0.0625, 0.1625, 0.0625, 0.1625, 0.0625, 0.1625, 0.1625, 0.1625]"
51,1+AB,1,1.0,0.380141421053,0.139669252164,0.48974999366324584,0.4897499927267585,optimal,0.51,"[0.06125, 0.16325, 0.06125, 0.16325, 0.06125, 0.16325, 0.16325, 0.16325]"
52,1+AB,1,1.0,0.381156135986,0.142407864951,0.49199998378511994,0.49199998136161627,optimal,0.52,"[0.06, 0.164, 0.06, 0.164, 0.06, 0.164, 0.164, 0.164]"
53,1+AB,1,1.0,0.382187781071,0.145146477739,0.4942499973230892,0.4942499969377247,optimal,0.53,"[0.05875, 0.16475, 0.05875, 0.16475, 0.05875, 0.16475, 0.16475, 0.16475]"
54,1+AB,1,0.9999999999999999,0.383236219583,0.147885090526,0.49649999258561817,0.4964999915711011,optimal,0.54,"[0.057499999999999996, 0.1655, 0.057499999999999996, 0.1655, 0.057499999999999996, 0.1655, 0.1655, 0.1655]"
55,1+AB,1,1.0,0.384301314075,0.150623703314,0.49874996514845826,0.49874996074526023,optimal,0.55,"[0.056249999999999994, 0.16625, 0.056249999999999994, 0.16625, 0.056249999999999994, 0.16625, 0.16625, 0.16625]"
56,1+AB,1,1.0,0.385382926451,0.153362316101,0.500999998520369,0.5009999983403501,optimal,0.56,"[0.05499999999999999, 0.167, 0.05499999999999999, 0.167, 0.05499999999999999, 0.167, 0.167, 0.167]"
57,1+AB,1,1.0000000000000002,0.386480918028,0.156100928889,0.5032499927265053,0.503249991690578,optimal,0.5700000000000001,"[0.05374999999999999, 0.16775, 0.05374999999999999, 0.16775, 0.05374999999999999, 0.16775, 0.16775, 0.16775]"
58,1+AB,1,0.9999999999999999,0.387595149608,0.158839541676,0.5054999854678132,0.5054999833755104,optimal,0.58,"[0.052500000000000005, 0.16849999999999998, 0.052500000000000005, 0.16849999999999998, 0.052500000000000005, 0.16849999999999998, 0.16849999999999998, 0.16849999999999998]"
59,1+AB,1,1.0,0.388725481542,0.161578154464,0.5077499695414626,0.5077499651108327,optimal,0.59,"[0.051250000000000004, 0.16925, 0.051250000000000004, 0.16925, 0.051250000000000004, 0.16925, 0.16925, 0.16925]"
60,1+AB,1,0.9999999999999998,0.389871773792,0.164316767252,0.5099999252559732,0.5099999142777097,optimal,0.6,"[0.05, 0.16999999999999998, 0.05, 0.16999999999999998, 0.05, 0.16999999999999998, 0.16999999999999998, 0.16999999999999998]"
61,1+AB,1,1.0,0.391033886,0.167055380039,0.5122499999865713,0.5122499999863637,optimal,0.61,"[0.04875, 0.17075, 0.04875, 0.17075, 0.04875, 0.17075, 0.17075, 0.17075]"
62,1+AB,1,0.9999999999999999,0.392211677542,0.169793992827,0.5144999998638977,0.5144999998432238,optimal,0.62,"[0.0475, 0.17149999999999999, 0.0475, 0.17149999999999999, 0.0475, 0.17149999999999999, 0.17149999999999999, 0.17149999999999999]"
63,1+AB,1,1.0,0.393405007594,0.172532605614,0.5167499997036339,0.5167499996582129,optimal,0.63,"[0.04625, 0.17225000000000001, 0.04625, 0.17225000000000001, 0.04625, 0.17225000000000001, 0.17225000000000001, 0.17225000000000001]"
64,1+AB,1,1.0,0.394613735189,0.175271218402,0.5189999997682808,0.5189999997352941,optimal,0.64,"[0.045, 0.173, 0.045, 0.173, 0.045, 0.173, 0.173, 0.173]"
65,1+AB,1,1.0000000000000002,0.395837719274,0.178009831189,0.5212499996460958,0.5212499995974802,optimal,0.65,"[0.04375, 0.17375000000000002, 0.04375, 0.17375000000000002, 0.04375, 0.17375000000000002, 0.17375000000000002, 0.17375000000000002]"
66,1+AB,1,0.9999999999999999,0.397076818764,0.180748443977,0.5234999990612949,0.5234999989351382,optimal,0.66,"[0.042499999999999996, 0.1745, 0.042499999999999996, 0.1745, 0.042499999999999996, 0.1745, 0.1745, 0.1745]"
67,1+AB,1,1.0,0.398330892601,0.183487056764,0.525749999619562,0.5257499995803198,optimal,0.67,"[0.041249999999999995, 0.17525000000000002, 0.041249999999999995, 0.17525000000000002, 0.041249999999999995, 0.17525000000000002, 0.17525000000000002, 0.17525000000000002]"
68,1+AB,1,0.9999999999999998,0.3995997998,0.186225669552,0.5279999997360694,0.5279999997017725,optimal,0.68,"[0.039999999999999994, 0.176, 0.039999999999999994, 0.176, 0.039999999999999994, 0.176, 0.176, 0.176]"
69,1+AB,1,1.0,0.400883399507,0.188964282339,0.5302499944213254,0.5302499937525287,optimal,0.6900000000000001,"[0.03874999999999999, 0.17675000000000002, 0.03874999999999999, 0.17675000000000002, 0.03874999999999999, 0.17675000000000002, 0.17675000000000002, 0.17675000000000002]"
70,1+AB,1,0.9999999999999999,0.402181551044,0.191702895127,0.5324999826305865,0.5324999801451189,optimal,0.7000000000000001,"[0.03749999999999999, 0.1775, 0.03749999999999999, 0.1775, 0.03749999999999999, 0.1775, 0.1775, 0.1775]"
71,1+AB,1,1.0,0.40349411396,0.194441507914,0.5347499999867706,0.534749999984884,optimal,0.71,"[0.036250000000000004, 0.17825, 0.036250000000000004, 0.17825, 0.036250000000000004, 0.17825, 0.17825, 0.17825]"
72,1+AB,1,1.0,0.404820948075,0.197180120702,0.5369999999917413,0.5369999999904624,optimal,0.72,"[0.035, 0.179, 0.035, 0.179, 0.035, 0.179, 0.179, 0.179]"
73,1+AB,1,0.9999999999999999,0.406161913527,0.199918733489,0.5392499999902164,0.5392499999887497,optimal,0.73,"[0.03375, 0.17975, 0.03375, 0.17975, 0.03375, 0.17975, 0.17975, 0.17975]"
74,1+AB,1,1.0,0.407516870816,0.202657346277,0.5414999999877941,0.5414999999859192,optimal,0.74,"[0.0325, 0.1805, 0.0325, 0.1805, 0.0325, 0.1805, 0.1805, 0.1805]"
75,1+AB,1,1.0,0.408885680845,0.205395959064,0.5437499999886474,0.5437499999868226,optimal,0.75,"[0.03125, 0.18125, 0.03125, 0.18125, 0.03125, 0.18125, 0.18125, 0.18125]"
76,1+AB,1,0.9999999999999998,0.410268204959,0.208134571852,0.5459999999861268,0.5459999999838278,optimal,0.76,"[0.03, 0.182, 0.03, 0.182, 0.03, 0.182, 0.182, 0.182]"
77,1+AB,1,0.9999999999999999,0.411664304986,0.210873184639,0.5482499999880874,0.548249999986163,optimal,0.77,"[0.028749999999999998, 0.18275, 0.028749999999999998, 0.18275, 0.028749999999999998, 0.18275, 0.18275, 0.18275]"
78,1+AB,1,1.0,0.413073843277,0.213611797427,0.5504999999863072,0.5504999999842557,optimal,0.78,"[0.027499999999999997, 0.1835, 0.027499999999999997, 0.1835, 0.027499999999999997, 0.1835, 0.1835, 0.1835]"
79,1+AB,1,1.0,0.414496682737,0.216350410215,0.5527499999832038,0.5527499999807655,optimal,0.79,"[0.026249999999999996, 0.18425, 0.026249999999999996, 0.18425, 0.026249999999999996, 0.18425, 0.18425, 0.18425]"
80,1+AB,1,1.0,0.415932686862,0.219089023002,0.5549999999889655,0.5549999999870314,optimal,0.8,"[0.024999999999999994, 0.185, 0.024999999999999994, 0.185, 0.024999999999999994, 0.185, 0.185, 0.185]"
81,1+AB,1,0.9999999999999999,0.417381719772,0.22182763579,0.5572499999871964,0.5572499999852557,optimal,0.81,"[0.023749999999999993, 0.18575, 0.023749999999999993, 0.18575, 0.023749999999999993, 0.18575, 0.18575, 0.18575]"
82,1+AB,1,1.0,0.418843646245,0.224566248577,0.5594999999858818,0.5594999999834763,optimal,0.8200000000000001,"[0.022499999999999992, 0.1865, 0.022499999999999992, 0.1865, 0.022499999999999992, 0.1865, 0.1865, 0.1865]"
83,1+AB,1,1.0,0.420318331744,0.227304861365,0.5617499999930688,0.5617499999923017,optimal,0.8300000000000001,"[0.02124999999999999, 0.18725, 0.02124999999999999, 0.18725, 0.02124999999999999, 0.18725, 0.18725, 0.18725]"
84,1+AB,1,1.0,0.421805642447,0.230043474152,0.5639999999952571,0.5639999999945768,optimal,0.84,"[0.020000000000000004, 0.188, 0.020000000000000004, 0.188, 0.020000000000000004, 0.188, 0.188, 0.188]"
85,1+AB,1,1.0,0.423305445276,0.23278208694,0.5662499999940144,0.5662499999933993,optimal,0.85,"[0.018750000000000003, 0.18875, 0.018750000000000003, 0.18875, 0.018750000000000003, 0.18875, 0.18875, 0.18875]"
86,1+AB,1,1.0,0.424817607921,0.235520699727,0.5684999999969008,0.5684999999964736,optimal,0.86,"[0.0175, 0.1895, 0.0175, 0.1895, 0.0175, 0.1895, 0.1895, 0.1895]"
87,1+AB,1,1.0,0.426341998869,0.238259312515,0.5707499999956915,0.5707499999949274,optimal,0.87,"[0.01625, 0.19025, 0.01625, 0.19025, 0.01625, 0.19025, 0.19025, 0.19025]"
88,1+AB,1,1.0000000000000002,0.427878487424,0.240997925302,0.5729999999944786,0.5729999999937522,optimal,0.88,"[0.015, 0.191, 0.015, 0.191, 0.015, 0.191, 0.191, 0.191]"
89,1+AB,1,1.0,0.429426943728,0.24373653809,0.5752499998842601,0.5752499998681788,optimal,0.89,"[0.013749999999999998, 0.19175, 0.013749999999999998, 0.19175, 0.013749999999999998, 0.19175, 0.19175, 0.19175]"
90,1+AB,1,1.0,0.43098723879,0.246475150877,0.5774999999807154,0.577499999977317,optimal,0.9,"[0.012499999999999997, 0.1925, 0.012499999999999997, 0.1925, 0.012499999999999997, 0.1925, 0.1925, 0.1925]"
91,1+AB,1,1.0,0.432559244497,0.249213763665,0.5797499999856531,0.5797499999834703,optimal,0.91,"[0.011249999999999996, 0.19325, 0.011249999999999996, 0.19325, 0.011249999999999996, 0.19325, 0.19325, 0.19325]"
92,1+AB,1,1.0,0.434142833639,0.251952376452,0.5819999999888659,0.5819999999871711,optimal,0.92,"[0.009999999999999995, 0.194, 0.009999999999999995, 0.194, 0.009999999999999995, 0.194, 0.194, 0.194]"
93,1+AB,1,1.0,0.435737879923,0.25469098924,0.5842499999957034,0.5842499999949313,optimal,0.93,"[0.008749999999999994, 0.19475, 0.008749999999999994, 0.19475, 0.008749999999999994, 0.19475, 0.19475, 0.19475]"
94,1+AB,1,1.0,0.437344257994,0.257429602027,0.5864999999866871,0.5864999999844456,optimal,0.9400000000000001,"[0.007499999999999993, 0.1955, 0.007499999999999993, 0.1955, 0.007499999999999993, 0.1955, 0.1955, 0.1955]"
95,1+AB,1,1.0,0.438961843444,0.260168214815,0.588749999994318,0.5887499999937613,optimal,0.9500000000000001,"[0.006249999999999992, 0.19625, 0.006249999999999992, 0.19625, 0.006249999999999992, 0.19625, 0.19625, 0.19625]"
96,1+AB,1,1.0000000000000002,0.440590512835,0.262906827602,0.590999999992873,0.5909999999918318,optimal,0.96,"[0.0050000000000000044, 0.197, 0.0050000000000000044, 0.197, 0.0050000000000000044, 0.197, 0.197, 0.197]"
97,1+AB,1,1.0,0.442230143703,0.26564544039,0.5932499999210836,0.5932499999100124,optimal,0.97,"[0.0037500000000000033, 0.19775, 0.0037500000000000033, 0.19775, 0.0037500000000000033, 0.19775, 0.19775, 0.19775]"
98,1+AB,1,1.0,0.44388061458,0.268384053178,0.5954999767972794,0.5954999732874968,optimal,0.98,"[0.0025000000000000022, 0.1985, 0.0025000000000000022, 0.1985, 0.0025000000000000022, 0.1985, 0.1985, 0.1985]"
99,1+AB,1,0.9999999999999998,0.445541804997,0.271122665965,0.5977499999977666,0.5977499999974812,optimal,0.99,"[0.0012500000000000011, 0.19924999999999998, 0.0012500000000000011, 0.19924999999999998, 0.0012500000000000011, 0.19924999999999998, 0.19924999999999998, 0.19924999999999998]"
100,1+AB,1,1.0,0.4472135955,0.273861278753,0.5999999999827009,0.5999999999818769,optimal,1.0,"[0.0, 0.2, 0.0, 0.2, 0.0, 0.2, 0.2, 0.2]"
