Index, Level, Gleichung, 1-norm, 2-norm, varianz, primal, dual, status, eps, b
Gleichung: 1 - CHSH, 2 - 33,33, 3-44,1111
0,1+AB,2,1.0,0.353553390593,0.0,0.42677669453896233,0.4267766944549204,optimal,0.0,"[0.125, 0.125, 0.125, 0.125, 0.125, 0.125, 0.125, 0.125]"
1,1+AB,2,1.0,0.353677112632,0.00935414346693,0.42692815599820505,0.4269281558504209,optimal,0.01,"[0.13375, 0.12375, 0.12375, 0.12375, 0.12375, 0.12375, 0.12375, 0.12375]"
2,1+AB,2,1.0000000000000002,0.354048019342,0.0187082869339,0.4273996216360053,0.42739962163461415,optimal,0.02,"[0.14250000000000002, 0.1225, 0.1225, 0.1225, 0.1225, 0.1225, 0.1225, 0.1225]"
3,1+AB,2,0.9999999999999998,0.354665335211,0.0280624304008,0.4282166768323617,0.42821667680788156,optimal,0.03,"[0.15125, 0.12125, 0.12125, 0.12125, 0.12125, 0.12125, 0.12125, 0.12125]"
4,1+AB,2,1.0,0.355527776693,0.0374165738677,0.42940415468841187,0.4294041545222905,optimal,0.04,"[0.16, 0.12, 0.12, 0.12, 0.12, 0.12, 0.12, 0.12]"
5,1+AB,2,1.0,0.356633565442,0.0467707173347,0.4309850505196186,0.43098505046350477,optimal,0.05,"[0.16875, 0.11875, 0.11875, 0.11875, 0.11875, 0.11875, 0.11875, 0.11875]"
6,1+AB,2,0.9999999999999998,0.357980446393,0.0561248608016,0.4329792127856737,0.4329792102754016,optimal,0.06,"[0.1775, 0.1175, 0.1175, 0.1175, 0.1175, 0.1175, 0.1175, 0.1175]"
7,1+AB,2,0.9999999999999998,0.359565710267,0.0654790042685,0.43540208960126914,0.4354020896011012,optimal,0.07,"[0.18625, 0.11624999999999999, 0.11624999999999999, 0.11624999999999999, 0.11624999999999999, 0.11624999999999999, 0.11624999999999999, 0.11624999999999999]"
8,1+AB,2,1.0,0.361386219992,0.0748331477355,0.43826306748055205,0.43826306744872207,optimal,0.08,"[0.195, 0.115, 0.115, 0.115, 0.115, 0.115, 0.115, 0.115]"
9,1+AB,2,1.0,0.363438440455,0.0841872912024,0.4415644825180309,0.4415644824884977,optimal,0.09,"[0.20375, 0.11375, 0.11375, 0.11375, 0.11375, 0.11375, 0.11375, 0.11375]"
10,1+AB,2,1.0000000000000002,0.365718470958,0.0935414346693,0.44530054646736644,0.44530054646652506,optimal,0.1,"[0.21250000000000002, 0.1125, 0.1125, 0.1125, 0.1125, 0.1125, 0.1125, 0.1125]"
11,1+AB,2,0.9999999999999999,0.368222079729,0.102895578136,0.44945687438291015,0.4494568731840986,optimal,0.11,"[0.22125, 0.11125, 0.11125, 0.11125, 0.11125, 0.11125, 0.11125, 0.11125]"
12,1+AB,2,0.9999999999999999,0.37094473982,0.112249721603,0.4540105896841729,0.4540105889962714,optimal,0.12,"[0.22999999999999998, 0.11, 0.11, 0.11, 0.11, 0.11, 0.11, 0.11]"
13,1+AB,2,1.0,0.373881665771,0.12160386507,0.4589494477547082,0.4589494447812402,optimal,0.13,"[0.23875000000000002, 0.10875, 0.10875, 0.10875, 0.10875, 0.10875, 0.10875, 0.10875]"
14,1+AB,2,1.0,0.37702785043,0.130958008537,0.46424579223341855,0.464245787355882,optimal,0.14,"[0.2475, 0.1075, 0.1075, 0.1075, 0.1075, 0.1075, 0.1075, 0.1075]"
15,1+AB,2,0.9999999999999998,0.380378101368,0.140312152004,0.4698205324980029,0.46982052325131185,optimal,0.15,"[0.25625, 0.10625, 0.10625, 0.10625, 0.10625, 0.10625, 0.10625, 0.10625]"
16,1+AB,2,0.9999999999999999,0.383927076409,0.149666295471,0.4756073757783382,0.47560736393939496,optimal,0.16,"[0.265, 0.105, 0.105, 0.105, 0.105, 0.105, 0.105, 0.105]"
17,1+AB,2,1.0,0.387669317847,0.159020438938,0.4815542193411383,0.48155421279512195,optimal,0.17,"[0.27375000000000005, 0.10375, 0.10375, 0.10375, 0.10375, 0.10375, 0.10375, 0.10375]"
18,1+AB,2,1.0000000000000002,0.391599284984,0.168374582405,0.48762093585571686,0.487620935630024,optimal,0.18,"[0.2825, 0.10250000000000001, 0.10250000000000001, 0.10250000000000001, 0.10250000000000001, 0.10250000000000001, 0.10250000000000001, 0.10250000000000001]"
19,1+AB,2,1.0000000000000002,0.395711384724,0.177728725872,0.4937771234687385,0.4937771219636553,optimal,0.19,"[0.29125, 0.10125, 0.10125, 0.10125, 0.10125, 0.10125, 0.10125, 0.10125]"
20,1+AB,2,0.9999999999999999,0.4,0.187082869339,0.49999990290102553,0.4999998884444533,optimal,0.2,"[0.30000000000000004, 0.1, 0.1, 0.1, 0.1, 0.1, 0.1, 0.1]"
