Index, Level, Gleichung, 1-norm, 2-norm, varianz, primal, dual, status, eps, b
Gleichung: 1 - CHSH, 2 - 33,33, 3-44,1111
0,1+AB,1,1.0,0.3535533905932738,0.0,0.4267766943375307,0.4267766942316459,optimal,0.0,"[0.125, 0.125, 0.125, 0.125, 0.125, 0.125, 0.125, 0.125]"
1,1+AB,1,1.0,0.3535562190090849,0.0014142135623730963,0.4267798160711416,0.4267798160015386,optimal,0.001,"[0.126, 0.125, 0.124, 0.125, 0.125, 0.125, 0.125, 0.125]"
2,1+AB,1,1.0,0.3535647041207592,0.0028284271247461927,0.42678918285943634,0.42678918285380696,optimal,0.002,"[0.127, 0.125, 0.123, 0.125, 0.125, 0.125, 0.125, 0.125]"
3,1+AB,1,1.0,0.35357884552105207,0.004242640687119289,0.4268047987784157,0.4268047987528814,optimal,0.003,"[0.128, 0.125, 0.122, 0.125, 0.125, 0.125, 0.125, 0.125]"
4,1+AB,1,1.0,0.353598642531331,0.005656854249492385,0.42682667039135364,0.42682667011294734,optimal,0.004,"[0.129, 0.125, 0.121, 0.125, 0.125, 0.125, 0.125, 0.125]"
5,1+AB,1,1.0,0.35362409420173846,0.007071067811865481,0.4268548193296058,0.4268548192876496,optimal,0.005,"[0.13, 0.125, 0.12, 0.125, 0.125, 0.125, 0.125, 0.125]"
6,1+AB,1,1.0,0.35365519931141975,0.008485281374238578,0.4268892521894404,0.4268892521625697,optimal,0.006,"[0.131, 0.125, 0.119, 0.125, 0.125, 0.125, 0.125, 0.125]"
7,1+AB,1,1.0,0.35369195636881534,0.009899494936611674,0.4269299913406315,0.4269299913301425,optimal,0.007,"[0.132, 0.125, 0.118, 0.125, 0.125, 0.125, 0.125, 0.125]"
8,1+AB,1,1.0,0.35373436361201893,0.01131370849898477,0.4269770584898532,0.4269770583386699,optimal,0.008,"[0.133, 0.125, 0.11699999999999999, 0.125, 0.125, 0.125, 0.125, 0.125]"
9,1+AB,1,1.0,0.3537824190091984,0.012727922061357866,0.4270304822195393,0.42703048201240396,optimal,0.009000000000000001,"[0.134, 0.125, 0.11599999999999999, 0.125, 0.125, 0.125, 0.125, 0.125]"
10,1+AB,1,1.0,0.3538361202590827,0.014142135623730954,0.4270902935251752,0.4270902934291902,optimal,0.01,"[0.135, 0.125, 0.115, 0.125, 0.125, 0.125, 0.125, 0.125]"
11,1+AB,1,1.0,0.35389546479151157,0.01555634918610405,0.4271565237252174,0.4271565235900471,optimal,0.011,"[0.136, 0.125, 0.114, 0.125, 0.125, 0.125, 0.125, 0.125]"
12,1+AB,1,1.0,0.3539604497680497,0.016970562748477146,0.42722921235284333,0.42722921225066696,optimal,0.012,"[0.137, 0.125, 0.113, 0.125, 0.125, 0.125, 0.125, 0.125]"
13,1+AB,1,1.0,0.3540310720826634,0.018384776310850243,0.42730840089405075,0.4273084008895532,optimal,0.013000000000000001,"[0.138, 0.125, 0.112, 0.125, 0.125, 0.125, 0.125, 0.125]"
14,1+AB,1,1.0,0.35410732836246134,0.019798989873223337,0.42739413323825765,0.4273941332292235,optimal,0.014,"[0.139, 0.125, 0.111, 0.125, 0.125, 0.125, 0.125, 0.125]"
15,1+AB,1,1.0,0.35418921496849676,0.021213203435596437,0.4274864595773021,0.42748645957331943,optimal,0.015,"[0.14, 0.125, 0.11, 0.125, 0.125, 0.125, 0.125, 0.125]"
16,1+AB,1,1.0,0.3542767279966326,0.02262741699796953,0.4275854329744392,0.4275854329679365,optimal,0.016,"[0.14100000000000001, 0.125, 0.109, 0.125, 0.125, 0.125, 0.125, 0.125]"
17,1+AB,1,1.0,0.35436986327846787,0.024041630560342628,0.42769111077174,0.4276911107657916,optimal,0.017,"[0.14200000000000002, 0.125, 0.108, 0.125, 0.125, 0.125, 0.125, 0.125]"
18,1+AB,1,1.0,0.3544686163823252,0.02545584412271572,0.42780355431220135,0.4278035543063853,optimal,0.018000000000000002,"[0.14300000000000002, 0.125, 0.107, 0.125, 0.125, 0.125, 0.125, 0.125]"
19,1+AB,1,1.0,0.35457298261429904,0.0268700576850888,0.4279228292169124,0.4279228292164218,optimal,0.019,"[0.144, 0.125, 0.106, 0.125, 0.125, 0.125, 0.125, 0.125]"
20,1+AB,1,1.0,0.354682957019364,0.028284271247461894,0.4280490052210595,0.42804900521710126,optimal,0.02,"[0.145, 0.125, 0.105, 0.125, 0.125, 0.125, 0.125, 0.125]"
21,1+AB,1,1.0,0.3547985343825422,0.02969848480983499,0.42818215662486125,0.4281821566127307,optimal,0.021,"[0.146, 0.125, 0.104, 0.125, 0.125, 0.125, 0.125, 0.125]"
22,1+AB,1,1.0,0.35491970923012994,0.031112698372208078,0.4283223598304056,0.42832235950666075,optimal,0.022,"[0.147, 0.125, 0.10300000000000001, 0.125, 0.125, 0.125, 0.125, 0.125]"
23,1+AB,1,1.0,0.35504647583098187,0.032526911934581175,0.4284697051906728,0.42846970514210075,optimal,0.023,"[0.148, 0.125, 0.10200000000000001, 0.125, 0.125, 0.125, 0.125, 0.125]"
24,1+AB,1,1.0,0.355178828197853,0.03394112549695427,0.4286242739819698,0.42862427393374253,optimal,0.024,"[0.149, 0.125, 0.101, 0.125, 0.125, 0.125, 0.125, 0.125]"
25,1+AB,1,1.0,0.35531676008879737,0.03535533905932737,0.42878616145682574,0.42878616143291787,optimal,0.025,"[0.15, 0.125, 0.1, 0.125, 0.125, 0.125, 0.125, 0.125]"
26,1+AB,1,1.0,0.3554602650086223,0.036769552621700466,0.4289554651778932,0.42895546515759825,optimal,0.026000000000000002,"[0.151, 0.125, 0.099, 0.125, 0.125, 0.125, 0.125, 0.125]"
27,1+AB,1,1.0,0.3556093362103982,0.03818376618407356,0.429132288262631,0.4291322882413826,optimal,0.027,"[0.152, 0.125, 0.098, 0.125, 0.125, 0.125, 0.125, 0.125]"
28,1+AB,1,1.0,0.3557639666970223,0.03959797974644666,0.4293167390763281,0.42931673906146395,optimal,0.028,"[0.153, 0.125, 0.097, 0.125, 0.125, 0.125, 0.125, 0.125]"
29,1+AB,1,1.0,0.35592414922283655,0.04101219330881975,0.4295089312831286,0.42950893127710177,optimal,0.029,"[0.154, 0.125, 0.096, 0.125, 0.125, 0.125, 0.125, 0.125]"
30,1+AB,1,1.0,0.3560898762952971,0.042426406871192854,0.42970898411933844,0.4297089841174719,optimal,0.03,"[0.155, 0.125, 0.095, 0.125, 0.125, 0.125, 0.125, 0.125]"
31,1+AB,1,1.0,0.35626114017669674,0.043840620433565944,0.42991702266223564,0.42991702266149767,optimal,0.031,"[0.156, 0.125, 0.094, 0.125, 0.125, 0.125, 0.125, 0.125]"
32,1+AB,1,1.0,0.3564379328859374,0.04525483399593904,0.4301330580073054,0.43013304597847957,optimal,0.032,"[0.157, 0.125, 0.093, 0.125, 0.125, 0.125, 0.125, 0.125]"
33,1+AB,1,1.0,0.3566202462003525,0.04666904755831214,0.43035758718890754,0.4303575871880997,optimal,0.033,"[0.158, 0.125, 0.092, 0.125, 0.125, 0.125, 0.125, 0.125]"
34,1+AB,1,1.0,0.35680807165757894,0.048083261120685235,0.4305903939261707,0.43059039392471443,optimal,0.034,"[0.159, 0.125, 0.091, 0.125, 0.125, 0.125, 0.125, 0.125]"
35,1+AB,1,1.0,0.3570014005574768,0.04949747468305833,0.43083174833941734,0.4308317483383665,optimal,0.035,"[0.16, 0.125, 0.09, 0.125, 0.125, 0.125, 0.125, 0.125]"
36,1+AB,1,1.0,0.3572002239640955,0.05091168824543143,0.43108180725526773,0.43108180723906286,optimal,0.036000000000000004,"[0.161, 0.125, 0.089, 0.125, 0.125, 0.125, 0.125, 0.125]"
37,1+AB,1,1.0,0.35740453270768685,0.052325901807804526,0.4313407345586852,0.43134073448826243,optimal,0.037,"[0.162, 0.125, 0.088, 0.125, 0.125, 0.125, 0.125, 0.125]"
38,1+AB,1,1.0,0.35761431738676236,0.05374011537017762,0.43160870230918214,0.4316087022196046,optimal,0.038,"[0.163, 0.125, 0.087, 0.125, 0.125, 0.125, 0.125, 0.125]"
39,1+AB,1,1.0,0.3578295683701949,0.05515432893255071,0.4318858893733672,0.4318858892802419,optimal,0.039,"[0.164, 0.125, 0.086, 0.125, 0.125, 0.125, 0.125, 0.125]"
40,1+AB,1,1.0,0.3580502757993631,0.05656854249492382,0.432172468610253,0.4321724672158848,optimal,0.04,"[0.165, 0.125, 0.08499999999999999, 0.125, 0.125, 0.125, 0.125, 0.125]"
41,1+AB,1,1.0,0.3582764295903374,0.05798275605729691,0.4324686779114382,0.4324686778958685,optimal,0.041,"[0.166, 0.125, 0.08399999999999999, 0.125, 0.125, 0.125, 0.125, 0.125]"
42,1+AB,1,1.0,0.3585080194361069,0.059396969619670004,0.4327746773266881,0.43277467728609187,optimal,0.042,"[0.167, 0.125, 0.08299999999999999, 0.125, 0.125, 0.125, 0.125, 0.125]"
43,1+AB,1,1.0,0.35874503480884584,0.0608111831820431,0.43309069523563853,0.4330906952354081,optimal,0.043000000000000003,"[0.168, 0.125, 0.08199999999999999, 0.125, 0.125, 0.125, 0.125, 0.125]"
44,1+AB,1,1.0,0.3589874649622184,0.06222539674441617,0.4334169515979839,0.4334169515222479,optimal,0.044,"[0.16899999999999998, 0.125, 0.081, 0.125, 0.125, 0.125, 0.125, 0.125]"
45,1+AB,1,1.0,0.35923529893372114,0.06363961030678926,0.4337536786676889,0.43375367845149887,optimal,0.045,"[0.16999999999999998, 0.125, 0.08, 0.125, 0.125, 0.125, 0.125, 0.125]"
46,1+AB,1,1.0,0.3594885255470611,0.06505382386916235,0.4341010803424991,0.4341010763271686,optimal,0.046,"[0.17099999999999999, 0.125, 0.079, 0.125, 0.125, 0.125, 0.125, 0.125]"
47,1+AB,1,1.0,0.35974713341456943,0.06646803743153545,0.4344595193842191,0.43445951845426434,optimal,0.047,"[0.172, 0.125, 0.078, 0.125, 0.125, 0.125, 0.125, 0.125]"
48,1+AB,1,1.0,0.36001111093964866,0.06788225099390856,0.4348291649650182,0.4348291649374396,optimal,0.048,"[0.173, 0.125, 0.077, 0.125, 0.125, 0.125, 0.125, 0.125]"
49,1+AB,1,1.0,0.3602804463192528,0.06929646455628165,0.4352103040948418,0.4352103040939828,optimal,0.049,"[0.174, 0.125, 0.076, 0.125, 0.125, 0.125, 0.125, 0.125]"
50,1+AB,1,1.0,0.36055512754639896,0.07071067811865475,0.4356032329281351,0.43560323292399095,optimal,0.05,"[0.175, 0.125, 0.075, 0.125, 0.125, 0.125, 0.125, 0.125]"
51,1+AB,1,1.0,0.360835142412709,0.07212489168102784,0.43600813656355963,0.4360081260091881,optimal,0.051000000000000004,"[0.176, 0.125, 0.074, 0.125, 0.125, 0.125, 0.125, 0.125]"
52,1+AB,1,1.0,0.36112047851098117,0.07353910524340095,0.4364256678635362,0.4364256675641232,optimal,0.052000000000000005,"[0.177, 0.125, 0.073, 0.125, 0.125, 0.125, 0.125, 0.125]"
53,1+AB,1,1.0,0.36141112323778857,0.07495331880577402,0.436855762831501,0.43685575708768604,optimal,0.053,"[0.178, 0.125, 0.07200000000000001, 0.125, 0.125, 0.125, 0.125, 0.125]"
54,1+AB,1,1.0,0.3617070637961056,0.07636753236814713,0.43729903424304845,0.437299034175316,optimal,0.054,"[0.179, 0.125, 0.07100000000000001, 0.125, 0.125, 0.125, 0.125, 0.125]"
55,1+AB,1,1.0,0.362008287197959,0.07778174593052022,0.43775561873967966,0.43775561267342245,optimal,0.055,"[0.18, 0.125, 0.07, 0.125, 0.125, 0.125, 0.125, 0.125]"
56,1+AB,1,1.0,0.3623147802671042,0.07919595949289332,0.4382261109050276,0.43822611085086954,optimal,0.056,"[0.181, 0.125, 0.069, 0.125, 0.125, 0.125, 0.125, 0.125]"
57,1+AB,1,1.0,0.3626265296417238,0.08061017305526641,0.43871072978849784,0.43871072960099267,optimal,0.057,"[0.182, 0.125, 0.068, 0.125, 0.125, 0.125, 0.125, 0.125]"
58,1+AB,1,1.0,0.3629435217771492,0.0820243866176395,0.4392099370706208,0.43920993660869906,optimal,0.058,"[0.183, 0.125, 0.067, 0.125, 0.125, 0.125, 0.125, 0.125]"
59,1+AB,1,1.0,0.3632657429486023,0.0834386001800126,0.4397241638824686,0.43972416371561107,optimal,0.059000000000000004,"[0.184, 0.125, 0.066, 0.125, 0.125, 0.125, 0.125, 0.125]"
60,1+AB,1,1.0,0.36359317925395684,0.08485281374238571,0.4402538404713794,0.44025383977889027,optimal,0.06,"[0.185, 0.125, 0.065, 0.125, 0.125, 0.125, 0.125, 0.125]"
61,1+AB,1,1.0,0.3639258166165187,0.0862670273047588,0.4407994247701326,0.44079942255035476,optimal,0.061,"[0.186, 0.125, 0.064, 0.125, 0.125, 0.125, 0.125, 0.125]"
62,1+AB,1,1.0,0.3642636407878228,0.08768124086713189,0.4413614569920728,0.44136145698604307,optimal,0.062,"[0.187, 0.125, 0.063, 0.125, 0.125, 0.125, 0.125, 0.125]"
63,1+AB,1,1.0,0.3646066373504465,0.08909545442950499,0.4419403576568436,0.4419403557948304,optimal,0.063,"[0.188, 0.125, 0.062, 0.125, 0.125, 0.125, 0.125, 0.125]"
64,1+AB,1,1.0,0.36495479172083767,0.09050966799187808,0.4425366599630847,0.4425366518994343,optimal,0.064,"[0.189, 0.125, 0.061, 0.125, 0.125, 0.125, 0.125, 0.125]"
65,1+AB,1,1.0,0.3653080891521566,0.09192388155425119,0.44315105694164053,0.4431510518552522,optimal,0.065,"[0.19, 0.125, 0.06, 0.125, 0.125, 0.125, 0.125, 0.125]"
66,1+AB,1,1.0,0.3656665147371304,0.09333809511662428,0.4437840061414009,0.4437840003104436,optimal,0.066,"[0.191, 0.125, 0.059, 0.125, 0.125, 0.125, 0.125, 0.125]"
67,1+AB,1,1.0,0.3660300534109187,0.09475230867899738,0.44443622818247386,0.4444362280677935,optimal,0.067,"[0.192, 0.125, 0.057999999999999996, 0.125, 0.125, 0.125, 0.125, 0.125]"
68,1+AB,1,1.0,0.3663986899539899,0.09616652224137047,0.4451082196081552,0.44510821946324747,optimal,0.068,"[0.193, 0.125, 0.056999999999999995, 0.125, 0.125, 0.125, 0.125, 0.125]"
69,1+AB,1,1.0,0.36677240899500607,0.09758073580374356,0.4458007226658693,0.44580072266512233,optimal,0.069,"[0.194, 0.125, 0.055999999999999994, 0.125, 0.125, 0.125, 0.125, 0.125]"
70,1+AB,1,1.0,0.3671511950137164,0.09899494936611666,0.44651443996103035,0.4465144399597197,optimal,0.07,"[0.195, 0.125, 0.05499999999999999, 0.125, 0.125, 0.125, 0.125, 0.125]"
71,1+AB,1,1.0,0.367535032343857,0.10040916292848977,0.4472500474096735,0.44725004114156613,optimal,0.07100000000000001,"[0.196, 0.125, 0.05399999999999999, 0.125, 0.125, 0.125, 0.125, 0.125]"
72,1+AB,1,1.0,0.3679239051760567,0.10182337649086286,0.4480085014630995,0.4480084997731357,optimal,0.07200000000000001,"[0.197, 0.125, 0.05299999999999999, 0.125, 0.125, 0.125, 0.125, 0.125]"
73,1+AB,1,1.0,0.3683177975607478,0.10323759005323595,0.4487904756446538,0.44879047534163796,optimal,0.073,"[0.198, 0.125, 0.052000000000000005, 0.125, 0.125, 0.125, 0.125, 0.125]"
74,1+AB,1,1.0,0.36871669341107954,0.10465180361560904,0.4495968416415472,0.4495968410917339,optimal,0.074,"[0.199, 0.125, 0.051000000000000004, 0.125, 0.125, 0.125, 0.125, 0.125]"
75,1+AB,1,1.0,0.369120576505835,0.10606601717798214,0.45042851211208584,0.45042851025516484,optimal,0.075,"[0.2, 0.125, 0.05, 0.125, 0.125, 0.125, 0.125, 0.125]"
76,1+AB,1,1.0,0.36952943049234926,0.10748023074035523,0.451286466932429,0.45128646576966436,optimal,0.076,"[0.201, 0.125, 0.049, 0.125, 0.125, 0.125, 0.125, 0.125]"
77,1+AB,1,1.0,0.3699432388894275,0.10889444430272834,0.45217169524173256,0.45217169521579537,optimal,0.077,"[0.202, 0.125, 0.048, 0.125, 0.125, 0.125, 0.125, 0.125]"
78,1+AB,1,1.0,0.37036198509026275,0.11030865786510143,0.4530852046800403,0.45308520205601377,optimal,0.078,"[0.203, 0.125, 0.047, 0.125, 0.125, 0.125, 0.125, 0.125]"
79,1+AB,1,1.0,0.37078565236535244,0.11172287142747453,0.4540281751577677,0.4540281724600193,optimal,0.079,"[0.20400000000000001, 0.125, 0.046, 0.125, 0.125, 0.125, 0.125, 0.125]"
80,1+AB,1,1.0,0.3712142238654117,0.11313708498984762,0.4550017544932088,0.45500175121469677,optimal,0.08,"[0.20500000000000002, 0.125, 0.045, 0.125, 0.125, 0.125, 0.125, 0.125]"
81,1+AB,1,1.0,0.3716476826242833,0.11455129855222071,0.45599999827794985,0.4559999979058698,optimal,0.081,"[0.20600000000000002, 0.125, 0.044, 0.125, 0.125, 0.125, 0.125, 0.125]"
82,1+AB,1,1.0,0.37208601156184307,0.11596551211459381,0.4569999929043278,0.4569999918390993,optimal,0.082,"[0.20700000000000002, 0.125, 0.043, 0.125, 0.125, 0.125, 0.125, 0.125]"
83,1+AB,1,1.0,0.3725291934868998,0.1173797256769669,0.45799999940506175,0.4579999993226593,optimal,0.083,"[0.20800000000000002, 0.125, 0.041999999999999996, 0.125, 0.125, 0.125, 0.125, 0.125]"
84,1+AB,1,1.0,0.3729772111000885,0.11879393923934,0.45899999967479505,0.45899999964462546,optimal,0.084,"[0.20900000000000002, 0.125, 0.040999999999999995, 0.125, 0.125, 0.125, 0.125, 0.125]"
85,1+AB,1,1.0,0.37343004699675686,0.1202081528017131,0.4599999973999939,0.45999999693466237,optimal,0.085,"[0.21000000000000002, 0.125, 0.039999999999999994, 0.125, 0.125, 0.125, 0.125, 0.125]"
86,1+AB,1,1.0,0.37388768366984226,0.12162236636408619,0.460999999947747,0.46099999994316787,optimal,0.08600000000000001,"[0.21100000000000002, 0.125, 0.03899999999999999, 0.125, 0.125, 0.125, 0.125, 0.125]"
87,1+AB,1,1.0,0.3743501035127412,0.12303657992645929,0.4619999996270215,0.46199999954788984,optimal,0.08700000000000001,"[0.21200000000000002, 0.125, 0.03799999999999999, 0.125, 0.125, 0.125, 0.125, 0.125]"
88,1+AB,1,1.0,0.3748172888221673,0.12445079348883235,0.4629999996049036,0.462999999540958,optimal,0.088,"[0.213, 0.125, 0.037000000000000005, 0.125, 0.125, 0.125, 0.125, 0.125]"
89,1+AB,1,1.0,0.3752892218009998,0.12586500705120546,0.46399999023867117,0.4639999886864088,optimal,0.089,"[0.214, 0.125, 0.036000000000000004, 0.125, 0.125, 0.125, 0.125, 0.125]"
90,1+AB,1,1.0,0.3757658845611187,0.12727922061357855,0.4649999852209924,0.46499998292389066,optimal,0.09,"[0.215, 0.125, 0.035, 0.125, 0.125, 0.125, 0.125, 0.125]"
91,1+AB,1,1.0,0.37624725912622936,0.12869343417595164,0.46599999179537305,0.4659999903891348,optimal,0.091,"[0.216, 0.125, 0.034, 0.125, 0.125, 0.125, 0.125, 0.125]"
92,1+AB,1,1.0,0.3767333274346723,0.13010764773832473,0.46699998565630413,0.46699998330983683,optimal,0.092,"[0.217, 0.125, 0.033, 0.125, 0.125, 0.125, 0.125, 0.125]"
93,1+AB,1,1.0,0.3772240713422196,0.13152186130069785,0.4679999848057709,0.4679999820319831,optimal,0.093,"[0.218, 0.125, 0.032, 0.125, 0.125, 0.125, 0.125, 0.125]"
94,1+AB,1,1.0,0.3777194726248569,0.13293607486307094,0.4689999960658394,0.46899999537601117,optimal,0.094,"[0.219, 0.125, 0.031, 0.125, 0.125, 0.125, 0.125, 0.125]"
95,1+AB,1,1.0,0.3782195129815489,0.13435028842544403,0.4699999747400603,0.4699999710493065,optimal,0.095,"[0.22, 0.125, 0.03, 0.125, 0.125, 0.125, 0.125, 0.125]"
96,1+AB,1,1.0,0.3787241740369896,0.13576450198781712,0.4709999740955164,0.4709999690704621,optimal,0.096,"[0.221, 0.125, 0.028999999999999998, 0.125, 0.125, 0.125, 0.125, 0.125]"
97,1+AB,1,1.0,0.37923343734433546,0.13717871555019023,0.47199999958867517,0.4719999995242992,optimal,0.097,"[0.222, 0.125, 0.027999999999999997, 0.125, 0.125, 0.125, 0.125, 0.125]"
98,1+AB,1,1.0,0.37974728438792027,0.13859292911256332,0.4729999924508004,0.4729999913037675,optimal,0.098,"[0.223, 0.125, 0.026999999999999996, 0.125, 0.125, 0.125, 0.125, 0.125]"
99,1+AB,1,1.0,0.38026569658595294,0.1400071426749364,0.4739999998719812,0.47399999985462,optimal,0.099,"[0.224, 0.125, 0.025999999999999995, 0.125, 0.125, 0.125, 0.125, 0.125]"
100,1+AB,1,1.0,0.38078865529319544,0.14142135623730953,0.47499999780047847,0.47499999748153593,optimal,0.1,"[0.225, 0.125, 0.024999999999999994, 0.125, 0.125, 0.125, 0.125, 0.125]"
101,1+AB,1,1.0,0.38131614180362206,0.14283556979968262,0.47599999982241614,0.475999999798424,optimal,0.101,"[0.226, 0.125, 0.023999999999999994, 0.125, 0.125, 0.125, 0.125, 0.125]"
102,1+AB,1,1.0,0.38184813735305817,0.1442497833620557,0.476999998343001,0.4769999980854394,optimal,0.10200000000000001,"[0.227, 0.125, 0.022999999999999993, 0.125, 0.125, 0.125, 0.125, 0.125]"
103,1+AB,1,1.0,0.38238462312179866,0.1456639969244288,0.4779999998667798,0.4779999998440973,optimal,0.10300000000000001,"[0.228, 0.125, 0.021999999999999992, 0.125, 0.125, 0.125, 0.125, 0.125]"
104,1+AB,1,1.0,0.3829255802372048,0.1470782104868019,0.47899999995274084,0.47899999994661036,optimal,0.10400000000000001,"[0.229, 0.125, 0.02099999999999999, 0.125, 0.125, 0.125, 0.125, 0.125]"
105,1+AB,1,1.0,0.3834709897762802,0.14849242404917495,0.4799999999630915,0.4799999999583118,optimal,0.105,"[0.22999999999999998, 0.125, 0.020000000000000004, 0.125, 0.125, 0.125, 0.125, 0.125]"
106,1+AB,1,1.0,0.38402083276822363,0.14990663761154807,0.4809999996007473,0.48099999954436007,optimal,0.106,"[0.23099999999999998, 0.125, 0.019000000000000003, 0.125, 0.125, 0.125, 0.125, 0.125]"
107,1+AB,1,1.0,0.38457509019696007,0.15132085117392116,0.48199999996249715,0.48199999995762455,optimal,0.107,"[0.23199999999999998, 0.125, 0.018000000000000002, 0.125, 0.125, 0.125, 0.125, 0.125]"
108,1+AB,1,1.0,0.385133743003648,0.15273506473629425,0.48299999976271446,0.48299999972847896,optimal,0.108,"[0.23299999999999998, 0.125, 0.017, 0.125, 0.125, 0.125, 0.125, 0.125]"
109,1+AB,1,1.0,0.3856967720891633,0.15414927829866734,0.48399999995788734,0.48399999995231957,optimal,0.109,"[0.23399999999999999, 0.125, 0.016, 0.125, 0.125, 0.125, 0.125, 0.125]"
110,1+AB,1,1.0,0.3862641583165593,0.15556349186104046,0.4849999999803117,0.48499999997766824,optimal,0.11,"[0.235, 0.125, 0.015, 0.125, 0.125, 0.125, 0.125, 0.125]"
111,1+AB,1,1.0,0.3868358825135021,0.15697770542341355,0.48599999905799096,0.48599999903591995,optimal,0.111,"[0.236, 0.125, 0.013999999999999999, 0.125, 0.125, 0.125, 0.125, 0.125]"
112,1+AB,1,1.0,0.3874119254746813,0.15839191898578664,0.48699999999452015,0.48699999999378146,optimal,0.112,"[0.237, 0.125, 0.012999999999999998, 0.125, 0.125, 0.125, 0.125, 0.125]"
113,1+AB,1,1.0,0.3879922679641954,0.15980613254815973,0.4879999983354523,0.4879999980885349,optimal,0.113,"[0.238, 0.125, 0.011999999999999997, 0.125, 0.125, 0.125, 0.125, 0.125]"
114,1+AB,1,1.0,0.38857689071791185,0.16122034611053282,0.48899999997252575,0.48899999996863325,optimal,0.114,"[0.239, 0.125, 0.010999999999999996, 0.125, 0.125, 0.125, 0.125, 0.125]"
115,1+AB,1,1.0,0.3891657744458009,0.16263455967290594,0.48999999997353993,0.489999999970286,optimal,0.115,"[0.24, 0.125, 0.009999999999999995, 0.125, 0.125, 0.125, 0.125, 0.125]"
116,1+AB,1,1.0,0.38975889983424367,0.16404877323527903,0.490999999943718,0.4909999999359817,optimal,0.116,"[0.241, 0.125, 0.008999999999999994, 0.125, 0.125, 0.125, 0.125, 0.125]"
117,1+AB,1,1.0,0.3903562475483133,0.16546298679765212,0.49199999999004723,0.4919999999888495,optimal,0.117,"[0.242, 0.125, 0.007999999999999993, 0.125, 0.125, 0.125, 0.125, 0.125]"
118,1+AB,1,1.0,0.3909577982340293,0.1668772003600252,0.4929999999938775,0.4929999999930965,optimal,0.11800000000000001,"[0.243, 0.125, 0.006999999999999992, 0.125, 0.125, 0.125, 0.125, 0.125]"
119,1+AB,1,1.0,0.391563532520586,0.1682914139223983,0.4939999999731984,0.49399999996972216,optimal,0.11900000000000001,"[0.244, 0.125, 0.0059999999999999915, 0.125, 0.125, 0.125, 0.125, 0.125]"
120,1+AB,1,1.0,0.39217343102255153,0.16970562748477142,0.4949999999828443,0.49499999998053545,optimal,0.12,"[0.245, 0.125, 0.0050000000000000044, 0.125, 0.125, 0.125, 0.125, 0.125]"
121,1+AB,1,1.0,0.39278747434204164,0.1711198410471445,0.4959999999685352,0.49599999996399635,optimal,0.121,"[0.246, 0.125, 0.0040000000000000036, 0.125, 0.125, 0.125, 0.125, 0.125]"
122,1+AB,1,1.0,0.39340564307086395,0.1725340546095176,0.4969999999862267,0.4969999999843253,optimal,0.122,"[0.247, 0.125, 0.0030000000000000027, 0.125, 0.125, 0.125, 0.125, 0.125]"
123,1+AB,1,1.0,0.39402791779263563,0.17394826817189069,0.49799999998770517,0.4979999999863164,optimal,0.123,"[0.248, 0.125, 0.0020000000000000018, 0.125, 0.125, 0.125, 0.125, 0.125]"
124,1+AB,1,1.0,0.39465427908487194,0.17536248173426378,0.49899999998289774,0.4989999999807161,optimal,0.124,"[0.249, 0.125, 0.0010000000000000009, 0.125, 0.125, 0.125, 0.125, 0.125]"
125,1+AB,1,1.0,0.39528470752104744,0.1767766952966369,0.4999999997746518,0.49999999973864284,optimal,0.125,"[0.25, 0.125, 0.0, 0.125, 0.125, 0.125, 0.125, 0.125]"
