Index, Level, Gleichung, 1-norm, 2-norm, varianz, primal, dual, status, eps, b
Gleichung: 1 - CHSH; 2 - 33,33; 3-44,1111; 4-44,43; 5-44,33_1; 6-44,311; 7-44,411; 8-43,311; 9-411,33; 10-43,43_1; 11-43,411; 12-43,33_1; 13-43,33_2; 14-44,33_2; 15-43,43_2
0,1+AB,2,1.0,0.353553390593,0.0,0.42677669453896233,0.4267766944549204,optimal,0.0,"[0.125, 0.125, 0.125, 0.125, 0.125, 0.125, 0.125, 0.125]"
1,1+AB,2,1.0,0.353613118042,0.00649901928701,0.4267973546906891,0.4267973546776549,optimal,0.02,"[0.1225, 0.1225, 0.12505512322415266, 0.12874616606241029, 0.12790774671054359, 0.12481125174018279, 0.12597971226271065, 0.1225]"
2,1+AB,2,1.0,0.353792239891,0.012998038574,0.42685947089206766,0.4268594708862329,optimal,0.04,"[0.12, 0.12, 0.12511024644830535, 0.13249233212482059, 0.13081549342108714, 0.12462250348036559, 0.1269594245254213, 0.12]"
3,1+AB,2,1.0,0.354090574946,0.019497057861,0.42696328784723026,0.42696328783848675,optimal,0.06,"[0.1175, 0.1175, 0.125165369672458, 0.13623849818723091, 0.13372324013163073, 0.12443375522054838, 0.12793913678813196, 0.1175]"
4,1+AB,2,1.0,0.354507822237,0.0259960771481,0.4271090954246907,0.42710909542340264,optimal,0.08,"[0.115, 0.115, 0.12522049289661069, 0.13998466424964121, 0.13663098684217431, 0.12424500696073117, 0.12891884905084264, 0.115]"
5,1+AB,2,1.0,0.355043562528,0.0324950964351,0.42729722282131594,0.42729722281884297,optimal,0.1,"[0.1125, 0.1125, 0.12527561612076335, 0.1437308303120515, 0.13953873355271787, 0.12405625870091397, 0.12989856131355329, 0.1125]"
6,1+AB,2,1.0,0.355697260407,0.0389941157221,0.4275280342596807,0.4275280342549919,optimal,0.12,"[0.11, 0.11, 0.12533073934491604, 0.14747699637446179, 0.14244648026326145, 0.12386751044109676, 0.13087827357626394, 0.11]"
7,1+AB,2,1.0,0.356468266937,0.0454931350091,0.42780192210225343,0.4278019218218432,optimal,0.14,"[0.1075, 0.1075, 0.1253858625690687, 0.15122316243687212, 0.14535422697380504, 0.12367876218127954, 0.1318579858389746, 0.1075]"
8,1+AB,2,1.0,0.357355822827,0.0519921542961,0.42811931224512995,0.42811931194625236,optimal,0.16,"[0.105, 0.105, 0.12544098579322138, 0.15496932849928241, 0.14826197368434862, 0.12349001392146235, 0.13283769810168525, 0.105]"
9,1+AB,2,1.0,0.358359062097,0.0584911735831,0.42848064964419824,0.4284806496397594,optimal,0.18,"[0.10250000000000001, 0.10250000000000001, 0.12549610901737404, 0.1587154945616927, 0.15116972039489218, 0.12330126566164513, 0.1338174103643959, 0.10250000000000001]"
10,1+AB,2,1.0,0.359477016191,0.0649901928701,0.42888633989989555,0.42888633512618846,optimal,0.2,"[0.1, 0.1, 0.12555123224152673, 0.162461660624103, 0.15407746710543577, 0.12311251740182792, 0.13479712262710658, 0.1]"
11,1+AB,2,1.0,0.360708618493,0.0714892121571,0.4293370334847763,0.4293370334800736,optimal,0.22,"[0.0975, 0.0975, 0.12560635546567939, 0.16620782668651332, 0.15698521381597935, 0.12292376914201072, 0.13577683488981723, 0.0975]"
12,1+AB,2,1.0,0.362052709207,0.0779882314442,0.42983306436856106,0.4298330643670245,optimal,0.24,"[0.095, 0.095, 0.12566147868983207, 0.16995399274892362, 0.15989296052652291, 0.12273502088219351, 0.13675654715252789, 0.095]"
13,1+AB,2,1.0,0.363508040538,0.0844872507312,0.4303749997634094,0.4303749997565629,optimal,0.26,"[0.0925, 0.0925, 0.12571660191398473, 0.17370015881133391, 0.16280070723706649, 0.1225462726223763, 0.13773625941523854, 0.0925]"
14,1+AB,2,1.0,0.365073282139,0.0909862700182,0.43096336375176997,0.4309633637428228,optimal,0.28,"[0.09, 0.09, 0.12577172513813739, 0.17744632487374423, 0.16570845394761008, 0.12235752436255909, 0.13871597167794919, 0.09]"
15,1+AB,2,1.0,0.366747026751,0.0974852893052,0.4315986902966344,0.4315986902956525,optimal,0.3,"[0.0875, 0.0875, 0.12582684836229008, 0.18119249093615453, 0.16861620065815364, 0.12216877610274189, 0.13969568394065984, 0.0875]"
16,1+AB,2,1.0,0.368527796012,0.103984308592,0.4322814824698923,0.43228147776531883,optimal,0.32,"[0.08499999999999999, 0.08499999999999999, 0.12588197158644274, 0.18493865699856482, 0.17152394736869722, 0.12198002784292468, 0.14067539620337052, 0.08499999999999999]"
17,1+AB,2,1.0,0.370414046358,0.110483327879,0.43301240671234514,0.4330124067076792,optimal,0.34,"[0.08249999999999999, 0.08249999999999999, 0.12593709481059542, 0.18868482306097512, 0.17443169407924081, 0.12179127958310747, 0.14165510846608118, 0.08249999999999999]"
18,1+AB,2,1.0,0.372404174988,0.116982347166,0.43379190073069435,0.4337919007122578,optimal,0.36,"[0.08, 0.08, 0.12599221803474808, 0.19243098912338541, 0.17733944078978436, 0.12160253132329027, 0.14263482072879183, 0.08]"
19,1+AB,2,1.0,0.374496525833,0.123481366453,0.43462056186151754,0.43462056170321955,optimal,0.38,"[0.0775, 0.0775, 0.12604734125890077, 0.1961771551857957, 0.18024718750032795, 0.12141378306347306, 0.14361453299150248, 0.0775]"
20,1+AB,2,1.0,0.376689395493,0.12998038574,0.435498957051541,0.43549895702872266,optimal,0.4,"[0.075, 0.075, 0.12610246448305343, 0.19992332124820603, 0.18315493421087153, 0.12122503480365585, 0.14459424525421313, 0.075]"
21,1+AB,2,1.0,0.378981039099,0.136479405027,0.4364276475646092,0.436427647562133,optimal,0.42,"[0.07250000000000001, 0.07250000000000001, 0.12615758770720611, 0.20366948731061632, 0.18606268092141509, 0.12103628654383865, 0.14557395751692379, 0.07250000000000001]"
22,1+AB,2,1.0,0.381369676062,0.142978424314,0.437407122576141,0.4374071138485722,optimal,0.44,"[0.07, 0.07, 0.12621271093135877, 0.20741565337302664, 0.18897042763195868, 0.12084753828402144, 0.14655366977963447, 0.07]"
23,1+AB,2,1.0,0.38385349568,0.149477443601,0.43843818515745686,0.438438185076352,optimal,0.46,"[0.0675, 0.0675, 0.12626783415551146, 0.21116181943543694, 0.19187817434250226, 0.12065879002420422, 0.14753338204234512, 0.0675]"
24,1+AB,2,1.0,0.386430662571,0.155976462888,0.4395211655784116,0.4395211652209102,optimal,0.48,"[0.065, 0.065, 0.12632295737966412, 0.21490798549784723, 0.19478592105304582, 0.12047004176438703, 0.14851309430505577, 0.065]"
25,1+AB,2,1.0,0.389099321907,0.162475482175,0.4406567171426698,0.4406567171400646,optimal,0.5,"[0.0625, 0.0625, 0.12637808060381678, 0.21865415156025753, 0.1976936677635894, 0.12028129350456981, 0.14949280656776642, 0.0625]"
26,1+AB,2,1.0,0.391857604423,0.168974501462,0.44184539620061253,0.44184539620032875,optimal,0.52,"[0.06, 0.06, 0.12643320382796946, 0.22240031762266782, 0.20060141447413299, 0.1200925452447526, 0.15047251883047708, 0.06]"
27,1+AB,2,1.0,0.394703631202,0.175473520749,0.4430877696369373,0.44308776963603125,optimal,0.54,"[0.057499999999999996, 0.057499999999999996, 0.12648832705212212, 0.22614648368507811, 0.20350916118467655, 0.1199037969849354, 0.15145223109318773, 0.057499999999999996]"
28,1+AB,2,1.0,0.397635518191,0.181972540036,0.4443843958728964,0.444384395573643,optimal,0.56,"[0.05499999999999999, 0.05499999999999999, 0.12654345027627481, 0.22989264974748844, 0.20641690789522016, 0.11971504872511819, 0.15243194335589841, 0.05499999999999999]"
29,1+AB,2,1.0,0.400651380472,0.188471559323,0.4457358421007146,0.4457358420825295,optimal,0.58,"[0.052500000000000005, 0.052500000000000005, 0.12659857350042747, 0.2336388158098987, 0.20932465460576372, 0.11952630046530098, 0.15341165561860906, 0.052500000000000005]"
30,1+AB,2,1.0,0.403749336252,0.19497057861,0.447142580136028,0.44714257303628363,optimal,0.6,"[0.05, 0.05, 0.12665369672458016, 0.23738498187230903, 0.21223240131630727, 0.11933755220548378, 0.15439136788131971, 0.05]"
31,1+AB,2,1.0,0.406927510592,0.201469597897,0.4486053903912081,0.44860539038956343,optimal,0.62,"[0.0475, 0.0475, 0.12670881994873281, 0.24113114793471935, 0.21514014802685086, 0.11914880394566657, 0.15537108014403037, 0.0475]"
32,1+AB,2,1.0,0.410184038858,0.207968617184,0.4501245905573343,0.4501245901014034,optimal,0.64,"[0.045, 0.045, 0.1267639431728855, 0.24487731399712964, 0.21804789473739444, 0.11896005568584936, 0.15635079240674102, 0.045]"
33,1+AB,2,1.0,0.413517069894,0.214467636471,0.4517008147393528,0.45170081469068063,optimal,0.66,"[0.042499999999999996, 0.042499999999999996, 0.12681906639703816, 0.24862348005953994, 0.220955641447938, 0.11877130742603216, 0.15733050466945167, 0.042499999999999996]"
34,1+AB,2,1.0,0.416924768942,0.220966655758,0.45333459006623134,0.45333459006212307,optimal,0.68,"[0.039999999999999994, 0.039999999999999994, 0.12687418962119085, 0.25236964612195023, 0.22386338815848161, 0.11858255916621495, 0.15831021693216235, 0.039999999999999994]"
35,1+AB,2,1.0,0.420405320285,0.227465675045,0.4550264537125242,0.4550264534078536,optimal,0.7000000000000001,"[0.03749999999999999, 0.03749999999999999, 0.12692931284534351, 0.25611581218436053, 0.22677113486902517, 0.11839381090639774, 0.159289929194873, 0.03749999999999999]"
36,1+AB,2,1.0,0.423956929645,0.233964694332,0.45677694400354757,0.456776943729076,optimal,0.72,"[0.035, 0.035, 0.12698443606949619, 0.25986197824677082, 0.22967888157956873, 0.11820506264658054, 0.16026964145758366, 0.035]"
37,1+AB,2,1.0,0.427577826328,0.240463713619,0.45858658792845003,0.458586587865832,optimal,0.74,"[0.0325, 0.0325, 0.12703955929364885, 0.26360814430918111, 0.23258662829011231, 0.11801631438676333, 0.16124935372029431, 0.0325]"
38,1+AB,2,1.0,0.431266265136,0.246962732906,0.460455904749264,0.460455904603209,optimal,0.76,"[0.03, 0.03, 0.12709468251780151, 0.26735431037159141, 0.2354943750006559, 0.11782756612694611, 0.16222906598300496, 0.03]"
39,1+AB,2,1.0,0.43502052805,0.253461752193,0.462385419451032,0.4623854194369223,optimal,0.78,"[0.027499999999999997, 0.027499999999999997, 0.1271498057419542, 0.27110047643400176, 0.23840212171119946, 0.1176388178671289, 0.16320877824571561, 0.027499999999999997]"
40,1+AB,2,1.0,0.438838925699,0.259960771481,0.46437560111657383,0.4643755968222908,optimal,0.8,"[0.024999999999999994, 0.024999999999999994, 0.12720492896610686, 0.27484664249641205, 0.24130986842174307, 0.11745006960731171, 0.16418849050842627, 0.024999999999999994]"
41,1+AB,2,1.0,0.442719798626,0.266459790768,0.4664270793697413,0.4664270779364193,optimal,0.8200000000000001,"[0.022499999999999992, 0.022499999999999992, 0.12726005219025954, 0.27859280855882235, 0.24421761513228663, 0.11726132134749449, 0.16516820277113695, 0.022499999999999992]"
42,1+AB,2,1.0,0.446661518363,0.272958810055,0.46854024365876706,0.4685402404571689,optimal,0.84,"[0.020000000000000004, 0.020000000000000004, 0.1273151754144122, 0.28233897462123264, 0.24712536184283018, 0.1170725730876773, 0.1661479150338476, 0.020000000000000004]"
43,1+AB,2,1.0,0.450662488322,0.279457829342,0.4707155274208447,0.4707155128075483,optimal,0.86,"[0.0175, 0.0175, 0.12737029863856489, 0.28608514068364294, 0.2500331085533738, 0.11688382482786008, 0.16712762729655825, 0.0175]"
44,1+AB,2,1.0,0.454721144524,0.285956848629,0.4729386388189315,0.4729386377905948,optimal,0.88,"[0.015, 0.015, 0.12742542186271755, 0.28983130674605329, 0.25294085526391735, 0.11669507656804287, 0.1681073395592689, 0.015]"
45,1+AB,2,1.0,0.458835956174,0.292455867916,0.4751645097093496,0.4751645070279159,optimal,0.9,"[0.012499999999999997, 0.012499999999999997, 0.12748054508687023, 0.29357747280846358, 0.25584860197446091, 0.11650632830822566, 0.16908705182197956, 0.012499999999999997]"
46,1+AB,2,1.0,0.463005426083,0.298954887203,0.47739040113341036,0.4773904009088867,optimal,0.92,"[0.009999999999999995, 0.009999999999999995, 0.12753566831102289, 0.29732363887087387, 0.25875634868500452, 0.11631758004840846, 0.17006676408469024, 0.009999999999999995]"
47,1+AB,2,1.0,0.467228090968,0.30545390649,0.47961628037705467,0.4796162802165636,optimal,0.9400000000000001,"[0.007499999999999993, 0.007499999999999993, 0.12759079153517558, 0.30106980493328417, 0.26166409539554808, 0.11612883178859125, 0.17104647634740089, 0.007499999999999993]"
48,1+AB,2,1.0,0.471502521627,0.311952925777,0.4818421595277407,0.48184215951953113,optimal,0.96,"[0.0050000000000000044, 0.0050000000000000044, 0.12764591475932824, 0.30481597099569446, 0.26457184210609164, 0.11594008352877404, 0.17202618861011154, 0.0050000000000000044]"
49,1+AB,2,1.0,0.475827323002,0.318451945064,0.4840680371229478,0.48406803698419026,optimal,0.98,"[0.0025000000000000022, 0.0025000000000000022, 0.12770103798348093, 0.30856213705810476, 0.26747958881663525, 0.11575133526895684, 0.17300590087282219, 0.0025000000000000022]"
50,1+AB,2,1.0,0.480201134143,0.324950964351,0.48629391156499824,0.4862939099413524,optimal,1.0,"[0.0, 0.0, 0.12775616120763358, 0.31230830312051505, 0.27038733552717881, 0.11556258700913963, 0.17398561313553285, 0.0]"
