Index, Level, Gleichung, 1-norm, 2-norm, varianz, primal, dual, status, eps, b
Gleichung: 1 - CHSH; 2 - 33,33; 3-44,1111; 4-44,43; 5-44,33_1; 6-44,311; 7-44,411; 8-43,311; 9-411,33; 10-43,43_1; 11-43,411; 12-43,33_1; 13-43,33_2; 14-44,33_2; 15-43,43_2
0,1+AB,3,1.0,0.353553390593,0.0,0.42677669528951856,0.42677669528914186,optimal,0.0,"[0.125, 0.125, 0.125, 0.125, 0.125, 0.125, 0.125, 0.125]"
1,1+AB,3,1.0,0.353646507986,0.0081149621359,0.42686497462284223,0.4268649746116225,optimal,0.02,"[0.1225, 0.1225, 0.12680148923281528, 0.12448597105644872, 0.13079433177281036, 0.12298073106219916, 0.12743747687572649, 0.1225]"
2,1+AB,3,1.0,0.353925713169,0.0162299242718,0.42713117637586057,0.427131176326714,optimal,0.04,"[0.12, 0.12, 0.1286029784656306, 0.12397194211289744, 0.13658866354562071, 0.12096146212439832, 0.12987495375145294, 0.12]"
3,1+AB,3,1.0,0.354390566317,0.0243448864077,0.4275771157835942,0.42757711577635527,optimal,0.06,"[0.1175, 0.1175, 0.13040446769844588, 0.12345791316934618, 0.14238299531843107, 0.11894219318659746, 0.13231243062717943, 0.1175]"
4,1+AB,3,1.0,0.355040338226,0.0324598485436,0.4282043598727774,0.4282043598697278,optimal,0.08,"[0.115, 0.115, 0.13220595693126119, 0.1229438842257949, 0.14817732709124143, 0.11692292424879662, 0.13474990750290589, 0.115]"
5,1+AB,3,1.0,0.355874015997,0.0405748106795,0.42901434444602016,0.42901434443998804,optimal,0.1,"[0.1125, 0.1125, 0.13400744616407648, 0.12242985528224362, 0.15397165886405179, 0.11490365531099578, 0.13718738437863237, 0.1125]"
6,1+AB,3,1.0,0.356890310847,0.0486897728154,0.4300085436616506,0.43000854365361674,optimal,0.12,"[0.11, 0.11, 0.13580893539689176, 0.12191582633869234, 0.15976599063686214, 0.11288438637319494, 0.13962486125435883, 0.11]"
7,1+AB,3,1.0,0.358087667915,0.0568047349513,0.4311887355947397,0.4311887355910847,optimal,0.14,"[0.1075, 0.1075, 0.13761042462970707, 0.12140179739514106, 0.1655603224096725, 0.11086511743539409, 0.14206233813008531, 0.1075]"
8,1+AB,3,1.0,0.359464277877,0.0649196970872,0.4325574518457896,0.43255745184060773,optimal,0.16,"[0.105, 0.105, 0.13941191386252236, 0.1208877684515898, 0.17135465418248286, 0.10884584849759324, 0.14449981500581177, 0.105]"
9,1+AB,3,1.0,0.361018090195,0.0730346592231,0.4341188357820496,0.43411883554721964,optimal,0.18,"[0.10250000000000001, 0.10250000000000001, 0.14121340309533764, 0.12037373950803852, 0.17714898595529319, 0.10682657955979241, 0.14693729188153826, 0.10250000000000001]"
10,1+AB,3,1.0,0.362746827756,0.081149621359,0.43588054678492066,0.4358805454376936,optimal,0.2,"[0.1, 0.1, 0.14301489232815295, 0.11985971056448724, 0.18294331772810354, 0.10480731062199156, 0.14937476875726474, 0.1]"
11,1+AB,3,1.0,0.364648002691,0.0892645834949,0.4380498619007234,0.4380498572833643,optimal,0.22,"[0.0975, 0.0975, 0.14481638156096824, 0.11934568162093596, 0.1887376495009139, 0.10278804168419071, 0.1518122456329912, 0.0975]"
12,1+AB,3,1.0,0.366718933118,0.0973795456308,0.44378169028764997,0.44378168826141245,optimal,0.24,"[0.095, 0.095, 0.14661787079378352, 0.11883165267738469, 0.19453198127372426, 0.10076877274638987, 0.15424972250871768, 0.095]"
13,1+AB,3,1.0,0.368956760568,0.105494507767,0.44951351222900976,0.44951351219963237,optimal,0.26,"[0.0925, 0.0925, 0.14841936002659883, 0.11831762373383342, 0.20032631304653462, 0.098749503808589018, 0.15668719938444414, 0.0925]"
14,1+AB,3,1.0,0.37135846786,0.113609469903,0.45524532072362456,0.4552453206724125,optimal,0.28,"[0.09, 0.09, 0.15022084925941412, 0.11780359479028214, 0.20612064481934497, 0.096730234870788176, 0.15912467626017063, 0.09]"
15,1+AB,3,1.0,0.37392089719,0.121724432038,0.46097712861118784,0.46097712842609656,optimal,0.3,"[0.0875, 0.0875, 0.15202233849222943, 0.11728956584673086, 0.2119149765921553, 0.094710965932987334, 0.16156215313589709, 0.0875]"
16,1+AB,3,1.0,0.376640768212,0.129839394174,0.4667089382856103,0.4667089382738959,optimal,0.32,"[0.08499999999999999, 0.08499999999999999, 0.15382382772504472, 0.11677553690317959, 0.21770930836496569, 0.092691696995186493, 0.16399963001162357, 0.08499999999999999]"
17,1+AB,3,1.0,0.379514695928,0.13795435631,0.47244074697185706,0.472440746966164,optimal,0.34,"[0.08249999999999999, 0.08249999999999999, 0.15562531695786003, 0.11626150795962831, 0.22350364013777604, 0.090672428057385651, 0.16643710688735006, 0.08249999999999999]"
18,1+AB,3,1.0,0.382539208175,0.146069318446,0.4781725556220231,0.4781725556129027,optimal,0.36,"[0.08, 0.08, 0.15742680619067531, 0.11574747901607704, 0.22929797191058637, 0.08865315911958481, 0.16887458376307651, 0.08]"
19,1+AB,3,1.0,0.385710762591,0.154184280582,0.48390436425871947,0.483904364249123,optimal,0.38,"[0.0775, 0.0775, 0.1592282954234906, 0.11523345007252576, 0.23509230368339673, 0.086633890181783968, 0.171312060638803, 0.0775]"
20,1+AB,3,1.0,0.389025762883,0.162299242718,0.48963617282038435,0.489636172799206,optimal,0.4,"[0.075, 0.075, 0.16102978465630591, 0.11471942112897449, 0.24088663545620709, 0.084614621243983112, 0.17374953751452946, 0.075]"
21,1+AB,3,1.0,0.392480574317,0.170414204854,0.49536798104611074,0.49536798092380097,optimal,0.42,"[0.07250000000000001, 0.07250000000000001, 0.16283127388912119, 0.11420539218542321, 0.24668096722901744, 0.082595352306182285, 0.17618701439025594, 0.07250000000000001]"
22,1+AB,3,1.0,0.396071538319,0.17852916699,0.501099790082332,0.5010997900559174,optimal,0.44,"[0.07, 0.07, 0.16463276312193648, 0.11369136324187193, 0.2524752990018278, 0.080576083368381429, 0.1786244912659824, 0.07]"
23,1+AB,3,1.0,0.399794986133,0.186644129126,0.5068315974171645,0.5068315971866099,optimal,0.46,"[0.0675, 0.0675, 0.16643425235475179, 0.11317733429832066, 0.25826963077463816, 0.078556814430580574, 0.18106196814170888, 0.0675]"
24,1+AB,3,1.0,0.403647251482,0.194759091262,0.5125634069231066,0.5125634067804594,optimal,0.48,"[0.065, 0.065, 0.16823574158756707, 0.11266330535476939, 0.26406396254744852, 0.076537545492779746, 0.18349944501743534, 0.065]"
25,1+AB,3,1.0,0.407624682204,0.202874053397,0.518295216185873,0.5182952161817369,optimal,0.5,"[0.0625, 0.0625, 0.17003723082038236, 0.11214927641121811, 0.26985829432025887, 0.074518276554978891, 0.18593692189316183, 0.0625]"
26,1+AB,3,1.0,0.411723650858,0.210989015533,0.5240269709849347,0.5240269623514638,optimal,0.52,"[0.06, 0.06, 0.17183872005319767, 0.11163524746766683, 0.27565262609306923, 0.072499007617178049, 0.18837439876888828, 0.06]"
27,1+AB,3,1.0,0.4159405643,0.219103977669,0.5297588059579126,0.529758801684085,optimal,0.54,"[0.057499999999999996, 0.057499999999999996, 0.17364020928601298, 0.11112121852411555, 0.28144695786587959, 0.070479738679377207, 0.19081187564461477, 0.057499999999999996]"
28,1+AB,3,1.0,0.420271872252,0.227218939805,0.5354906420581204,0.5354906420432392,optimal,0.56,"[0.05499999999999999, 0.05499999999999999, 0.17544169851882827, 0.11060718958056429, 0.28724128963868995, 0.068460469741576352, 0.19324935252034126, 0.05499999999999999]"
29,1+AB,3,1.0,0.424714074882,0.235333901941,0.5412224382603397,0.5412224364571587,optimal,0.58,"[0.052500000000000005, 0.052500000000000005, 0.17724318775164355, 0.11009316063701301, 0.2930356214115003, 0.066441200803775524, 0.19568682939606771, 0.052500000000000005]"
30,1+AB,3,1.0,0.429263729449,0.243448864077,0.5469542182050084,0.5469542122998237,optimal,0.6,"[0.05, 0.05, 0.17904467698445883, 0.10957913169346173, 0.2988299531843106, 0.064421931865974683, 0.19812430627179417, 0.05]"
31,1+AB,3,1.0,0.433917456043,0.251563826213,0.5526860603633118,0.5526860592249899,optimal,0.62,"[0.0475, 0.0475, 0.18084616621727415, 0.10906510274991045, 0.30462428495712102, 0.062402662928173827, 0.20056178314752066, 0.0475]"
32,1+AB,3,1.0,0.438671942479,0.259678788349,0.5584178670225451,0.5584178656702853,optimal,0.64,"[0.045, 0.045, 0.18264765545008943, 0.10855107380635917, 0.31041861672993137, 0.060383393990372985, 0.20299926002324714, 0.045]"
33,1+AB,3,1.0,0.443523948394,0.267793750485,0.5641496760126355,0.5641496746456592,optimal,0.66,"[0.042499999999999996, 0.042499999999999996, 0.18444914468290474, 0.10803704486280791, 0.31621294850274173, 0.058364125052572144, 0.20543673689897363, 0.042499999999999996]"
34,1+AB,3,1.0,0.448470308605,0.27590871262,0.5698814473204403,0.5698814405212946,optimal,0.68,"[0.039999999999999994, 0.039999999999999994, 0.18625063391572003, 0.10752301591925663, 0.32200728027555209, 0.056344856114771302, 0.20787421377470011, 0.039999999999999994]"
35,1+AB,3,1.0,0.453507935787,0.284023674756,0.5756132664208481,0.5756132611710282,optimal,0.7000000000000001,"[0.03749999999999999, 0.03749999999999999, 0.18805212314853531, 0.10700898697570535, 0.32780161204836245, 0.054325587176970447, 0.21031169065042657, 0.03749999999999999]"
36,1+AB,3,1.0,0.458633822526,0.292138636892,0.581345111273477,0.581345111263416,optimal,0.72,"[0.035, 0.035, 0.18985361238135062, 0.10649495803215407, 0.33359594382117275, 0.052306318239169619, 0.21274916752615303, 0.035]"
37,1+AB,3,1.0,0.463845042799,0.300253599028,0.5870769071812579,0.5870769072860769,optimal,0.74,"[0.0325, 0.0325, 0.19165510161416591, 0.10598092908860279, 0.33939027559398316, 0.050287049301368764, 0.21518664440187951, 0.0325]"
38,1+AB,3,1.0,0.469138752945,0.308368561164,0.592808695350213,0.5928086902990958,optimal,0.76,"[0.03, 0.03, 0.19345659084698119, 0.10546690014505153, 0.34518460736679346, 0.048267780363567922, 0.217624121277606, 0.03]"
39,1+AB,3,1.0,0.474512192172,0.3164835233,0.5985405369811205,0.5985405369614744,optimal,0.78,"[0.027499999999999997, 0.027499999999999997, 0.1952580800797965, 0.10495287120150025, 0.35097893913960387, 0.04624851142576708, 0.22006159815333245, 0.027499999999999997]"
40,1+AB,3,1.0,0.479962682661,0.324598485436,0.6042723376234601,0.6042723370968931,optimal,0.8,"[0.024999999999999994, 0.024999999999999994, 0.19705956931261182, 0.10443884225794897, 0.35677327091241418, 0.044229242487966225, 0.22249907502905891, 0.024999999999999994]"
41,1+AB,3,1.0,0.485487629291,0.332713447572,0.6100041522682178,0.6100041519035428,optimal,0.8200000000000001,"[0.022499999999999992, 0.022499999999999992, 0.1988610585454271, 0.10392481331439769, 0.36256760268522459, 0.042209973550165383, 0.2249365519047854, 0.022499999999999992]"
42,1+AB,3,1.0,0.491084519064,0.340828409708,0.6157358650343441,0.6157358513449784,optimal,0.84,"[0.020000000000000004, 0.020000000000000004, 0.20066254777824238, 0.10341078437084641, 0.36836193445803489, 0.040190704612364556, 0.22737402878051188, 0.020000000000000004]"
43,1+AB,3,1.0,0.496750920234,0.348943371844,0.6214676564018432,0.6214676414518805,optimal,0.86,"[0.0175, 0.0175, 0.2024640370110577, 0.10289675542729515, 0.37415626623084525, 0.0381714356745637, 0.22981150565623834, 0.0175]"
44,1+AB,3,1.0,0.502484481217,0.357058333979,0.6271994597953429,0.6271994442609812,optimal,0.88,"[0.015, 0.015, 0.20426552624387295, 0.10238272648374387, 0.3799505980036556, 0.036152166736762859, 0.2322489825319648, 0.015]"
45,1+AB,3,1.0,0.508282929278,0.365173296115,0.6329313887074793,0.6329313886220934,optimal,0.9,"[0.012499999999999997, 0.012499999999999997, 0.20606701547668826, 0.10186869754019259, 0.38574492977646596, 0.034132897798962017, 0.23468645940769128, 0.012499999999999997]"
46,1+AB,3,1.0,0.514144069059,0.373288258251,0.6386631973695874,0.6386631972989655,optimal,0.92,"[0.009999999999999995, 0.009999999999999995, 0.20786850470950358, 0.10135466859664131, 0.39153926154927632, 0.032113628861161161, 0.23712393628341777, 0.009999999999999995]"
47,1+AB,3,1.0,0.520065780956,0.381403220387,0.6443950059973559,0.644395005916015,optimal,0.9400000000000001,"[0.007499999999999993, 0.007499999999999993, 0.20966999394231886, 0.10084063965309004, 0.39733359332208668, 0.03009435992336032, 0.23956141315914425, 0.007499999999999993]"
48,1+AB,3,1.0,0.52604601939,0.389518182523,0.6501267966757744,0.6501267936339724,optimal,0.96,"[0.0050000000000000044, 0.0050000000000000044, 0.21147148317513415, 0.10032661070953877, 0.40312792509489703, 0.028075090985559492, 0.24199889003487068, 0.0050000000000000044]"
49,1+AB,3,1.0,0.532082810971,0.397633144659,0.6558586180922404,0.6558586171814919,optimal,0.98,"[0.0025000000000000022, 0.0025000000000000022, 0.21327297240794946, 0.099812581765987493, 0.40892225686770739, 0.026055822047758637, 0.24443636691059717, 0.0025000000000000022]"
50,1+AB,3,1.0,0.538174252606,0.405748106795,0.6615904323861467,0.6615904323715016,optimal,1.0,"[0.0, 0.0, 0.21507446164076474, 0.099298552822436215, 0.41471658864051775, 0.024036553109957795, 0.24687384378632365, 0.0]"
