Index, Level, Gleichung, 1-norm, 2-norm, varianz, primal, dual, status, eps, b
Gleichung: 1 - CHSH; 2 - 33,33; 3-44,1111; 4-44,43; 5-44,33_1; 6-44,311; 7-44,411; 8-43,311; 9-411,33; 10-43,43_1; 11-43,411; 12-43,33_1; 13-43,33_2; 14-44,33_2; 15-43,43_2
0,1+AB,1,1.0,0.353553390593,0.0,0.42677669433719756,0.42677669423124287,optimal,0.0,"[0.125, 0.125, 0.125, 0.125, 0.125, 0.125, 0.125, 0.125]"
1,1+AB,1,1.0,0.353790840841,0.0129599021126,0.42696501484498994,0.42696501483570093,optimal,0.05,"[0.1189023403948363, 0.13293526230524952, 0.13103528364791189, 0.12573370864641023, 0.12581441705677149, 0.12223699752070034, 0.12123267934979889, 0.12210931107832135]"
2,1+AB,1,1.0,0.354502237301,0.0259198042252,0.42750879745260617,0.4275087973532759,optimal,0.1,"[0.11280468078967261, 0.14087052461049901, 0.13707056729582381, 0.12646741729282046, 0.12662883411354295, 0.11947399504140067, 0.11746535869959777, 0.1192186221566427]"
3,1+AB,1,1.0,0.355684736199,0.0388797063378,0.4283812712870624,0.4283812712663262,optimal,0.15000000000000002,"[0.10670702118450891, 0.14880578691574853, 0.14310585094373574, 0.12720112593923066, 0.12744325117031444, 0.11671099256210102, 0.11369803804939667, 0.11632793323496404]"
4,1+AB,1,1.0,0.357333660609,0.0518396084504,0.4295611186833766,0.4295611186615205,optimal,0.2,"[0.10060936157934522, 0.15674104922099805, 0.14914113459164763, 0.12793483458564089, 0.1282576682270859, 0.11394799008280135, 0.10993071739919555, 0.11343724431328539]"
5,1+AB,1,1.0,0.359442591479,0.0647995105631,0.431031340628865,0.431031340610362,optimal,0.25,"[0.094511701974181517, 0.16467631152624757, 0.15517641823955952, 0.12866854323205112, 0.12907208528385739, 0.11118498760350169, 0.10616339674899444, 0.11054655539160675]"
6,1+AB,1,1.0,0.362003489292,0.0777594126757,0.43277842097742353,0.43277842097451974,optimal,0.30000000000000004,"[0.088414042369017815, 0.17261157383149706, 0.16121170188747144, 0.12940225187846136, 0.12988650234062887, 0.10842198512420204, 0.10239607609879334, 0.1076558664699281]"
7,1+AB,1,1.0,0.365006841135,0.0907193147883,0.4347916964136422,0.43479169366296044,optimal,0.35000000000000003,"[0.082316382763854126, 0.18054683613674657, 0.16724698553538336, 0.13013596052487159, 0.13070091939740033, 0.10565898264490237, 0.098628755448592217, 0.10476517754824945]"
8,1+AB,1,1.0,0.368441827182,0.103679216901,0.4370631175583484,0.43706311755664495,optimal,0.4,"[0.076218723158690438, 0.18848209844199609, 0.17328226918329526, 0.13086966917128179, 0.13151533645417182, 0.10289598016560271, 0.094861434798391112, 0.10187448862657079]"
9,1+AB,1,1.0,0.372296500231,0.116639119013,0.43958670114861,0.43958669929950533,optimal,0.45,"[0.070121063553526736, 0.19641736074724558, 0.17931755283120715, 0.13160337781769202, 0.13232975351094328, 0.10013297768630304, 0.091094114148190006, 0.098983799704892142]"
10,1+AB,1,1.0,0.376557972,0.129599021126,0.4423589861833977,0.4423589861580966,optimal,0.5,"[0.064023403948363033, 0.2043526230524951, 0.18535283647911907, 0.13233708646410225, 0.13314417056771477, 0.097369975207003384, 0.087326793497988886, 0.096093110783213503]"
11,1+AB,1,1.0,0.381212600257,0.142558923239,0.4453791195771,0.4453791186736067,optimal,0.55,"[0.057925744343199345, 0.21228788535774462, 0.19138812012703099, 0.13307079511051248, 0.13395858762448626, 0.094606972727703714, 0.08355947284778778, 0.093202421861534851]"
12,1+AB,1,1.0,0.386246171552,0.155518825351,0.44865029619829505,0.4486502959490382,optimal,0.6000000000000001,"[0.051828084738035643, 0.22022314766299414, 0.19742340377494288, 0.13380450375692271, 0.13477300468125772, 0.091843970248404058, 0.079792152197586674, 0.090311732939856199]"
13,1+AB,1,1.0,0.39164407516,0.168478727464,0.4521825708160308,0.4521825707146435,optimal,0.65,"[0.045730425132871955, 0.22815840996824363, 0.20345868742285478, 0.13453821240333291, 0.13558742173802921, 0.089080967769104402, 0.076024831547385568, 0.087421044018177546]"
14,1+AB,1,1.0,0.397391464808,0.181438629577,0.4570258000706307,0.45702579161134926,optimal,0.7000000000000001,"[0.039632765527708252, 0.23609367227349315, 0.20949397107076673, 0.13527192104974314, 0.13640183879480067, 0.086317965289804732, 0.072257510897184435, 0.084530355096498894]"
15,1+AB,1,1.0,0.40347340572,0.194398531689,0.4628848557428039,0.4628848556256383,optimal,0.75,"[0.033535105922544564, 0.24402893457874264, 0.21552925471867862, 0.13600562969615337, 0.13721625585157216, 0.083554962810505076, 0.068490190246983343, 0.081639666174820241]"
16,1+AB,1,1.0,0.409875005421,0.207358433802,0.46874384553420206,0.46874384530626256,optimal,0.8,"[0.027437446317380862, 0.25196419688399219, 0.22156453836659051, 0.1367393383425636, 0.13803067290834364, 0.08079196033120542, 0.064722869596782223, 0.078748977253141589]"
17,1+AB,1,1.0,0.416581527603,0.220318335914,0.47460283743402454,0.4746028374247019,optimal,0.8500000000000001,"[0.02133978671221716, 0.25989945918924168, 0.22759982201450243, 0.13747304698897383, 0.1388450899651151, 0.07802895785190575, 0.060955548946581117, 0.075858288331462936]"
18,1+AB,1,1.0,0.423578488992,0.233278238027,0.48046176088170106,0.48046175093171345,optimal,0.9,"[0.015242127107053471, 0.26783472149449117, 0.23363510566241433, 0.13820675563538404, 0.13965950702188659, 0.07526595537260608, 0.057188228296380011, 0.072967599409784284]"
19,1+AB,1,1.0,0.430851739766,0.24623814014,0.4863208065004435,0.4863208047584727,optimal,0.9500000000000001,"[0.0091444675018897692, 0.27576998379974071, 0.23967038931032625, 0.13894046428179427, 0.14047392407865805, 0.072502952893306424, 0.053420907646178892, 0.070076910488105632]"
20,1+AB,1,1.0,0.438387528458,0.259198042252,0.49217980075616014,0.4921797996671414,optimal,1.0,"[0.0030468078967260809, 0.28370524610499021, 0.24570567295823814, 0.1396741729282045, 0.14128834113542954, 0.069739950414006768, 0.049653586995977786, 0.067186221566426993]"
