Index, Level, Gleichung, 1-norm, 2-norm, varianz, primal, dual, status, eps, b
Gleichung: 1 - CHSH, 2 - 33,33, 3-44,1111
0,1+AB,1,1.0,0.353553390593,0.0,0.42677669433719756,0.42677669423124287,optimal,0.0,"[0.125, 0.125, 0.125, 0.125, 0.125, 0.125, 0.125, 0.125]"
1,1+AB,1,0.9999999999999998,0.353555915966,0.00133630620956,0.4267796876341168,0.4267796876295262,optimal,0.01,"[0.12375, 0.12517857142857142, 0.12517857142857142, 0.12517857142857142, 0.12517857142857142, 0.12517857142857142, 0.12517857142857142, 0.12517857142857142]"
2,1+AB,1,0.9999999999999999,0.353563491974,0.00267261241912,0.42678849636634575,0.4267884823565022,optimal,0.02,"[0.1225, 0.12535714285714286, 0.12535714285714286, 0.12535714285714286, 0.12535714285714286, 0.12535714285714286, 0.12535714285714286, 0.12535714285714286]"
3,1+AB,1,1.0,0.353576118295,0.00400891862869,0.4268033211331106,0.4268033112645847,optimal,0.03,"[0.12125, 0.12553571428571428, 0.12553571428571428, 0.12553571428571428, 0.12553571428571428, 0.12553571428571428, 0.12553571428571428, 0.12553571428571428]"
4,1+AB,1,1.0,0.353593794386,0.00534522483825,0.4268239305981052,0.4268239241131617,optimal,0.04,"[0.12, 0.12571428571428572, 0.12571428571428572, 0.12571428571428572, 0.12571428571428572, 0.12571428571428572, 0.12571428571428572, 0.12571428571428572]"
5,1+AB,1,1.0,0.353616519491,0.00668153104781,0.4268502513783474,0.42685024735984023,optimal,0.05,"[0.11875, 0.12589285714285714, 0.12589285714285714, 0.12589285714285714, 0.12589285714285714, 0.12589285714285714, 0.12589285714285714, 0.12589285714285714]"
6,1+AB,1,1.0000000000000002,0.353644292636,0.00801783725737,0.42688223230755756,0.4268822322998624,optimal,0.06,"[0.1175, 0.12607142857142858, 0.12607142857142858, 0.12607142857142858, 0.12607142857142858, 0.12607142857142858, 0.12607142857142858, 0.12607142857142858]"
7,1+AB,1,0.9999999999999999,0.353677112632,0.00935414346693,0.42691975214705535,0.4269197521451612,optimal,0.07,"[0.11624999999999999, 0.12625, 0.12625, 0.12625, 0.12625, 0.12625, 0.12625, 0.12625]"
8,1+AB,1,1.0,0.353714978075,0.0106904496765,0.4269627757088634,0.42696277570551006,optimal,0.08,"[0.115, 0.12642857142857142, 0.12642857142857142, 0.12642857142857142, 0.12642857142857142, 0.12642857142857142, 0.12642857142857142, 0.12642857142857142]"
9,1+AB,1,1.0000000000000002,0.353757887343,0.0120267558861,0.4270112326264815,0.4270112326144459,optimal,0.09,"[0.11375, 0.12660714285714286, 0.12660714285714286, 0.12660714285714286, 0.12660714285714286, 0.12660714285714286, 0.12660714285714286, 0.12660714285714286]"
10,1+AB,1,1.0,0.353805838602,0.0133630620956,0.42706505327455957,0.4270650532674155,optimal,0.1,"[0.1125, 0.12678571428571428, 0.12678571428571428, 0.12678571428571428, 0.12678571428571428, 0.12678571428571428, 0.12678571428571428, 0.12678571428571428]"
11,1+AB,1,1.0000000000000002,0.353858829802,0.0146993683052,0.42712416819912075,0.42712416819340165,optimal,0.11,"[0.11125, 0.12696428571428572, 0.12696428571428572, 0.12696428571428572, 0.12696428571428572, 0.12696428571428572, 0.12696428571428572, 0.12696428571428572]"
12,1+AB,1,0.9999999999999999,0.353916858679,0.0160356745147,0.42718850835405,0.4271885083186835,optimal,0.12,"[0.11, 0.12714285714285714, 0.12714285714285714, 0.12714285714285714, 0.12714285714285714, 0.12714285714285714, 0.12714285714285714, 0.12714285714285714]"
13,1+AB,1,1.0,0.353979922756,0.0173719807243,0.4272580066097306,0.4272580066035205,optimal,0.13,"[0.10875, 0.12732142857142859, 0.12732142857142859, 0.12732142857142859, 0.12732142857142859, 0.12732142857142859, 0.12732142857142859, 0.12732142857142859]"
14,1+AB,1,0.9999999999999998,0.354048019342,0.0187082869339,0.4273325944484921,0.42733259444407845,optimal,0.14,"[0.1075, 0.1275, 0.1275, 0.1275, 0.1275, 0.1275, 0.1275, 0.1275]"
15,1+AB,1,0.9999999999999999,0.354121145534,0.0200445931434,0.42741220523173734,0.4274122052283303,optimal,0.15,"[0.10625, 0.12767857142857142, 0.12767857142857142, 0.12767857142857142, 0.12767857142857142, 0.12767857142857142, 0.12767857142857142, 0.12767857142857142]"
16,1+AB,1,1.0000000000000002,0.354199298217,0.021380899353,0.4274967711497868,0.42749677101036754,optimal,0.16,"[0.105, 0.12785714285714286, 0.12785714285714286, 0.12785714285714286, 0.12785714285714286, 0.12785714285714286, 0.12785714285714286, 0.12785714285714286]"
17,1+AB,1,0.9999999999999998,0.354282474064,0.0227172055626,0.4275862308196429,0.42758623079867153,optimal,0.17,"[0.10375, 0.12803571428571428, 0.12803571428571428, 0.12803571428571428, 0.12803571428571428, 0.12803571428571428, 0.12803571428571428, 0.12803571428571428]"
18,1+AB,1,1.0,0.354370669538,0.0240535117721,0.427680515294515,0.427680515288601,optimal,0.18,"[0.10250000000000001, 0.12821428571428573, 0.12821428571428573, 0.12821428571428573, 0.12821428571428573, 0.12821428571428573, 0.12821428571428573, 0.12821428571428573]"
19,1+AB,1,1.0000000000000002,0.354463880892,0.0253898179817,0.42777956116942534,0.42777956116572313,optimal,0.19,"[0.10125, 0.12839285714285714, 0.12839285714285714, 0.12839285714285714, 0.12839285714285714, 0.12839285714285714, 0.12839285714285714, 0.12839285714285714]"
20,1+AB,1,0.9999999999999999,0.354562104171,0.0267261241912,0.4278833048829948,0.42788330488244936,optimal,0.2,"[0.1, 0.12857142857142856, 0.12857142857142856, 0.12857142857142856, 0.12857142857142856, 0.12857142857142856, 0.12857142857142856, 0.12857142857142856]"
21,1+AB,1,1.0,0.354665335211,0.0280624304008,0.4279916833411473,0.42799168334054477,optimal,0.21,"[0.09875, 0.12875, 0.12875, 0.12875, 0.12875, 0.12875, 0.12875, 0.12875]"
22,1+AB,1,0.9999999999999998,0.354773569639,0.0293987366104,0.4281046342078365,0.42810463420714834,optimal,0.22,"[0.0975, 0.12892857142857142, 0.12892857142857142, 0.12892857142857142, 0.12892857142857142, 0.12892857142857142, 0.12892857142857142, 0.12892857142857142]"
23,1+AB,1,1.0,0.354886802878,0.0307350428199,0.42822209579165993,0.42822209579073384,optimal,0.23,"[0.09625, 0.12910714285714286, 0.12910714285714286, 0.12910714285714286, 0.12910714285714286, 0.12910714285714286, 0.12910714285714286, 0.12910714285714286]"
24,1+AB,1,0.9999999999999998,0.355005030145,0.0320713490295,0.4283440070903064,0.4283440070886467,optimal,0.24,"[0.095, 0.12928571428571428, 0.12928571428571428, 0.12928571428571428, 0.12928571428571428, 0.12928571428571428, 0.12928571428571428, 0.12928571428571428]"
25,1+AB,1,1.0,0.355128246453,0.0334076552391,0.42847030775013273,0.4284703077434494,optimal,0.25,"[0.09375, 0.12946428571428573, 0.12946428571428573, 0.12946428571428573, 0.12946428571428573, 0.12946428571428573, 0.12946428571428573, 0.12946428571428573]"
26,1+AB,1,1.0,0.355256446609,0.0347439614486,0.42860093827558327,0.4286009382704465,optimal,0.26,"[0.0925, 0.12964285714285714, 0.12964285714285714, 0.12964285714285714, 0.12964285714285714, 0.12964285714285714, 0.12964285714285714, 0.12964285714285714]"
27,1+AB,1,0.9999999999999998,0.35538962522,0.0360802676582,0.42873583960540584,0.4287358395956025,optimal,0.27,"[0.09125, 0.12982142857142856, 0.12982142857142856, 0.12982142857142856, 0.12982142857142856, 0.12982142857142856, 0.12982142857142856, 0.12982142857142856]"
28,1+AB,1,1.0,0.355527776693,0.0374165738677,0.42887495330486536,0.42887495326108616,optimal,0.28,"[0.09, 0.13, 0.13, 0.13, 0.13, 0.13, 0.13, 0.13]"
29,1+AB,1,1.0,0.355670895231,0.0387528800773,0.42901822283677793,0.42901822283039076,optimal,0.29,"[0.08875, 0.13017857142857142, 0.13017857142857142, 0.13017857142857142, 0.13017857142857142, 0.13017857142857142, 0.13017857142857142, 0.13017857142857142]"
30,1+AB,1,0.9999999999999999,0.355818974841,0.0400891862869,0.42916559036144214,0.4291655903584328,optimal,0.3,"[0.0875, 0.13035714285714287, 0.13035714285714287, 0.13035714285714287, 0.13035714285714287, 0.13035714285714287, 0.13035714285714287, 0.13035714285714287]"
31,1+AB,1,1.0,0.355972009333,0.0414254924964,0.42931700007858625,0.4293170000780939,optimal,0.31,"[0.08625, 0.13053571428571428, 0.13053571428571428, 0.13053571428571428, 0.13053571428571428, 0.13053571428571428, 0.13053571428571428, 0.13053571428571428]"
32,1+AB,1,1.0000000000000002,0.356129992318,0.042761798706,0.4294723965529642,0.429472396551841,optimal,0.32,"[0.08499999999999999, 0.13071428571428573, 0.13071428571428573, 0.13071428571428573, 0.13071428571428573, 0.13071428571428573, 0.13071428571428573, 0.13071428571428573]"
33,1+AB,1,1.0,0.356292917214,0.0440981049156,0.4296317251105781,0.4296317251098302,optimal,0.33,"[0.08374999999999999, 0.13089285714285714, 0.13089285714285714, 0.13089285714285714, 0.13089285714285714, 0.13089285714285714, 0.13089285714285714, 0.13089285714285714]"
34,1+AB,1,0.9999999999999998,0.356460777245,0.0454344111251,0.4297949317013878,0.42979493169857486,optimal,0.34,"[0.08249999999999999, 0.13107142857142856, 0.13107142857142856, 0.13107142857142856, 0.13107142857142856, 0.13107142857142856, 0.13107142857142856, 0.13107142857142856]"
35,1+AB,1,0.9999999999999999,0.356633565442,0.0467707173347,0.42996196304480505,0.4299619630411563,optimal,0.35000000000000003,"[0.08124999999999999, 0.13125, 0.13125, 0.13125, 0.13125, 0.13125, 0.13125, 0.13125]"
36,1+AB,1,1.0,0.356811274646,0.0481070235442,0.4301327665507856,0.43013276655032817,optimal,0.36,"[0.08, 0.13142857142857142, 0.13142857142857142, 0.13142857142857142, 0.13142857142857142, 0.13142857142857142, 0.13142857142857142, 0.13142857142857142]"
37,1+AB,1,1.0,0.356993897507,0.0494433297538,0.4303072902046621,0.43030729020403896,optimal,0.37,"[0.07875, 0.13160714285714287, 0.13160714285714287, 0.13160714285714287, 0.13160714285714287, 0.13160714285714287, 0.13160714285714287, 0.13160714285714287]"
38,1+AB,1,1.0,0.357181426489,0.0507796359634,0.4304854827982271,0.43048548279701915,optimal,0.38,"[0.0775, 0.13178571428571428, 0.13178571428571428, 0.13178571428571428, 0.13178571428571428, 0.13178571428571428, 0.13178571428571428, 0.13178571428571428]"
39,1+AB,1,1.0,0.357373853868,0.0521159421729,0.43066729374803353,0.43066729374368545,optimal,0.39,"[0.07625, 0.1319642857142857, 0.1319642857142857, 0.1319642857142857, 0.1319642857142857, 0.1319642857142857, 0.1319642857142857, 0.1319642857142857]"
40,1+AB,1,0.9999999999999999,0.357571171737,0.0534522483825,0.4308526732411667,0.43085267323694876,optimal,0.4,"[0.075, 0.13214285714285715, 0.13214285714285715, 0.13214285714285715, 0.13214285714285715, 0.13214285714285715, 0.13214285714285715, 0.13214285714285715]"
41,1+AB,1,1.0,0.357773372003,0.054788554592,0.4310415720415222,0.431041572037323,optimal,0.41000000000000003,"[0.07375, 0.13232142857142856, 0.13232142857142856, 0.13232142857142856, 0.13232142857142856, 0.13232142857142856, 0.13232142857142856, 0.13232142857142856]"
42,1+AB,1,1.0000000000000002,0.357980446393,0.0561248608016,0.43123394160955586,0.43123394160361483,optimal,0.42,"[0.07250000000000001, 0.1325, 0.1325, 0.1325, 0.1325, 0.1325, 0.1325, 0.1325]"
43,1+AB,1,1.0,0.358192386455,0.0574611670112,0.43142971179529144,0.43142970935848624,optimal,0.43,"[0.07125000000000001, 0.13267857142857142, 0.13267857142857142, 0.13267857142857142, 0.13267857142857142, 0.13267857142857142, 0.13267857142857142, 0.13267857142857142]"
44,1+AB,1,1.0000000000000002,0.358409183556,0.0587974732207,0.4316288800900913,0.431628877616832,optimal,0.44,"[0.07, 0.13285714285714287, 0.13285714285714287, 0.13285714285714287, 0.13285714285714287, 0.13285714285714287, 0.13285714285714287, 0.13285714285714287]"
45,1+AB,1,0.9999999999999999,0.358630828888,0.0601337794303,0.431831393430624,0.4318313927460663,optimal,0.45,"[0.06875, 0.13303571428571428, 0.13303571428571428, 0.13303571428571428, 0.13303571428571428, 0.13303571428571428, 0.13303571428571428, 0.13303571428571428]"
46,1+AB,1,1.0,0.358857313467,0.0614700856399,0.4320371796470215,0.4320371795395951,optimal,0.46,"[0.0675, 0.1332142857142857, 0.1332142857142857, 0.1332142857142857, 0.1332142857142857, 0.1332142857142857, 0.1332142857142857, 0.1332142857142857]"
47,1+AB,1,1.0,0.359088628137,0.0628063918494,0.4322461993001735,0.43224619928829094,optimal,0.47000000000000003,"[0.06625, 0.13339285714285715, 0.13339285714285715, 0.13339285714285715, 0.13339285714285715, 0.13339285714285715, 0.13339285714285715, 0.13339285714285715]"
48,1+AB,1,0.9999999999999999,0.35932476357,0.064142698059,0.4324583184521669,0.43245830850305483,optimal,0.48,"[0.065, 0.13357142857142856, 0.13357142857142856, 0.13357142857142856, 0.13357142857142856, 0.13357142857142856, 0.13357142857142856, 0.13357142857142856]"
49,1+AB,1,1.0000000000000002,0.359565710267,0.0654790042685,0.4326737735205476,0.4326737735189424,optimal,0.49,"[0.06375, 0.13375, 0.13375, 0.13375, 0.13375, 0.13375, 0.13375, 0.13375]"
50,1+AB,1,0.9999999999999999,0.359811458564,0.0668153104781,0.432892237743009,0.4328922373582401,optimal,0.5,"[0.0625, 0.13392857142857142, 0.13392857142857142, 0.13392857142857142, 0.13392857142857142, 0.13392857142857142, 0.13392857142857142, 0.13392857142857142]"
51,1+AB,1,1.0,0.36006199863,0.0681516166877,0.43311377300054354,0.4331137729948494,optimal,0.51,"[0.06125, 0.13410714285714287, 0.13410714285714287, 0.13410714285714287, 0.13410714285714287, 0.13410714285714287, 0.13410714285714287, 0.13410714285714287]"
52,1+AB,1,1.0000000000000002,0.360317320467,0.0694879228972,0.4333383259137197,0.4333383259090574,optimal,0.52,"[0.06, 0.13428571428571429, 0.13428571428571429, 0.13428571428571429, 0.13428571428571429, 0.13428571428571429, 0.13428571428571429, 0.13428571428571429]"
53,1+AB,1,0.9999999999999999,0.360577413919,0.0708242291068,0.43356585873999964,0.43356585873576575,optimal,0.53,"[0.05875, 0.1344642857142857, 0.1344642857142857, 0.1344642857142857, 0.1344642857142857, 0.1344642857142857, 0.1344642857142857, 0.1344642857142857]"
54,1+AB,1,1.0,0.360842268668,0.0721605353164,0.4337962761871377,0.43379627061263243,optimal,0.54,"[0.057499999999999996, 0.13464285714285715, 0.13464285714285715, 0.13464285714285715, 0.13464285714285715, 0.13464285714285715, 0.13464285714285715, 0.13464285714285715]"
55,1+AB,1,0.9999999999999998,0.361111874236,0.0734968415259,0.434029687446616,0.43402968600140684,optimal,0.55,"[0.056249999999999994, 0.13482142857142856, 0.13482142857142856, 0.13482142857142856, 0.13482142857142856, 0.13482142857142856, 0.13482142857142856, 0.13482142857142856]"
56,1+AB,1,1.0,0.361386219992,0.0748331477355,0.43426593065798047,0.4342659306246218,optimal,0.56,"[0.05499999999999999, 0.135, 0.135, 0.135, 0.135, 0.135, 0.135, 0.135]"
57,1+AB,1,0.9999999999999998,0.361665295148,0.076169453945,0.43450494360221364,0.43450493967849246,optimal,0.5700000000000001,"[0.05374999999999999, 0.13517857142857143, 0.13517857142857143, 0.13517857142857143, 0.13517857142857143, 0.13517857142857143, 0.13517857142857143, 0.13517857142857143]"
58,1+AB,1,0.9999999999999999,0.361949088764,0.0775057601546,0.43474681158654416,0.43474681156464684,optimal,0.58,"[0.052500000000000005, 0.13535714285714284, 0.13535714285714284, 0.13535714285714284, 0.13535714285714284, 0.13535714285714284, 0.13535714285714284, 0.13535714285714284]"
59,1+AB,1,1.0,0.362237589751,0.0788420663642,0.4349913850999492,0.4349913849565306,optimal,0.59,"[0.051250000000000004, 0.1355357142857143, 0.1355357142857143, 0.1355357142857143, 0.1355357142857143, 0.1355357142857143, 0.1355357142857143, 0.1355357142857143]"
60,1+AB,1,0.9999999999999998,0.36253078687,0.0801783725737,0.43523866662747585,0.43523866656935134,optimal,0.6,"[0.05, 0.1357142857142857, 0.1357142857142857, 0.1357142857142857, 0.1357142857142857, 0.1357142857142857, 0.1357142857142857, 0.1357142857142857]"
61,1+AB,1,1.0,0.362828668737,0.0815146787833,0.4354886167661037,0.4354886167275452,optimal,0.61,"[0.04875, 0.13589285714285715, 0.13589285714285715, 0.13589285714285715, 0.13589285714285715, 0.13589285714285715, 0.13589285714285715, 0.13589285714285715]"
62,1+AB,1,1.0,0.363131223822,0.0828509849929,0.43574119274864387,0.43574119188853655,optimal,0.62,"[0.0475, 0.13607142857142857, 0.13607142857142857, 0.13607142857142857, 0.13607142857142857, 0.13607142857142857, 0.13607142857142857, 0.13607142857142857]"
63,1+AB,1,0.9999999999999999,0.363438440455,0.0841872912024,0.435996380160897,0.43599638015436354,optimal,0.63,"[0.04625, 0.13625, 0.13625, 0.13625, 0.13625, 0.13625, 0.13625, 0.13625]"
64,1+AB,1,1.0,0.363750306824,0.085523597412,0.4362541202804603,0.4362541200665305,optimal,0.64,"[0.045, 0.13642857142857143, 0.13642857142857143, 0.13642857142857143, 0.13642857142857143, 0.13642857142857143, 0.13642857142857143, 0.13642857142857143]"
65,1+AB,1,1.0000000000000002,0.36406681098,0.0868599036215,0.436514360760277,0.43651435752672896,optimal,0.65,"[0.04375, 0.13660714285714287, 0.13660714285714287, 0.13660714285714287, 0.13660714285714287, 0.13660714285714287, 0.13660714285714287, 0.13660714285714287]"
66,1+AB,1,1.0,0.364387940839,0.0881962098311,0.4367770581555599,0.4367770485090673,optimal,0.66,"[0.042499999999999996, 0.1367857142857143, 0.1367857142857143, 0.1367857142857143, 0.1367857142857143, 0.1367857142857143, 0.1367857142857143, 0.1367857142857143]"
67,1+AB,1,0.9999999999999998,0.364713684181,0.0895325160407,0.43704236901190635,0.4370423681741307,optimal,0.67,"[0.041249999999999995, 0.1369642857142857, 0.1369642857142857, 0.1369642857142857, 0.1369642857142857, 0.1369642857142857, 0.1369642857142857, 0.1369642857142857]"
68,1+AB,1,0.9999999999999999,0.365044028656,0.0908688222502,0.4373100252386815,0.4373100252317854,optimal,0.68,"[0.039999999999999994, 0.13714285714285715, 0.13714285714285715, 0.13714285714285715, 0.13714285714285715, 0.13714285714285715, 0.13714285714285715, 0.13714285714285715]"
69,1+AB,1,1.0,0.365378961784,0.0922051284598,0.43758006751849066,0.43758006751113004,optimal,0.6900000000000001,"[0.03874999999999999, 0.13732142857142857, 0.13732142857142857, 0.13732142857142857, 0.13732142857142857, 0.13732142857142857, 0.13732142857142857, 0.13732142857142857]"
70,1+AB,1,1.0,0.365718470958,0.0935414346693,0.4378524713272566,0.4378524713141245,optimal,0.7000000000000001,"[0.03749999999999999, 0.1375, 0.1375, 0.1375, 0.1375, 0.1375, 0.1375, 0.1375]"
71,1+AB,1,1.0,0.366062543446,0.0948777408789,0.4381272046127329,0.43812720454529597,optimal,0.71,"[0.036250000000000004, 0.13767857142857143, 0.13767857142857143, 0.13767857142857143, 0.13767857142857143, 0.13767857142857143, 0.13767857142857143, 0.13767857142857143]"
72,1+AB,1,1.0,0.366411166393,0.0962140470885,0.4384042376975892,0.4384042376916303,optimal,0.72,"[0.035, 0.13785714285714284, 0.13785714285714284, 0.13785714285714284, 0.13785714285714284, 0.13785714285714284, 0.13785714285714284, 0.13785714285714284]"
73,1+AB,1,0.9999999999999999,0.366764326821,0.097550353298,0.4386835382301848,0.43868353822335093,optimal,0.73,"[0.03375, 0.1380357142857143, 0.1380357142857143, 0.1380357142857143, 0.1380357142857143, 0.1380357142857143, 0.1380357142857143, 0.1380357142857143]"
74,1+AB,1,1.0,0.367122011637,0.0988866595076,0.4389650764470274,0.4389650764290879,optimal,0.74,"[0.0325, 0.1382142857142857, 0.1382142857142857, 0.1382142857142857, 0.1382142857142857, 0.1382142857142857, 0.1382142857142857, 0.1382142857142857]"
75,1+AB,1,1.0000000000000002,0.36748420763,0.100222965717,0.43924882241395746,0.4392488223610861,optimal,0.75,"[0.03125, 0.13839285714285715, 0.13839285714285715, 0.13839285714285715, 0.13839285714285715, 0.13839285714285715, 0.13839285714285715, 0.13839285714285715]"
76,1+AB,1,1.0,0.367850901473,0.101559271927,0.4395347364419918,0.4395347351936586,optimal,0.76,"[0.03, 0.13857142857142857, 0.13857142857142857, 0.13857142857142857, 0.13857142857142857, 0.13857142857142857, 0.13857142857142857, 0.13857142857142857]"
77,1+AB,1,1.0000000000000002,0.368222079729,0.102895578136,0.43982280649756234,0.4398228047288324,optimal,0.77,"[0.028749999999999998, 0.13875, 0.13875, 0.13875, 0.13875, 0.13875, 0.13875, 0.13875]"
78,1+AB,1,0.9999999999999999,0.368597728851,0.104231884346,0.4401130186764144,0.4401130186722433,optimal,0.78,"[0.027499999999999997, 0.13892857142857143, 0.13892857142857143, 0.13892857142857143, 0.13892857142857143, 0.13892857142857143, 0.13892857142857143, 0.13892857142857143]"
79,1+AB,1,1.0,0.368977835184,0.105568190555,0.4404053080280679,0.44040530802268874,optimal,0.79,"[0.026249999999999996, 0.13910714285714285, 0.13910714285714285, 0.13910714285714285, 0.13910714285714285, 0.13910714285714285, 0.13910714285714285, 0.13910714285714285]"
80,1+AB,1,1.0,0.369362384967,0.106904496765,0.44069966316670783,0.44069966316559495,optimal,0.8,"[0.024999999999999994, 0.1392857142857143, 0.1392857142857143, 0.1392857142857143, 0.1392857142857143, 0.1392857142857143, 0.1392857142857143, 0.1392857142857143]"
81,1+AB,1,0.9999999999999999,0.369751364336,0.108240802975,0.44099605675542813,0.4409960567503049,optimal,0.81,"[0.023749999999999993, 0.1394642857142857, 0.1394642857142857, 0.1394642857142857, 0.1394642857142857, 0.1394642857142857, 0.1394642857142857, 0.1394642857142857]"
82,1+AB,1,1.0000000000000002,0.370144759327,0.109577109184,0.44129446219177904,0.4412944621889969,optimal,0.8200000000000001,"[0.022499999999999992, 0.13964285714285715, 0.13964285714285715, 0.13964285714285715, 0.13964285714285715, 0.13964285714285715, 0.13964285714285715, 0.13964285714285715]"
83,1+AB,1,0.9999999999999999,0.370542555875,0.110913415394,0.4415948520421229,0.44159485192494147,optimal,0.8300000000000001,"[0.02124999999999999, 0.13982142857142857, 0.13982142857142857, 0.13982142857142857, 0.13982142857142857, 0.13982142857142857, 0.13982142857142857, 0.13982142857142857]"
84,1+AB,1,1.0,0.37094473982,0.112249721603,0.4418972033741829,0.4418972033720537,optimal,0.84,"[0.020000000000000004, 0.14, 0.14, 0.14, 0.14, 0.14, 0.14, 0.14]"
85,1+AB,1,1.0000000000000002,0.371351296907,0.113586027813,0.4422014876540757,0.4422014876536569,optimal,0.85,"[0.018750000000000003, 0.14017857142857143, 0.14017857142857143, 0.14017857142857143, 0.14017857142857143, 0.14017857142857143, 0.14017857142857143, 0.14017857142857143]"
86,1+AB,1,1.0,0.371762212788,0.114922334022,0.44250764347726995,0.4425076400653143,optimal,0.86,"[0.0175, 0.14035714285714285, 0.14035714285714285, 0.14035714285714285, 0.14035714285714285, 0.14035714285714285, 0.14035714285714285, 0.14035714285714285]"
87,1+AB,1,1.0000000000000002,0.372177473027,0.116258640232,0.4428157527997291,0.4428157522912758,optimal,0.87,"[0.01625, 0.1405357142857143, 0.1405357142857143, 0.1405357142857143, 0.1405357142857143, 0.1405357142857143, 0.1405357142857143, 0.1405357142857143]"
88,1+AB,1,0.9999999999999998,0.372597063097,0.117594946441,0.44312560050026933,0.4431255911686022,optimal,0.88,"[0.015, 0.1407142857142857, 0.1407142857142857, 0.1407142857142857, 0.1407142857142857, 0.1407142857142857, 0.1407142857142857, 0.1407142857142857]"
89,1+AB,1,1.0,0.373020968388,0.118931252651,0.44343746541922147,0.44343746531308986,optimal,0.89,"[0.013749999999999998, 0.14089285714285715, 0.14089285714285715, 0.14089285714285715, 0.14089285714285715, 0.14089285714285715, 0.14089285714285715, 0.14089285714285715]"
90,1+AB,1,0.9999999999999998,0.373449174205,0.120267558861,0.4437510502981955,0.4437510502979122,optimal,0.9,"[0.012499999999999997, 0.14107142857142857, 0.14107142857142857, 0.14107142857142857, 0.14107142857142857, 0.14107142857142857, 0.14107142857142857, 0.14107142857142857]"
91,1+AB,1,0.9999999999999999,0.373881665771,0.12160386507,0.44406642171129423,0.4440664216002149,optimal,0.91,"[0.011249999999999996, 0.14125, 0.14125, 0.14125, 0.14125, 0.14125, 0.14125, 0.14125]"
92,1+AB,1,1.0,0.374318428232,0.12294017128,0.4443835608211006,0.4443835608136645,optimal,0.92,"[0.009999999999999995, 0.14142857142857143, 0.14142857142857143, 0.14142857142857143, 0.14142857142857143, 0.14142857142857143, 0.14142857142857143, 0.14142857142857143]"
93,1+AB,1,0.9999999999999998,0.374759446655,0.124276477489,0.44470244041432494,0.4447024402677704,optimal,0.93,"[0.008749999999999994, 0.14160714285714285, 0.14160714285714285, 0.14160714285714285, 0.14160714285714285, 0.14160714285714285, 0.14160714285714285, 0.14160714285714285]"
94,1+AB,1,1.0,0.375204706032,0.125612783699,0.4450230390000008,0.4450230385474424,optimal,0.9400000000000001,"[0.007499999999999993, 0.1417857142857143, 0.1417857142857143, 0.1417857142857143, 0.1417857142857143, 0.1417857142857143, 0.1417857142857143, 0.1417857142857143]"
95,1+AB,1,1.0,0.375654191283,0.126949089908,0.4453453344011366,0.44534533344682303,optimal,0.9500000000000001,"[0.006249999999999992, 0.1419642857142857, 0.1419642857142857, 0.1419642857142857, 0.1419642857142857, 0.1419642857142857, 0.1419642857142857, 0.1419642857142857]"
96,1+AB,1,1.0,0.376107887257,0.128285396118,0.4456693212341539,0.44566932116389546,optimal,0.96,"[0.0050000000000000044, 0.14214285714285715, 0.14214285714285715, 0.14214285714285715, 0.14214285714285715, 0.14214285714285715, 0.14214285714285715, 0.14214285714285715]"
97,1+AB,1,1.0,0.376565778735,0.129621702328,0.4459948969288983,0.4459948900448791,optimal,0.97,"[0.0037500000000000033, 0.14232142857142857, 0.14232142857142857, 0.14232142857142857, 0.14232142857142857, 0.14232142857142857, 0.14232142857142857, 0.14232142857142857]"
98,1+AB,1,0.9999999999999998,0.37702785043,0.130958008537,0.4463222234871952,0.4463222234265597,optimal,0.98,"[0.0025000000000000022, 0.1425, 0.1425, 0.1425, 0.1425, 0.1425, 0.1425, 0.1425]"
99,1+AB,1,1.0,0.377494086992,0.132294314747,0.44665105115325693,0.4466510449727475,optimal,0.99,"[0.0012500000000000011, 0.14267857142857143, 0.14267857142857143, 0.14267857142857143, 0.14267857142857143, 0.14267857142857143, 0.14267857142857143, 0.14267857142857143]"
100,1+AB,1,0.9999999999999998,0.377964473009,0.133630620956,0.4469815817209075,0.4469815814574768,optimal,1.0,"[0.0, 0.14285714285714285, 0.14285714285714285, 0.14285714285714285, 0.14285714285714285, 0.14285714285714285, 0.14285714285714285, 0.14285714285714285]"
