Index, Level, Gleichung, 1-norm, 2-norm, varianz, primal, dual, status, eps, b
Gleichung: 1 - CHSH, 2 - 33,33, 3-44,1111
0,1+AB,1,1.0,0.353553390593,0.0,0.42677669433719756,0.42677669423124287,optimal,0.0,"[0.125, 0.125, 0.125, 0.125, 0.125, 0.125, 0.125, 0.125]"
1,1+AB,1,1.0,0.353563997036,0.00273861278753,0.4267785622844789,0.42677856228010497,optimal,0.01,"[0.12375, 0.12375, 0.12375, 0.12575, 0.12575, 0.12575, 0.12575, 0.12575]"
2,1+AB,1,1.0000000000000002,0.353595814455,0.00547722557505,0.4267840773951289,0.42678407739021035,optimal,0.02,"[0.1225, 0.1225, 0.1225, 0.1265, 0.1265, 0.1265, 0.1265, 0.1265]"
3,1+AB,1,0.9999999999999999,0.353648837125,0.00821583836258,0.4267931164330173,0.4267931164255865,optimal,0.03,"[0.12125, 0.12125, 0.12125, 0.12725, 0.12725, 0.12725, 0.12725, 0.12725]"
4,1+AB,1,1.0,0.353723055511,0.0109544511501,0.42680556126475644,0.42680556124608776,optimal,0.04,"[0.12, 0.12, 0.12, 0.128, 0.128, 0.128, 0.128, 0.128]"
5,1+AB,1,1.0,0.353818456274,0.0136930639376,0.42682129997501495,0.42682129997283963,optimal,0.05,"[0.11875, 0.11875, 0.11875, 0.12875, 0.12875, 0.12875, 0.12875, 0.12875]"
6,1+AB,1,0.9999999999999998,0.353935022285,0.0164316767252,0.42684022504658287,0.4268402250456486,optimal,0.06,"[0.1175, 0.1175, 0.1175, 0.1295, 0.1295, 0.1295, 0.1295, 0.1295]"
7,1+AB,1,0.9999999999999999,0.354072732641,0.0191702895127,0.42686223457329664,0.4268622345695952,optimal,0.07,"[0.11624999999999999, 0.11624999999999999, 0.11624999999999999, 0.13025, 0.13025, 0.13025, 0.13025, 0.13025]"
8,1+AB,1,1.0,0.354231562682,0.0219089023002,0.4268872312734824,0.426887231269735,optimal,0.08,"[0.115, 0.115, 0.115, 0.131, 0.131, 0.131, 0.131, 0.131]"
9,1+AB,1,1.0,0.354411484013,0.0246475150877,0.42691512214374017,0.426915122139795,optimal,0.09,"[0.11375, 0.11375, 0.11375, 0.13175, 0.13175, 0.13175, 0.13175, 0.13175]"
10,1+AB,1,1.0000000000000002,0.35461246453,0.0273861278753,0.42694581834067574,0.42694581833636347,optimal,0.1,"[0.1125, 0.1125, 0.1125, 0.1325, 0.1325, 0.1325, 0.1325, 0.1325]"
11,1+AB,1,0.9999999999999999,0.35483446845,0.0301247406628,0.4269792349042589,0.42697923489952466,optimal,0.11,"[0.11125, 0.11125, 0.11125, 0.13325, 0.13325, 0.13325, 0.13325, 0.13325]"
12,1+AB,1,1.0,0.355077456339,0.0328633534503,0.4270152905301642,0.4270152905249255,optimal,0.12,"[0.11, 0.11, 0.11, 0.134, 0.134, 0.134, 0.134, 0.134]"
13,1+AB,1,1.0,0.35534138515,0.0356019662378,0.42705390735960214,0.4270539073537519,optimal,0.13,"[0.10875, 0.10875, 0.10875, 0.13475, 0.13475, 0.13475, 0.13475, 0.13475]"
14,1+AB,1,1.0,0.355626208258,0.0383405790254,0.42709501078911316,0.42709501078252043,optimal,0.14,"[0.1075, 0.1075, 0.1075, 0.1355, 0.1355, 0.1355, 0.1355, 0.1355]"
15,1+AB,1,0.9999999999999999,0.355931875504,0.0410791918129,0.42713852928844764,0.42713852928101137,optimal,0.15,"[0.10625, 0.10625, 0.10625, 0.13625, 0.13625, 0.13625, 0.13625, 0.13625]"
16,1+AB,1,1.0,0.356258333236,0.0438178046004,0.42718439429808613,0.4271843942954765,optimal,0.16,"[0.105, 0.105, 0.105, 0.137, 0.137, 0.137, 0.137, 0.137]"
17,1+AB,1,1.0,0.356605524354,0.0465564173879,0.4272325396901496,0.42723253967486424,optimal,0.17,"[0.10375, 0.10375, 0.10375, 0.13775, 0.13775, 0.13775, 0.13775, 0.13775]"
18,1+AB,1,1.0000000000000002,0.356973388364,0.0492950301755,0.4272829026316074,0.42728290262620794,optimal,0.18,"[0.10250000000000001, 0.10250000000000001, 0.10250000000000001, 0.1385, 0.1385, 0.1385, 0.1385, 0.1385]"
19,1+AB,1,1.0,0.357361861423,0.052033642963,0.42733542200067987,0.4273354219987101,optimal,0.19,"[0.10125, 0.10125, 0.10125, 0.13925, 0.13925, 0.13925, 0.13925, 0.13925]"
20,1+AB,1,1.0,0.3577708764,0.0547722557505,0.4273899902331785,0.427389985185455,optimal,0.2,"[0.1, 0.1, 0.1, 0.14, 0.14, 0.14, 0.14, 0.14]"
21,1+AB,1,0.9999999999999998,0.358200362926,0.057510868538,0.42744669853348766,0.42744669852827943,optimal,0.21,"[0.09875, 0.09875, 0.09875, 0.14075, 0.14075, 0.14075, 0.14075, 0.14075]"
22,1+AB,1,1.0,0.358650247456,0.0602494813256,0.42750534545789953,0.42750534545722063,optimal,0.22,"[0.0975, 0.0975, 0.0975, 0.14150000000000001, 0.14150000000000001, 0.14150000000000001, 0.14150000000000001, 0.14150000000000001]"
23,1+AB,1,1.0,0.35912045333,0.0629880941131,0.4275659278851536,0.4275659278822791,optimal,0.23,"[0.09625, 0.09625, 0.09625, 0.14225, 0.14225, 0.14225, 0.14225, 0.14225]"
24,1+AB,1,1.0,0.359610900836,0.0657267069006,0.427628395550649,0.4276283955305794,optimal,0.24,"[0.095, 0.095, 0.095, 0.143, 0.143, 0.143, 0.143, 0.143]"
25,1+AB,1,1.0,0.360121507272,0.0684653196881,0.4276927003440311,0.427692700322928,optimal,0.25,"[0.09375, 0.09375, 0.09375, 0.14375, 0.14375, 0.14375, 0.14375, 0.14375]"
26,1+AB,1,0.9999999999999998,0.360652187017,0.0712039324757,0.4277587956127405,0.42775879560647656,optimal,0.26,"[0.0925, 0.0925, 0.0925, 0.1445, 0.1445, 0.1445, 0.1445, 0.1445]"
27,1+AB,1,0.9999999999999999,0.361202851595,0.0739425452632,0.4278266360948517,0.4278266360902707,optimal,0.27,"[0.09125, 0.09125, 0.09125, 0.14525, 0.14525, 0.14525, 0.14525, 0.14525]"
28,1+AB,1,1.0,0.361773409747,0.0766811580507,0.42789617851164735,0.4278961785107558,optimal,0.28,"[0.09, 0.09, 0.09, 0.146, 0.146, 0.146, 0.146, 0.146]"
29,1+AB,1,0.9999999999999998,0.362363767504,0.0794197708382,0.4279673808697488,0.4279673808683367,optimal,0.29,"[0.08875, 0.08875, 0.08875, 0.14675, 0.14675, 0.14675, 0.14675, 0.14675]"
30,1+AB,1,0.9999999999999998,0.362973828258,0.0821583836258,0.42804020272654736,0.4280402027246255,optimal,0.3,"[0.0875, 0.0875, 0.0875, 0.1475, 0.1475, 0.1475, 0.1475, 0.1475]"
31,1+AB,1,1.0,0.363603492833,0.0848969964133,0.42811460497828796,0.42811460497711806,optimal,0.31,"[0.08625, 0.08625, 0.08625, 0.14825, 0.14825, 0.14825, 0.14825, 0.14825]"
32,1+AB,1,1.0,0.364252659565,0.0876356092008,0.42819054980686494,0.42819054980606525,optimal,0.32,"[0.08499999999999999, 0.08499999999999999, 0.08499999999999999, 0.149, 0.149, 0.149, 0.149, 0.149]"
33,1+AB,1,1.0,0.364921224376,0.0903742219884,0.42826800066782705,0.4282680006674904,optimal,0.33,"[0.08374999999999999, 0.08374999999999999, 0.08374999999999999, 0.14975, 0.14975, 0.14975, 0.14975, 0.14975]"
34,1+AB,1,0.9999999999999999,0.36560908085,0.0931128347759,0.4283469221811782,0.42834692217897063,optimal,0.34,"[0.08249999999999999, 0.08249999999999999, 0.08249999999999999, 0.1505, 0.1505, 0.1505, 0.1505, 0.1505]"
35,1+AB,1,0.9999999999999999,0.366316120311,0.0958514475634,0.4284272801586927,0.42842728015294695,optimal,0.35000000000000003,"[0.08124999999999999, 0.08124999999999999, 0.08124999999999999, 0.15125, 0.15125, 0.15125, 0.15125, 0.15125]"
36,1+AB,1,1.0,0.367042231903,0.0985900603509,0.428509041592716,0.4285090415915124,optimal,0.36,"[0.08, 0.08, 0.08, 0.152, 0.152, 0.152, 0.152, 0.152]"
37,1+AB,1,0.9999999999999998,0.367787302663,0.101328673138,0.4285921743038962,0.4285921743022574,optimal,0.37,"[0.07875, 0.07875, 0.07875, 0.15275, 0.15275, 0.15275, 0.15275, 0.15275]"
38,1+AB,1,0.9999999999999999,0.368551217608,0.104067285926,0.4286766473063482,0.4286766473041454,optimal,0.38,"[0.0775, 0.0775, 0.0775, 0.1535, 0.1535, 0.1535, 0.1535, 0.1535]"
39,1+AB,1,1.0,0.369333859807,0.106805898714,0.4287624305060945,0.4287624305007423,optimal,0.39,"[0.07625, 0.07625, 0.07625, 0.15425, 0.15425, 0.15425, 0.15425, 0.15425]"
40,1+AB,1,1.0,0.370135110466,0.109544511501,0.4288494948703861,0.42884949486899515,optimal,0.4,"[0.075, 0.075, 0.075, 0.155, 0.155, 0.155, 0.155, 0.155]"
41,1+AB,1,1.0000000000000002,0.370954849005,0.112283124289,0.42893781077630816,0.4289378106308619,optimal,0.41000000000000003,"[0.07375, 0.07375, 0.07375, 0.15575, 0.15575, 0.15575, 0.15575, 0.15575]"
42,1+AB,1,0.9999999999999999,0.371792953134,0.115021737076,0.42902735285027993,0.42902735264188196,optimal,0.42,"[0.07250000000000001, 0.07250000000000001, 0.07250000000000001, 0.1565, 0.1565, 0.1565, 0.1565, 0.1565]"
43,1+AB,1,1.0,0.372649298939,0.117760349864,0.4291180958408398,0.42911809580287447,optimal,0.43,"[0.07125000000000001, 0.07125000000000001, 0.07125000000000001, 0.15725, 0.15725, 0.15725, 0.15725, 0.15725]"
44,1+AB,1,1.0,0.373523760958,0.120498962651,0.4292098616567623,0.4292098478868822,optimal,0.44,"[0.07, 0.07, 0.07, 0.158, 0.158, 0.158, 0.158, 0.158]"
45,1+AB,1,0.9999999999999998,0.374416212256,0.123237575439,0.42930307356800174,0.4293030735610924,optimal,0.45,"[0.06875, 0.06875, 0.06875, 0.15875, 0.15875, 0.15875, 0.15875, 0.15875]"
46,1+AB,1,0.9999999999999999,0.375326524509,0.125976188226,0.42939726017187446,0.4293972601630321,optimal,0.46,"[0.0675, 0.0675, 0.0675, 0.1595, 0.1595, 0.1595, 0.1595, 0.1595]"
47,1+AB,1,1.0,0.376254568079,0.128714801014,0.42949254704218987,0.42949254703053696,optimal,0.47000000000000003,"[0.06625, 0.06625, 0.06625, 0.16025, 0.16025, 0.16025, 0.16025, 0.16025]"
48,1+AB,1,1.0,0.377200212089,0.131453413801,0.42958891137041366,0.4295889113637074,optimal,0.48,"[0.065, 0.065, 0.065, 0.161, 0.161, 0.161, 0.161, 0.161]"
49,1+AB,1,1.0000000000000002,0.378163324504,0.134192026589,0.42968633080368185,0.4296863307977655,optimal,0.49,"[0.06375, 0.06375, 0.06375, 0.16175, 0.16175, 0.16175, 0.16175, 0.16175]"
50,1+AB,1,0.9999999999999999,0.379143772203,0.136930639376,0.4297847838038783,0.42978478380154145,optimal,0.5,"[0.0625, 0.0625, 0.0625, 0.1625, 0.1625, 0.1625, 0.1625, 0.1625]"
51,1+AB,1,1.0,0.380141421053,0.139669252164,0.42988424928444113,0.42988424928024427,optimal,0.51,"[0.06125, 0.06125, 0.06125, 0.16325, 0.16325, 0.16325, 0.16325, 0.16325]"
52,1+AB,1,1.0,0.381156135986,0.142407864951,0.4299847068739129,0.4299847068670797,optimal,0.52,"[0.06, 0.06, 0.06, 0.164, 0.164, 0.164, 0.164, 0.164]"
53,1+AB,1,0.9999999999999998,0.382187781071,0.145146477739,0.4300861366619447,0.43008613664553025,optimal,0.53,"[0.05875, 0.05875, 0.05875, 0.16475, 0.16475, 0.16475, 0.16475, 0.16475]"
54,1+AB,1,0.9999999999999999,0.383236219583,0.147885090526,0.43018851964312765,0.4301885196421729,optimal,0.54,"[0.057499999999999996, 0.057499999999999996, 0.057499999999999996, 0.1655, 0.1655, 0.1655, 0.1655, 0.1655]"
55,1+AB,1,1.0,0.384301314075,0.150623703314,0.43029183616432193,0.43029183611033417,optimal,0.55,"[0.056249999999999994, 0.056249999999999994, 0.056249999999999994, 0.16625, 0.16625, 0.16625, 0.16625, 0.16625]"
56,1+AB,1,1.0,0.385382926451,0.153362316101,0.43039606951504916,0.4303960695121944,optimal,0.56,"[0.05499999999999999, 0.05499999999999999, 0.05499999999999999, 0.167, 0.167, 0.167, 0.167, 0.167]"
57,1+AB,1,1.0,0.386480918028,0.156100928889,0.4305012004363272,0.4305012004270419,optimal,0.5700000000000001,"[0.05374999999999999, 0.05374999999999999, 0.05374999999999999, 0.16775, 0.16775, 0.16775, 0.16775, 0.16775]"
58,1+AB,1,1.0,0.387595149608,0.158839541676,0.43060721220441867,0.43060721219504705,optimal,0.58,"[0.052500000000000005, 0.052500000000000005, 0.052500000000000005, 0.16849999999999998, 0.16849999999999998, 0.16849999999999998, 0.16849999999999998, 0.16849999999999998]"
59,1+AB,1,1.0,0.388725481542,0.161578154464,0.43071408772507774,0.43071408769912894,optimal,0.59,"[0.051250000000000004, 0.051250000000000004, 0.051250000000000004, 0.16925, 0.16925, 0.16925, 0.16925, 0.16925]"
60,1+AB,1,0.9999999999999998,0.389871773792,0.164316767252,0.43082181106955064,0.43082181105953726,optimal,0.6,"[0.05, 0.05, 0.05, 0.16999999999999998, 0.16999999999999998, 0.16999999999999998, 0.16999999999999998, 0.16999999999999998]"
61,1+AB,1,1.0,0.391033886,0.167055380039,0.4309303643492112,0.43093036419087144,optimal,0.61,"[0.04875, 0.04875, 0.04875, 0.17075, 0.17075, 0.17075, 0.17075, 0.17075]"
62,1+AB,1,1.0,0.392211677542,0.169793992827,0.43103973628622444,0.431039736268664,optimal,0.62,"[0.0475, 0.0475, 0.0475, 0.17149999999999999, 0.17149999999999999, 0.17149999999999999, 0.17149999999999999, 0.17149999999999999]"
63,1+AB,1,1.0,0.393405007594,0.172532605614,0.43114989643324914,0.43114989525233993,optimal,0.63,"[0.04625, 0.04625, 0.04625, 0.17225000000000001, 0.17225000000000001, 0.17225000000000001, 0.17225000000000001, 0.17225000000000001]"
64,1+AB,1,1.0,0.394613735189,0.175271218402,0.4312608648703203,0.431260864851595,optimal,0.64,"[0.045, 0.045, 0.045, 0.173, 0.173, 0.173, 0.173, 0.173]"
65,1+AB,1,1.0000000000000002,0.395837719274,0.178009831189,0.4313725937225573,0.4313725937110131,optimal,0.65,"[0.04375, 0.04375, 0.04375, 0.17375000000000002, 0.17375000000000002, 0.17375000000000002, 0.17375000000000002, 0.17375000000000002]"
66,1+AB,1,1.0,0.397076818764,0.180748443977,0.4314850799728758,0.43148507997378954,optimal,0.66,"[0.042499999999999996, 0.042499999999999996, 0.042499999999999996, 0.1745, 0.1745, 0.1745, 0.1745, 0.1745]"
67,1+AB,1,1.0,0.398330892601,0.183487056764,0.4315983099764044,0.4315983099758953,optimal,0.67,"[0.041249999999999995, 0.041249999999999995, 0.041249999999999995, 0.17525000000000002, 0.17525000000000002, 0.17525000000000002, 0.17525000000000002, 0.17525000000000002]"
68,1+AB,1,0.9999999999999998,0.3995997998,0.186225669552,0.4317122700683287,0.43171227005152446,optimal,0.68,"[0.039999999999999994, 0.039999999999999994, 0.039999999999999994, 0.176, 0.176, 0.176, 0.176, 0.176]"
69,1+AB,1,1.0,0.400883399507,0.188964282339,0.43182689384460293,0.4318268879861968,optimal,0.6900000000000001,"[0.03874999999999999, 0.03874999999999999, 0.03874999999999999, 0.17675000000000002, 0.17675000000000002, 0.17675000000000002, 0.17675000000000002, 0.17675000000000002]"
70,1+AB,1,1.0,0.402181551044,0.191702895127,0.4319423293731607,0.4319423293192528,optimal,0.7000000000000001,"[0.03749999999999999, 0.03749999999999999, 0.03749999999999999, 0.1775, 0.1775, 0.1775, 0.1775, 0.1775]"
71,1+AB,1,1.0,0.40349411396,0.194441507914,0.43205840413858354,0.4320584041352598,optimal,0.71,"[0.036250000000000004, 0.036250000000000004, 0.036250000000000004, 0.17825, 0.17825, 0.17825, 0.17825, 0.17825]"
72,1+AB,1,1.0,0.404820948075,0.197180120702,0.4321750981183847,0.4321750916464812,optimal,0.72,"[0.035, 0.035, 0.035, 0.179, 0.179, 0.179, 0.179, 0.179]"
73,1+AB,1,0.9999999999999999,0.406161913527,0.199918733489,0.4322925807689183,0.43229258076553057,optimal,0.73,"[0.03375, 0.03375, 0.03375, 0.17975, 0.17975, 0.17975, 0.17975, 0.17975]"
74,1+AB,1,1.0,0.407516870816,0.202657346277,0.432410659579187,0.4324106595571121,optimal,0.74,"[0.0325, 0.0325, 0.0325, 0.1805, 0.1805, 0.1805, 0.1805, 0.1805]"
75,1+AB,1,1.0,0.408885680845,0.205395959064,0.43252937969860566,0.43252937916368545,optimal,0.75,"[0.03125, 0.03125, 0.03125, 0.18125, 0.18125, 0.18125, 0.18125, 0.18125]"
76,1+AB,1,1.0,0.410268204959,0.208134571852,0.4326487304203189,0.43264872893759065,optimal,0.76,"[0.03, 0.03, 0.03, 0.182, 0.182, 0.182, 0.182, 0.182]"
77,1+AB,1,0.9999999999999999,0.411664304986,0.210873184639,0.43276872346811973,0.4327687233120194,optimal,0.77,"[0.028749999999999998, 0.028749999999999998, 0.028749999999999998, 0.18275, 0.18275, 0.18275, 0.18275, 0.18275]"
78,1+AB,1,1.0,0.413073843277,0.213611797427,0.432889319358482,0.4328893193018802,optimal,0.78,"[0.027499999999999997, 0.027499999999999997, 0.027499999999999997, 0.1835, 0.1835, 0.1835, 0.1835, 0.1835]"
79,1+AB,1,1.0,0.414496682737,0.216350410215,0.4330105171491155,0.43301051709309635,optimal,0.79,"[0.026249999999999996, 0.026249999999999996, 0.026249999999999996, 0.18425, 0.18425, 0.18425, 0.18425, 0.18425]"
80,1+AB,1,1.0,0.415932686862,0.219089023002,0.4331323079522471,0.4331323079337426,optimal,0.8,"[0.024999999999999994, 0.024999999999999994, 0.024999999999999994, 0.185, 0.185, 0.185, 0.185, 0.185]"
81,1+AB,1,0.9999999999999999,0.417381719772,0.22182763579,0.4332546812605647,0.4332546812420914,optimal,0.81,"[0.023749999999999993, 0.023749999999999993, 0.023749999999999993, 0.18575, 0.18575, 0.18575, 0.18575, 0.18575]"
82,1+AB,1,1.0,0.418843646245,0.224566248577,0.43337762775348737,0.43337762772781113,optimal,0.8200000000000001,"[0.022499999999999992, 0.022499999999999992, 0.022499999999999992, 0.1865, 0.1865, 0.1865, 0.1865, 0.1865]"
83,1+AB,1,1.0,0.420318331744,0.227304861365,0.4335011382818024,0.4335011382685194,optimal,0.8300000000000001,"[0.02124999999999999, 0.02124999999999999, 0.02124999999999999, 0.18725, 0.18725, 0.18725, 0.18725, 0.18725]"
84,1+AB,1,1.0,0.421805642447,0.230043474152,0.4336252034710296,0.4336252034674759,optimal,0.84,"[0.020000000000000004, 0.020000000000000004, 0.020000000000000004, 0.188, 0.188, 0.188, 0.188, 0.188]"
85,1+AB,1,0.9999999999999999,0.423305445276,0.23278208694,0.43374981388705003,0.43374981383798517,optimal,0.85,"[0.018750000000000003, 0.018750000000000003, 0.018750000000000003, 0.18875, 0.18875, 0.18875, 0.18875, 0.18875]"
86,1+AB,1,1.0,0.424817607921,0.235520699727,0.43387496204080317,0.4338749620386616,optimal,0.86,"[0.0175, 0.0175, 0.0175, 0.1895, 0.1895, 0.1895, 0.1895, 0.1895]"
87,1+AB,1,1.0,0.426341998869,0.238259312515,0.4340006381221024,0.4340006381190028,optimal,0.87,"[0.01625, 0.01625, 0.01625, 0.19025, 0.19025, 0.19025, 0.19025, 0.19025]"
88,1+AB,1,1.0,0.427878487424,0.240997925302,0.4341268340272252,0.43412683401217794,optimal,0.88,"[0.015, 0.015, 0.015, 0.191, 0.191, 0.191, 0.191, 0.191]"
89,1+AB,1,0.9999999999999999,0.429426943728,0.24373653809,0.4342535418821774,0.434253541876061,optimal,0.89,"[0.013749999999999998, 0.013749999999999998, 0.013749999999999998, 0.19175, 0.19175, 0.19175, 0.19175, 0.19175]"
90,1+AB,1,1.0,0.43098723879,0.246475150877,0.4343807533008186,0.4343807532923681,optimal,0.9,"[0.012499999999999997, 0.012499999999999997, 0.012499999999999997, 0.1925, 0.1925, 0.1925, 0.1925, 0.1925]"
91,1+AB,1,1.0,0.432559244497,0.249213763665,0.4345084588173668,0.4345084586286716,optimal,0.91,"[0.011249999999999996, 0.011249999999999996, 0.011249999999999996, 0.19325, 0.19325, 0.19325, 0.19325, 0.19325]"
92,1+AB,1,1.0,0.434142833639,0.251952376452,0.43463665572858873,0.43463665570281523,optimal,0.92,"[0.009999999999999995, 0.009999999999999995, 0.009999999999999995, 0.194, 0.194, 0.194, 0.194, 0.194]"
93,1+AB,1,0.9999999999999999,0.435737879923,0.25469098924,0.43476532981063964,0.434765329607764,optimal,0.93,"[0.008749999999999994, 0.008749999999999994, 0.008749999999999994, 0.19475, 0.19475, 0.19475, 0.19475, 0.19475]"
94,1+AB,1,1.0,0.437344257994,0.257429602027,0.43489448019403504,0.43489448010724857,optimal,0.9400000000000001,"[0.007499999999999993, 0.007499999999999993, 0.007499999999999993, 0.1955, 0.1955, 0.1955, 0.1955, 0.1955]"
95,1+AB,1,1.0,0.438961843444,0.260168214815,0.43502409600020714,0.4350240959999571,optimal,0.9500000000000001,"[0.006249999999999992, 0.006249999999999992, 0.006249999999999992, 0.19625, 0.19625, 0.19625, 0.19625, 0.19625]"
96,1+AB,1,1.0000000000000002,0.440590512835,0.262906827602,0.43515409163837954,0.4351540841528299,optimal,0.96,"[0.0050000000000000044, 0.0050000000000000044, 0.0050000000000000044, 0.197, 0.197, 0.197, 0.197, 0.197]"
97,1+AB,1,1.0,0.442230143703,0.26564544039,0.4352846697366672,0.4352846670538181,optimal,0.97,"[0.0037500000000000033, 0.0037500000000000033, 0.0037500000000000033, 0.19775, 0.19775, 0.19775, 0.19775, 0.19775]"
98,1+AB,1,1.0,0.44388061458,0.268384053178,0.4354156637748653,0.4354156634843446,optimal,0.98,"[0.0025000000000000022, 0.0025000000000000022, 0.0025000000000000022, 0.1985, 0.1985, 0.1985, 0.1985, 0.1985]"
99,1+AB,1,0.9999999999999998,0.445541804997,0.271122665965,0.43554707592861064,0.4355470759283413,optimal,0.99,"[0.0012500000000000011, 0.0012500000000000011, 0.0012500000000000011, 0.19924999999999998, 0.19924999999999998, 0.19924999999999998, 0.19924999999999998, 0.19924999999999998]"
100,1+AB,1,1.0,0.4472135955,0.273861278753,0.435678902417427,0.43567889723536735,optimal,1.0,"[0.0, 0.0, 0.0, 0.2, 0.2, 0.2, 0.2, 0.2]"
