Index, Level, Gleichung, 1-norm, 2-norm, varianz, primal, dual, status, eps, b
Gleichung: 1 - CHSH, 2 - 33,33, 3-44,1111
0,1+AB,2,1.0,0.353553390593,0.0,0.42677669453896233,0.4267766944549204,optimal,0.0,"[0.125, 0.125, 0.125, 0.125, 0.125, 0.125, 0.125, 0.125]"
1,1+AB,2,1.0,0.353563997036,0.00273861278753,0.4267854456332088,0.42678544470484053,optimal,0.01,"[0.12375, 0.12575, 0.12375, 0.12575, 0.12375, 0.12575, 0.12575, 0.12575]"
2,1+AB,2,1.0000000000000002,0.353595814455,0.00547722557505,0.426811898551716,0.42681189848962686,optimal,0.02,"[0.1225, 0.1265, 0.1225, 0.1265, 0.1225, 0.1265, 0.1265, 0.1265]"
3,1+AB,2,0.9999999999999999,0.353648837125,0.00821583836258,0.4268562999006775,0.42685629988745966,optimal,0.03,"[0.12125, 0.12725, 0.12125, 0.12725, 0.12125, 0.12725, 0.12725, 0.12725]"
4,1+AB,2,1.0,0.353723055511,0.0109544511501,0.42691884896187376,0.4269188396484875,optimal,0.04,"[0.12, 0.128, 0.12, 0.128, 0.12, 0.128, 0.128, 0.128]"
5,1+AB,2,1.0,0.353818456274,0.0136930639376,0.42700014866065866,0.4270001486605207,optimal,0.05,"[0.11875, 0.12875, 0.11875, 0.12875, 0.11875, 0.12875, 0.12875, 0.12875]"
6,1+AB,2,0.9999999999999998,0.353935022285,0.0164316767252,0.4271002458205128,0.42710024580342326,optimal,0.06,"[0.1175, 0.1295, 0.1175, 0.1295, 0.1175, 0.1295, 0.1295, 0.1295]"
7,1+AB,2,0.9999999999999999,0.354072732641,0.0191702895127,0.42721960365644357,0.4272196036478165,optimal,0.07,"[0.11624999999999999, 0.13025, 0.11624999999999999, 0.13025, 0.11624999999999999, 0.13025, 0.13025, 0.13025]"
8,1+AB,2,1.0,0.354231562682,0.0219089023002,0.42735861573855705,0.42735861532067376,optimal,0.08,"[0.115, 0.131, 0.115, 0.131, 0.115, 0.131, 0.131, 0.131]"
9,1+AB,2,1.0,0.354411484013,0.0246475150877,0.4275177265665702,0.42751772656612563,optimal,0.09,"[0.11375, 0.13175, 0.11375, 0.13175, 0.11375, 0.13175, 0.13175, 0.13175]"
10,1+AB,2,1.0000000000000002,0.35461246453,0.0273861278753,0.4276973978122323,0.42769739780661514,optimal,0.1,"[0.1125, 0.1325, 0.1125, 0.1325, 0.1125, 0.1325, 0.1325, 0.1325]"
11,1+AB,2,0.9999999999999999,0.35483446845,0.0301247406628,0.4278981514255555,0.4278981514223559,optimal,0.11,"[0.11125, 0.13325, 0.11125, 0.13325, 0.11125, 0.13325, 0.13325, 0.13325]"
12,1+AB,2,1.0,0.355077456339,0.0328633534503,0.4281205561019767,0.42812055609656174,optimal,0.12,"[0.11, 0.134, 0.11, 0.134, 0.11, 0.134, 0.134, 0.134]"
13,1+AB,2,1.0,0.35534138515,0.0356019662378,0.4283652384300495,0.42836523842431257,optimal,0.13,"[0.10875, 0.13475, 0.10875, 0.13475, 0.10875, 0.13475, 0.13475, 0.13475]"
14,1+AB,2,1.0,0.355626208258,0.0383405790254,0.4286328907945321,0.4286328907917284,optimal,0.14,"[0.1075, 0.1355, 0.1075, 0.1355, 0.1075, 0.1355, 0.1355, 0.1355]"
15,1+AB,2,0.9999999999999999,0.355931875504,0.0410791918129,0.42892428082786466,0.42892428079910594,optimal,0.15,"[0.10625, 0.13625, 0.10625, 0.13625, 0.10625, 0.13625, 0.13625, 0.13625]"
16,1+AB,2,1.0,0.356258333236,0.0438178046004,0.42924026429286605,0.4292402642612217,optimal,0.16,"[0.105, 0.137, 0.105, 0.137, 0.105, 0.137, 0.137, 0.137]"
17,1+AB,2,1.0,0.356605524354,0.0465564173879,0.4295817932853321,0.42958179273936553,optimal,0.17,"[0.10375, 0.13775, 0.10375, 0.13775, 0.10375, 0.13775, 0.13775, 0.13775]"
18,1+AB,2,1.0000000000000002,0.356973388364,0.0492950301755,0.4299499555545394,0.42994995528297264,optimal,0.18,"[0.10250000000000001, 0.1385, 0.10250000000000001, 0.1385, 0.10250000000000001, 0.1385, 0.1385, 0.1385]"
19,1+AB,2,0.9999999999999999,0.357361861423,0.052033642963,0.43034596330939356,0.4303459633036005,optimal,0.19,"[0.10125, 0.13925, 0.10125, 0.13925, 0.10125, 0.13925, 0.13925, 0.13925]"
20,1+AB,2,1.0,0.3577708764,0.0547722557505,0.4307711371494915,0.4307711307074936,optimal,0.2,"[0.1, 0.14, 0.1, 0.14, 0.1, 0.14, 0.14, 0.14]"
21,1+AB,2,0.9999999999999998,0.358200362926,0.057510868538,0.4312272698265378,0.4312272698169437,optimal,0.21,"[0.09875, 0.14075, 0.09875, 0.14075, 0.09875, 0.14075, 0.14075, 0.14075]"
22,1+AB,2,1.0,0.358650247456,0.0602494813256,0.43171602191147584,0.4317160219103027,optimal,0.22,"[0.0975, 0.14150000000000001, 0.0975, 0.14150000000000001, 0.0975, 0.14150000000000001, 0.14150000000000001, 0.14150000000000001]"
23,1+AB,2,1.0,0.35912045333,0.0629880941131,0.43223963766579737,0.43223963766555307,optimal,0.23,"[0.09625, 0.14225, 0.09625, 0.14225, 0.09625, 0.14225, 0.14225, 0.14225]"
24,1+AB,2,1.0,0.359610900836,0.0657267069006,0.43280072028347194,0.4328007202822852,optimal,0.24,"[0.095, 0.143, 0.095, 0.143, 0.095, 0.143, 0.143, 0.143]"
25,1+AB,2,1.0,0.360121507272,0.0684653196881,0.43340243934230555,0.4334024393065275,optimal,0.25,"[0.09375, 0.14375, 0.09375, 0.14375, 0.09375, 0.14375, 0.14375, 0.14375]"
26,1+AB,2,0.9999999999999999,0.360652187017,0.0712039324757,0.4340487504050093,0.4340487496965266,optimal,0.26,"[0.0925, 0.1445, 0.0925, 0.1445, 0.0925, 0.1445, 0.1445, 0.1445]"
27,1+AB,2,0.9999999999999999,0.361202851595,0.0739425452632,0.4357499154073802,0.43574990419675724,optimal,0.27,"[0.09125, 0.14525, 0.09125, 0.14525, 0.09125, 0.14525, 0.14525, 0.14525]"
28,1+AB,2,1.0,0.361773409747,0.0766811580507,0.4379999987572816,0.4379999985842272,optimal,0.28,"[0.09, 0.146, 0.09, 0.146, 0.09, 0.146, 0.146, 0.146]"
29,1+AB,2,0.9999999999999998,0.362363767504,0.0794197708382,0.4402499999324227,0.4402499999224932,optimal,0.29,"[0.08875, 0.14675, 0.08875, 0.14675, 0.08875, 0.14675, 0.14675, 0.14675]"
30,1+AB,2,0.9999999999999999,0.362973828258,0.0821583836258,0.44249999935978,0.44249999927377687,optimal,0.3,"[0.0875, 0.1475, 0.0875, 0.1475, 0.0875, 0.1475, 0.1475, 0.1475]"
31,1+AB,2,1.0,0.363603492833,0.0848969964133,0.4447499990530387,0.44474999892441897,optimal,0.31,"[0.08625, 0.14825, 0.08625, 0.14825, 0.08625, 0.14825, 0.14825, 0.14825]"
32,1+AB,2,1.0,0.364252659565,0.0876356092008,0.44699999998209744,0.4469999999800506,optimal,0.32,"[0.08499999999999999, 0.149, 0.08499999999999999, 0.149, 0.08499999999999999, 0.149, 0.149, 0.149]"
33,1+AB,2,1.0,0.364921224376,0.0903742219884,0.44924999999114423,0.44924999999073706,optimal,0.33,"[0.08374999999999999, 0.14975, 0.08374999999999999, 0.14975, 0.08374999999999999, 0.14975, 0.14975, 0.14975]"
34,1+AB,2,0.9999999999999999,0.36560908085,0.0931128347759,0.451499999944906,0.4514999999384182,optimal,0.34,"[0.08249999999999999, 0.1505, 0.08249999999999999, 0.1505, 0.08249999999999999, 0.1505, 0.1505, 0.1505]"
35,1+AB,2,0.9999999999999999,0.366316120311,0.0958514475634,0.45374999989982184,0.453749999887169,optimal,0.35000000000000003,"[0.08124999999999999, 0.15125, 0.08124999999999999, 0.15125, 0.08124999999999999, 0.15125, 0.15125, 0.15125]"
36,1+AB,2,1.0,0.367042231903,0.0985900603509,0.4559999999085846,0.45599999989724355,optimal,0.36,"[0.08, 0.152, 0.08, 0.152, 0.08, 0.152, 0.152, 0.152]"
37,1+AB,2,0.9999999999999998,0.367787302663,0.101328673138,0.45824999997948845,0.4582499999763087,optimal,0.37,"[0.07875, 0.15275, 0.07875, 0.15275, 0.07875, 0.15275, 0.15275, 0.15275]"
38,1+AB,2,0.9999999999999999,0.368551217608,0.104067285926,0.46049999888795196,0.46049999871733255,optimal,0.38,"[0.0775, 0.1535, 0.0775, 0.1535, 0.0775, 0.1535, 0.1535, 0.1535]"
39,1+AB,2,1.0,0.369333859807,0.106805898714,0.4627499996315941,0.46274999957625323,optimal,0.39,"[0.07625, 0.15425, 0.07625, 0.15425, 0.07625, 0.15425, 0.15425, 0.15425]"
40,1+AB,2,1.0,0.370135110466,0.109544511501,0.4649999990863242,0.46499999895073907,optimal,0.4,"[0.075, 0.155, 0.075, 0.155, 0.075, 0.155, 0.155, 0.155]"
41,1+AB,2,1.0,0.370954849005,0.112283124289,0.4672499999575505,0.46724999995282296,optimal,0.41000000000000003,"[0.07375, 0.15575, 0.07375, 0.15575, 0.07375, 0.15575, 0.15575, 0.15575]"
42,1+AB,2,0.9999999999999999,0.371792953134,0.115021737076,0.469499999903204,0.46949999988873264,optimal,0.42,"[0.07250000000000001, 0.1565, 0.07250000000000001, 0.1565, 0.07250000000000001, 0.1565, 0.1565, 0.1565]"
43,1+AB,2,1.0,0.372649298939,0.117760349864,0.47174999993240196,0.4717499999232172,optimal,0.43,"[0.07125000000000001, 0.15725, 0.07125000000000001, 0.15725, 0.07125000000000001, 0.15725, 0.15725, 0.15725]"
44,1+AB,2,1.0,0.373523760958,0.120498962651,0.47399998221522094,0.4739999795091767,optimal,0.44,"[0.07, 0.158, 0.07, 0.158, 0.07, 0.158, 0.158, 0.158]"
45,1+AB,2,1.0,0.374416212256,0.123237575439,0.4762499946254147,0.47624999383192707,optimal,0.45,"[0.06875, 0.15875, 0.06875, 0.15875, 0.06875, 0.15875, 0.15875, 0.15875]"
46,1+AB,2,0.9999999999999999,0.375326524509,0.125976188226,0.4784999980297747,0.4784999977466477,optimal,0.46,"[0.0675, 0.1595, 0.0675, 0.1595, 0.0675, 0.1595, 0.1595, 0.1595]"
47,1+AB,2,1.0,0.376254568079,0.128714801014,0.4807499996019823,0.48074999954779085,optimal,0.47000000000000003,"[0.06625, 0.16025, 0.06625, 0.16025, 0.06625, 0.16025, 0.16025, 0.16025]"
48,1+AB,2,1.0000000000000002,0.377200212089,0.131453413801,0.4829999983248368,0.48299999809189165,optimal,0.48,"[0.065, 0.161, 0.065, 0.161, 0.065, 0.161, 0.161, 0.161]"
49,1+AB,2,1.0000000000000002,0.378163324504,0.134192026589,0.4852499996108784,0.4852499995582472,optimal,0.49,"[0.06375, 0.16175, 0.06375, 0.16175, 0.06375, 0.16175, 0.16175, 0.16175]"
50,1+AB,2,0.9999999999999999,0.379143772203,0.136930639376,0.48749999974996516,0.4874999997163497,optimal,0.5,"[0.0625, 0.1625, 0.0625, 0.1625, 0.0625, 0.1625, 0.1625, 0.1625]"
51,1+AB,2,1.0,0.380141421053,0.139669252164,0.4897499928160157,0.48974999182289713,optimal,0.51,"[0.06125, 0.16325, 0.06125, 0.16325, 0.06125, 0.16325, 0.16325, 0.16325]"
52,1+AB,2,1.0,0.381156135986,0.142407864951,0.49199999936217176,0.4919999992744817,optimal,0.52,"[0.06, 0.164, 0.06, 0.164, 0.06, 0.164, 0.164, 0.164]"
53,1+AB,2,1.0,0.382187781071,0.145146477739,0.4942499997995818,0.49424999977249473,optimal,0.53,"[0.05875, 0.16475, 0.05875, 0.16475, 0.05875, 0.16475, 0.16475, 0.16475]"
54,1+AB,2,0.9999999999999999,0.383236219583,0.147885090526,0.4964999998944154,0.49649999988022697,optimal,0.54,"[0.057499999999999996, 0.1655, 0.057499999999999996, 0.1655, 0.057499999999999996, 0.1655, 0.1655, 0.1655]"
55,1+AB,2,1.0,0.384301314075,0.150623703314,0.4987499999322324,0.49874999992320357,optimal,0.55,"[0.056249999999999994, 0.16625, 0.056249999999999994, 0.16625, 0.056249999999999994, 0.16625, 0.16625, 0.16625]"
56,1+AB,2,1.0,0.385382926451,0.153362316101,0.5009999999515268,0.5009999999450832,optimal,0.56,"[0.05499999999999999, 0.167, 0.05499999999999999, 0.167, 0.05499999999999999, 0.167, 0.167, 0.167]"
57,1+AB,2,1.0000000000000002,0.386480918028,0.156100928889,0.5032499999632422,0.5032499999583503,optimal,0.5700000000000001,"[0.05374999999999999, 0.16775, 0.05374999999999999, 0.16775, 0.05374999999999999, 0.16775, 0.16775, 0.16775]"
58,1+AB,2,0.9999999999999999,0.387595149608,0.158839541676,0.5054999999709616,0.5054999999671103,optimal,0.58,"[0.052500000000000005, 0.16849999999999998, 0.052500000000000005, 0.16849999999999998, 0.052500000000000005, 0.16849999999999998, 0.16849999999999998, 0.16849999999999998]"
59,1+AB,2,1.0,0.388725481542,0.161578154464,0.5077499999762224,0.5077499999731236,optimal,0.59,"[0.051250000000000004, 0.16925, 0.051250000000000004, 0.16925, 0.051250000000000004, 0.16925, 0.16925, 0.16925]"
60,1+AB,2,0.9999999999999998,0.389871773792,0.164316767252,0.5099999999792734,0.5099999999765048,optimal,0.6,"[0.05, 0.16999999999999998, 0.05, 0.16999999999999998, 0.05, 0.16999999999999998, 0.16999999999999998, 0.16999999999999998]"
61,1+AB,2,1.0,0.391033886,0.167055380039,0.5122499999818297,0.5122499999794496,optimal,0.61,"[0.04875, 0.17075, 0.04875, 0.17075, 0.04875, 0.17075, 0.17075, 0.17075]"
62,1+AB,2,0.9999999999999999,0.392211677542,0.169793992827,0.5144999999830485,0.5144999999807897,optimal,0.62,"[0.0475, 0.17149999999999999, 0.0475, 0.17149999999999999, 0.0475, 0.17149999999999999, 0.17149999999999999, 0.17149999999999999]"
63,1+AB,2,1.0,0.393405007594,0.172532605614,0.5167499999841154,0.5167499999819971,optimal,0.63,"[0.04625, 0.17225000000000001, 0.04625, 0.17225000000000001, 0.04625, 0.17225000000000001, 0.17225000000000001, 0.17225000000000001]"
64,1+AB,2,1.0,0.394613735189,0.175271218402,0.5189999999843526,0.5189999999822299,optimal,0.64,"[0.045, 0.173, 0.045, 0.173, 0.045, 0.173, 0.173, 0.173]"
65,1+AB,2,1.0000000000000002,0.395837719274,0.178009831189,0.5212499999836689,0.5212499999815239,optimal,0.65,"[0.04375, 0.17375000000000002, 0.04375, 0.17375000000000002, 0.04375, 0.17375000000000002, 0.17375000000000002, 0.17375000000000002]"
66,1+AB,2,0.9999999999999999,0.397076818764,0.180748443977,0.5234999999816599,0.5234999999792683,optimal,0.66,"[0.042499999999999996, 0.1745, 0.042499999999999996, 0.1745, 0.042499999999999996, 0.1745, 0.1745, 0.1745]"
67,1+AB,2,1.0,0.398330892601,0.183487056764,0.5257499999778396,0.5257499999749069,optimal,0.67,"[0.041249999999999995, 0.17525000000000002, 0.041249999999999995, 0.17525000000000002, 0.041249999999999995, 0.17525000000000002, 0.17525000000000002, 0.17525000000000002]"
68,1+AB,2,0.9999999999999998,0.3995997998,0.186225669552,0.5279999999708396,0.5279999999669691,optimal,0.68,"[0.039999999999999994, 0.176, 0.039999999999999994, 0.176, 0.039999999999999994, 0.176, 0.176, 0.176]"
69,1+AB,2,1.0,0.400883399507,0.188964282339,0.5302499990497749,0.5302499990578889,optimal,0.6900000000000001,"[0.03874999999999999, 0.17675000000000002, 0.03874999999999999, 0.17675000000000002, 0.03874999999999999, 0.17675000000000002, 0.17675000000000002, 0.17675000000000002]"
70,1+AB,2,0.9999999999999999,0.402181551044,0.191702895127,0.5324999941202232,0.5324999933486038,optimal,0.7000000000000001,"[0.03749999999999999, 0.1775, 0.03749999999999999, 0.1775, 0.03749999999999999, 0.1775, 0.1775, 0.1775]"
71,1+AB,2,1.0,0.40349411396,0.194441507914,0.5347499967145696,0.5347499962689838,optimal,0.71,"[0.036250000000000004, 0.17825, 0.036250000000000004, 0.17825, 0.036250000000000004, 0.17825, 0.17825, 0.17825]"
72,1+AB,2,1.0,0.404820948075,0.197180120702,0.5369999982102227,0.5369999979792003,optimal,0.72,"[0.035, 0.179, 0.035, 0.179, 0.035, 0.179, 0.179, 0.179]"
73,1+AB,2,0.9999999999999999,0.406161913527,0.199918733489,0.5392499986639337,0.5392499984924971,optimal,0.73,"[0.03375, 0.17975, 0.03375, 0.17975, 0.03375, 0.17975, 0.17975, 0.17975]"
74,1+AB,2,1.0,0.407516870816,0.202657346277,0.5414999989563349,0.5414999988229765,optimal,0.74,"[0.0325, 0.1805, 0.0325, 0.1805, 0.0325, 0.1805, 0.1805, 0.1805]"
75,1+AB,2,1.0,0.408885680845,0.205395959064,0.5437499991535845,0.5437499990457123,optimal,0.75,"[0.03125, 0.18125, 0.03125, 0.18125, 0.03125, 0.18125, 0.18125, 0.18125]"
76,1+AB,2,0.9999999999999998,0.410268204959,0.208134571852,0.545999999286222,0.5459999991952893,optimal,0.76,"[0.03, 0.182, 0.03, 0.182, 0.03, 0.182, 0.182, 0.182]"
77,1+AB,2,0.9999999999999999,0.411664304986,0.210873184639,0.5482499993735531,0.548249999293711,optimal,0.77,"[0.028749999999999998, 0.18275, 0.028749999999999998, 0.18275, 0.028749999999999998, 0.18275, 0.18275, 0.18275]"
78,1+AB,2,1.0,0.413073843277,0.213611797427,0.5504999994279183,0.5504999993547097,optimal,0.78,"[0.027499999999999997, 0.1835, 0.027499999999999997, 0.1835, 0.027499999999999997, 0.1835, 0.1835, 0.1835]"
79,1+AB,2,1.0,0.414496682737,0.216350410215,0.5527499994622064,0.552749999392991,optimal,0.79,"[0.026249999999999996, 0.18425, 0.026249999999999996, 0.18425, 0.026249999999999996, 0.18425, 0.18425, 0.18425]"
80,1+AB,2,1.0,0.415932686862,0.219089023002,0.554999999486,0.5549999994192981,optimal,0.8,"[0.024999999999999994, 0.185, 0.024999999999999994, 0.185, 0.024999999999999994, 0.185, 0.185, 0.185]"
81,1+AB,2,0.9999999999999999,0.417381719772,0.22182763579,0.5572499996066226,0.5572499995554626,optimal,0.81,"[0.023749999999999993, 0.18575, 0.023749999999999993, 0.18575, 0.023749999999999993, 0.18575, 0.18575, 0.18575]"
82,1+AB,2,1.0,0.418843646245,0.224566248577,0.5594999997326144,0.5594999996978035,optimal,0.8200000000000001,"[0.022499999999999992, 0.1865, 0.022499999999999992, 0.1865, 0.022499999999999992, 0.1865, 0.1865, 0.1865]"
83,1+AB,2,1.0,0.420318331744,0.227304861365,0.5617499998092355,0.5617499997842028,optimal,0.8300000000000001,"[0.02124999999999999, 0.18725, 0.02124999999999999, 0.18725, 0.02124999999999999, 0.18725, 0.18725, 0.18725]"
84,1+AB,2,1.0,0.421805642447,0.230043474152,0.5639999998533095,0.5639999998341403,optimal,0.84,"[0.020000000000000004, 0.188, 0.020000000000000004, 0.188, 0.020000000000000004, 0.188, 0.188, 0.188]"
85,1+AB,2,1.0,0.423305445276,0.23278208694,0.5662499998781837,0.5662499998621913,optimal,0.85,"[0.018750000000000003, 0.18875, 0.018750000000000003, 0.18875, 0.018750000000000003, 0.18875, 0.18875, 0.18875]"
86,1+AB,2,1.0,0.424817607921,0.235520699727,0.5684999998923768,0.5684999998782473,optimal,0.86,"[0.0175, 0.1895, 0.0175, 0.1895, 0.0175, 0.1895, 0.1895, 0.1895]"
87,1+AB,2,1.0,0.426341998869,0.238259312515,0.5707499998914612,0.5707499998772725,optimal,0.87,"[0.01625, 0.19025, 0.01625, 0.19025, 0.01625, 0.19025, 0.19025, 0.19025]"
88,1+AB,2,1.0000000000000002,0.427878487424,0.240997925302,0.5729999998737185,0.5729999998571498,optimal,0.88,"[0.015, 0.191, 0.015, 0.191, 0.015, 0.191, 0.191, 0.191]"
89,1+AB,2,1.0,0.429426943728,0.24373653809,0.5752499998570113,0.5752499998381528,optimal,0.89,"[0.013749999999999998, 0.19175, 0.013749999999999998, 0.19175, 0.013749999999999998, 0.19175, 0.19175, 0.19175]"
90,1+AB,2,1.0,0.43098723879,0.246475150877,0.5774999998425234,0.5774999998216893,optimal,0.9,"[0.012499999999999997, 0.1925, 0.012499999999999997, 0.1925, 0.012499999999999997, 0.1925, 0.1925, 0.1925]"
91,1+AB,2,1.0,0.432559244497,0.249213763665,0.5797499998306173,0.5797499998082669,optimal,0.91,"[0.011249999999999996, 0.19325, 0.011249999999999996, 0.19325, 0.011249999999999996, 0.19325, 0.19325, 0.19325]"
92,1+AB,2,1.0,0.434142833639,0.251952376452,0.5819999998184888,0.5819999997943482,optimal,0.92,"[0.009999999999999995, 0.194, 0.009999999999999995, 0.194, 0.009999999999999995, 0.194, 0.194, 0.194]"
93,1+AB,2,1.0,0.435737879923,0.25469098924,0.5842499998042466,0.5842499997780841,optimal,0.93,"[0.008749999999999994, 0.19475, 0.008749999999999994, 0.19475, 0.008749999999999994, 0.19475, 0.19475, 0.19475]"
94,1+AB,2,1.0,0.437344257994,0.257429602027,0.5864999997869966,0.5864999997584794,optimal,0.9400000000000001,"[0.007499999999999993, 0.1955, 0.007499999999999993, 0.1955, 0.007499999999999993, 0.1955, 0.1955, 0.1955]"
95,1+AB,2,1.0,0.438961843444,0.260168214815,0.5887499997699716,0.5887499997389772,optimal,0.9500000000000001,"[0.006249999999999992, 0.19625, 0.006249999999999992, 0.19625, 0.006249999999999992, 0.19625, 0.19625, 0.19625]"
96,1+AB,2,1.0000000000000002,0.440590512835,0.262906827602,0.5909999997504142,0.5909999997167482,optimal,0.96,"[0.0050000000000000044, 0.197, 0.0050000000000000044, 0.197, 0.0050000000000000044, 0.197, 0.197, 0.197]"
97,1+AB,2,1.0,0.442230143703,0.26564544039,0.5932499997271793,0.5932499996900706,optimal,0.97,"[0.0037500000000000033, 0.19775, 0.0037500000000000033, 0.19775, 0.0037500000000000033, 0.19775, 0.19775, 0.19775]"
98,1+AB,2,1.0,0.44388061458,0.268384053178,0.595499999654967,0.5954999996077192,optimal,0.98,"[0.0025000000000000022, 0.1985, 0.0025000000000000022, 0.1985, 0.0025000000000000022, 0.1985, 0.1985, 0.1985]"
99,1+AB,2,0.9999999999999998,0.445541804997,0.271122665965,0.5977499995426921,0.5977499994796974,optimal,0.99,"[0.0012500000000000011, 0.19924999999999998, 0.0012500000000000011, 0.19924999999999998, 0.0012500000000000011, 0.19924999999999998, 0.19924999999999998, 0.19924999999999998]"
100,1+AB,2,1.0,0.4472135955,0.273861278753,0.5999999993605819,0.5999999992718771,optimal,1.0,"[0.0, 0.2, 0.0, 0.2, 0.0, 0.2, 0.2, 0.2]"
