0,1+AB,3,1.0,0.3535533905932738,0.0,0.42677652397446436,0.42677650495961805,optimal,0.0,"[0.125, 0.125, 0.125, 0.125, 0.125, 0.125, 0.125, 0.125]"
1,1+AB,3,1.0,0.3538625559950866,0.014788797631172693,0.42687007938925114,0.42687004466451445,optimal,0.05,"[0.13017725897103638, 0.13045335303542907, 0.13012830987558832, 0.12383047533931334, 0.1291606027786329, 0.11875, 0.11875, 0.11875]"
2,1+AB,3,1.0,0.3547884357493958,0.029577595262345366,0.4271474756697303,0.4271474542757701,optimal,0.1,"[0.1353545179420728, 0.1359067060708581, 0.13525661975117662, 0.12266095067862667, 0.13332120555726582, 0.1125, 0.1125, 0.1125]"
3,1+AB,3,1.0,0.3563262224680946,0.044366392893518056,0.4276030316328589,0.4276030116580748,optimal,0.15000000000000002,"[0.14053177691310917, 0.14136005910628718, 0.14038492962676494, 0.12149142601794001, 0.1374818083358987, 0.10625, 0.10625, 0.10625]"
4,1+AB,3,0.9999999999999999,0.3584680412059246,0.05915519052469073,0.4282317775056189,0.4282317775051005,optimal,0.2,"[0.14570903588414555, 0.14681341214171625, 0.14551323950235323, 0.12032190135725335, 0.14164241111453163, 0.1, 0.1, 0.1]"
5,1+AB,3,1.0,0.36120314697465533,0.07394398815586344,0.42902804603553363,0.4290280460350207,optimal,0.25,"[0.15088629485518196, 0.15226676517714532, 0.15064154937794155, 0.1191523766965667, 0.14580301389316452, 0.09375, 0.09375, 0.09375]"
6,1+AB,3,1.0,0.36451818510676265,0.08873278578703613,0.4299865190549359,0.42998651794115317,optimal,0.30000000000000004,"[0.15606355382621834, 0.15772011821257437, 0.15576985925352987, 0.11798285203588002, 0.14996361667179745, 0.0875, 0.0875, 0.0875]"
7,1+AB,3,1.0,0.3683975003083126,0.10352158341820882,0.4311015411023104,0.4311015410981123,optimal,0.35000000000000003,"[0.16124081279725472, 0.16317347124800344, 0.16089816912911817, 0.11681332737519337, 0.15412421945043034, 0.08124999999999999, 0.08124999999999999, 0.08124999999999999]"
8,1+AB,3,0.9999999999999999,0.3728234786920612,0.11831038104938148,0.43236720355470243,0.43236719850793476,optimal,0.4,"[0.1664180717682911, 0.1686268242834325, 0.16602647900470646, 0.11564380271450671, 0.15828482222906326, 0.075, 0.075, 0.075]"
9,1+AB,3,0.9999999999999999,0.37777690687155313,0.13309917868055415,0.43377778774824977,0.4337777875807368,optimal,0.45,"[0.1715953307393275, 0.17408017731886155, 0.17115478888029478, 0.11447427805382004, 0.16244542500769615, 0.06875, 0.06875, 0.06875]"
10,1+AB,3,1.0,0.3832373331730325,0.14788797631172684,0.43532735120654514,0.43532735118793175,optimal,0.5,"[0.1767725897103639, 0.17953353035429062, 0.1762830987558831, 0.11330475339313338, 0.16660602778632905, 0.0625, 0.0625, 0.0625]"
11,1+AB,3,1.0000000000000002,0.38918341791560096,0.16267677394289956,0.4370104005041755,0.43701040048748097,optimal,0.55,"[0.1819498486814003, 0.1849868833897197, 0.1814114086314714, 0.11213522873244672, 0.17076663056496197, 0.056249999999999994, 0.056249999999999994, 0.056249999999999994]"
12,1+AB,3,1.0000000000000002,0.3955932621950381,0.17746557157407222,0.4388218598736177,0.4388218598482454,optimal,0.6000000000000001,"[0.18712710765243667, 0.19044023642514873, 0.18653971850705972, 0.11096570407176005, 0.1749272333435949, 0.04999999999999999, 0.04999999999999999, 0.04999999999999999]"
13,1+AB,3,0.9999999999999999,0.40244470735556537,0.1922543692052449,0.44075735824758555,0.44075735676685535,optimal,0.65,"[0.19230436662347306, 0.1958935894605778, 0.19166802838264801, 0.10979617941107339, 0.17908783612222778, 0.04375, 0.04375, 0.04375]"
14,1+AB,3,0.9999999999999999,0.4097156000613751,0.2070431668364176,0.44281364874821755,0.4428136487462133,optimal,0.7000000000000001,"[0.19748162559450944, 0.20134694249600688, 0.19679633825823634, 0.10862665475038673, 0.18324843890086068, 0.03749999999999999, 0.03749999999999999, 0.03749999999999999]"
15,1+AB,3,1.0,0.4173840203691922,0.22183196446759026,0.44498891020477915,0.4449889089308176,optimal,0.75,"[0.20265888456554582, 0.20680029553143592, 0.20192464813382463, 0.10745713008970006, 0.1874090416794936, 0.03125, 0.03125, 0.03125]"
16,1+AB,3,1.0,0.42542847231491143,0.236620762098763,0.4472836900551889,0.4472836900189331,optimal,0.8,"[0.20783614353658222, 0.21225364856686502, 0.20705295800941295, 0.10628760542901342, 0.19156964445812652, 0.024999999999999994, 0.024999999999999994, 0.024999999999999994]"
17,1+AB,3,1.0000000000000002,0.43382803819439814,0.25140955972993567,0.4497018740962659,0.4497018738502289,optimal,0.8500000000000001,"[0.21301340250761863, 0.21770700160229406, 0.21218126788500125, 0.10511808076832674, 0.1957302472367594, 0.01874999999999999, 0.01874999999999999, 0.01874999999999999]"
18,1+AB,3,0.9999999999999999,0.4425624989329217,0.26619835736110836,0.4522528516454519,0.45225283987079146,optimal,0.9,"[0.218190661478655, 0.2231603546377231, 0.21730957776058957, 0.10394855610764009, 0.1998908500153923, 0.012499999999999997, 0.012499999999999997, 0.012499999999999997]"
19,1+AB,3,1.0000000000000002,0.45161242373373234,0.280987154992281,0.45495634300058063,0.4549563429782326,optimal,0.9500000000000001,"[0.2233679204496914, 0.2286137076731522, 0.2224378876361779, 0.10277903144695343, 0.2040514527940252, 0.006249999999999992, 0.006249999999999992, 0.006249999999999992]"
20,1+AB,3,1.0000000000000002,0.46095923263376726,0.2957759526234537,0.45785165163734565,0.4578516445922106,optimal,1.0,"[0.22854517942072777, 0.23406706070858124, 0.22756619751176618, 0.10160950678626676, 0.20821205557265812, 0.0, 0.0, 0.0]"
