0,1+AB,6,1.0,0.3535533905932738,0.0,0.4267766952180967,0.4267766952115291,optimal,0.0,"[0.125, 0.125, 0.125, 0.125, 0.125, 0.125, 0.125, 0.125]"
1,1+AB,6,1.0,0.35402922052870806,0.018349086848249485,0.42703979778198703,0.42703979778163853,optimal,0.05,"[0.12924576654298933, 0.11916919626222378, 0.13618067434207876, 0.13011010920543395, 0.12904425364727415, 0.11875, 0.11875, 0.11875]"
2,1+AB,6,1.0000000000000002,0.35545288851359536,0.03669817369649899,0.4278110728097417,0.42781107253192274,optimal,0.1,"[0.1334915330859787, 0.11333839252444755, 0.14736134868415754, 0.13522021841086793, 0.1330885072945483, 0.1125, 0.1125, 0.1125]"
3,1+AB,6,0.9999999999999999,0.35781308094238456,0.0550472605447485,0.42906295459020094,0.42906295197931316,optimal,0.15000000000000002,"[0.13773729962896802, 0.10750758878667133, 0.15854202302623632, 0.14033032761630188, 0.13713276094182247, 0.10625, 0.10625, 0.10625]"
4,1+AB,6,1.0,0.3610914341418717,0.07339634739299798,0.430767880169954,0.4307678801209269,optimal,0.2,"[0.14198306617195738, 0.10167678504889512, 0.16972269736831508, 0.14544043682173585, 0.14117701458909662, 0.1, 0.1, 0.1]"
5,1+AB,6,1.0,0.3652632265970872,0.09174543424124747,0.4328987458006044,0.4328987457925734,optimal,0.25,"[0.14622883271494672, 0.09584598131111889, 0.18090337171039383, 0.1505505460271698, 0.14522126823637077, 0.09375, 0.09375, 0.09375]"
6,1+AB,6,1.0,0.3702982629906947,0.11009452108949698,0.43542976048991694,0.4354297409528777,optimal,0.30000000000000004,"[0.15047459925793605, 0.09001517757334267, 0.19208404605247262, 0.15566065523260375, 0.14926552188364495, 0.0875, 0.0875, 0.0875]"
7,1+AB,6,1.0,0.37616188060470124,0.12844360793774648,0.43923497218648816,0.43923495913843535,optimal,0.35000000000000003,"[0.1547203658009254, 0.08418437383556644, 0.20326472039455137, 0.16077076443803773, 0.1533097755309191, 0.08124999999999999, 0.08124999999999999, 0.08124999999999999]"
8,1+AB,6,1.0,0.3828160070354093,0.14679269478599596,0.44841149265653646,0.4484114871539598,optimal,0.4,"[0.15896613234391474, 0.07835357009779023, 0.21444539473663016, 0.16588087364347168, 0.15735402917819324, 0.075, 0.075, 0.075]"
9,1+AB,6,1.0,0.39022020455293294,0.16514178163424542,0.45758796745796426,0.4575879674203889,optimal,0.45,"[0.1632118988869041, 0.07252276636001401, 0.2256260690787089, 0.17099098284890563, 0.1613982828254674, 0.06875, 0.06875, 0.06875]"
10,1+AB,6,1.0,0.39833264844406147,0.18349086848249493,0.4667644009267516,0.46676439970429084,optimal,0.5,"[0.16745766542989343, 0.06669196262223778, 0.23680674342078767, 0.1761010920543396, 0.16544253647274154, 0.0625, 0.0625, 0.0625]"
11,1+AB,6,1.0,0.4071110015314213,0.20183995533074447,0.4759408170838941,0.4759408122853211,optimal,0.55,"[0.1717034319728828, 0.06086115888446156, 0.24798741776286645, 0.18121120125977355, 0.16948679012001572, 0.056249999999999994, 0.056249999999999994, 0.056249999999999994]"
12,1+AB,6,1.0000000000000002,0.4165131622118355,0.22018904217899396,0.4851172320632189,0.48511722351148756,optimal,0.6000000000000001,"[0.17594919851587212, 0.055030355146685334, 0.25916809210494524, 0.1863213104652075, 0.17353104376728987, 0.04999999999999999, 0.04999999999999999, 0.04999999999999999]"
13,1+AB,6,0.9999999999999999,0.42649787689954316,0.23853812902724342,0.4942937300837313,0.49429372987833586,optimal,0.65,"[0.18019496505886146, 0.04919955140890911, 0.270348766447024, 0.19143141967064148, 0.17757529741456402, 0.04375, 0.04375, 0.04375]"
14,1+AB,6,1.0000000000000002,0.43702521858613846,0.2568872158754929,0.5034701723606402,0.5034701723588341,optimal,0.7000000000000001,"[0.18444073160185082, 0.043368747671132885, 0.28152944078910275, 0.19654152887607543, 0.1816195510618382, 0.03749999999999999, 0.03749999999999999, 0.03749999999999999]"
15,1+AB,6,1.0,0.4480569409539769,0.2752363027237424,0.5126465945512686,0.5126465920265016,optimal,0.75,"[0.18868649814484015, 0.037537943933356674, 0.2927101151311815, 0.20165163808150938, 0.18566380470911234, 0.03125, 0.03125, 0.03125]"
16,1+AB,6,1.0000000000000002,0.4595567222554124,0.293585389571992,0.5218229314252126,0.5218229138945423,optimal,0.8,"[0.19293226468782948, 0.03170714019558045, 0.3038907894732603, 0.20676174728694335, 0.1897080583563865, 0.024999999999999994, 0.024999999999999994, 0.024999999999999994]"
17,1+AB,6,1.0000000000000002,0.47149031546742315,0.3119344764202414,0.5309992923967216,0.5309992649113348,optimal,0.8500000000000001,"[0.19717803123081884, 0.025876336457804225, 0.31507146381533907, 0.21187185649237733, 0.19375231200366066, 0.01874999999999999, 0.01874999999999999, 0.01874999999999999]"
18,1+AB,6,1.0,0.4838256216503331,0.3302835632684909,0.5401758089115056,0.5401757928156221,optimal,0.9,"[0.2014237977738082, 0.020045532720028, 0.3262521381574178, 0.21698196569781125, 0.19779656565093479, 0.012499999999999997, 0.012499999999999997, 0.012499999999999997]"
19,1+AB,6,1.0,0.49653270257599497,0.3486326501167404,0.5493523613332343,0.5493523593838663,optimal,0.9500000000000001,"[0.20566956431679753, 0.014214728982251776, 0.3374328124994966, 0.22209207490324523, 0.20184081929820896, 0.006249999999999992, 0.006249999999999992, 0.006249999999999992]"
20,1+AB,6,1.0000000000000002,0.5095837470581661,0.36698173696498987,0.5585287940272926,0.5585287882961786,optimal,1.0,"[0.20991533085978686, 0.008383925244475565, 0.34861348684157534, 0.22720218410867918, 0.2058850729454831, 0.0, 0.0, 0.0]"
