Index, Level, Gleichung, 1-norm, 2-norm, varianz, primal, dual, status, eps, b
Gleichung: 1 - CHSH; 2 - 33,33; 3-44,1111; 4-44,43; 5-44,33_1; 6-44,311; 7-44,411; 8-43,311; 9-411,33; 10-43,43_1; 11-43,411; 12-43,33_1; 13-43,33_2; 14-44,33_2; 15-43,43_2
0,1+AB,1,1.0,0.353553390593,0.0,0.42677669433719756,0.42677669423124287,optimal,0.0,"[0.125, 0.125, 0.125, 0.125, 0.125, 0.125, 0.125, 0.125]"
1,1+AB,1,1.0,0.353610566962,0.00635870013706,0.4268655977964561,0.4268655977712109,optimal,0.05,"[0.12487169282291778, 0.12417099756823938, 0.12657548831269805, 0.12621435918902427, 0.12682707621834133, 0.12497242876920284, 0.11958969889739315, 0.12677825822218322]"
2,1+AB,1,1.0,0.353782040626,0.0127174002741,0.42712899168317475,0.4271289916804516,optimal,0.1,"[0.12474338564583556, 0.12334199513647874, 0.1281509766253961, 0.12742871837804853, 0.12865415243668266, 0.12494485753840567, 0.11417939779478631, 0.12855651644436644]"
3,1+AB,1,1.0,0.354067645524,0.0190761004112,0.42756273871969935,0.4275627387174906,optimal,0.15000000000000002,"[0.12461507846875335, 0.12251299270471812, 0.12972646493809414, 0.1286430775670728, 0.13048122865502398, 0.12491728630760851, 0.10876909669217945, 0.13033477466654966]"
4,1+AB,1,1.0,0.354467105778,0.0254348005482,0.4281639280980229,0.42816392809684145,optimal,0.2,"[0.12448677129167113, 0.12168399027295748, 0.13130195325079219, 0.12985743675609707, 0.13230830487336531, 0.12488971507681135, 0.1033587955895726, 0.13211303288873288]"
5,1+AB,1,1.0,0.354980037024,0.0317935006853,0.4289310395830085,0.42893103958228884,optimal,0.25,"[0.12435846411458891, 0.12085498784119686, 0.13287744156349024, 0.13107179594512133, 0.13413538109170664, 0.12486214384601418, 0.097948494486965756, 0.13389129111091611]"
6,1+AB,1,1.0,0.355605948246,0.0381522008223,0.4298641476624813,0.4298641473424356,optimal,0.30000000000000004,"[0.12423015693750669, 0.12002598540943624, 0.13445292987618826, 0.1322861551341456, 0.13596245731004797, 0.12483457261521702, 0.092538193384358897, 0.13566954933309933]"
7,1+AB,1,1.0,0.356344244101,0.0445109009594,0.4309652154190678,0.43096521541231725,optimal,0.35000000000000003,"[0.12410184976042447, 0.1191969829776756, 0.13602841818888631, 0.13350051432316987, 0.1377895335283893, 0.12480700138441986, 0.087127892281752051, 0.13744780755528255]"
8,1+AB,1,1.0,0.357194227719,0.0508696010964,0.43223845918483994,0.43223845915261594,optimal,0.4,"[0.12397354258334226, 0.11836798054591498, 0.13760390650158436, 0.13471487351219413, 0.13961660974673062, 0.12477943015362269, 0.081717591179145205, 0.13922606577746577]"
9,1+AB,1,1.0,0.358155103917,0.0572283012335,0.4336909772636716,0.43369097721455807,optimal,0.45,"[0.12384523540626004, 0.11753897811415434, 0.1391793948142824, 0.1359292327012184, 0.14144368596507195, 0.12475185892282553, 0.076307290076538359, 0.14100432399964899]"
10,1+AB,1,1.0,0.359225982834,0.0635870013706,0.43533369198607264,0.4353336919836893,optimal,0.5,"[0.12371692822917782, 0.11670997568239372, 0.14075488312698045, 0.13714359189024267, 0.14327076218341328, 0.12472428769202837, 0.070896988973931513, 0.14278258222183221]"
11,1+AB,1,1.0,0.360405883913,0.0699457015076,0.43718301381955843,0.4371830130593385,optimal,0.55,"[0.12358862105209562, 0.1158809732506331, 0.1423303714396785, 0.13835795107926693, 0.14509783840175461, 0.12469671646123121, 0.065486687871324667, 0.14456084044401543]"
12,1+AB,1,1.0,0.361693740214,0.0763044016447,0.4392641643643387,0.4392641643092067,optimal,0.6000000000000001,"[0.1234603138750134, 0.11505197081887246, 0.14390585975237655, 0.1395723102682912, 0.14692491462009594, 0.12466914523043404, 0.060076386768717807, 0.14633909866619865]"
13,1+AB,1,1.0,0.363088403004,0.0826631017817,0.4423505979040407,0.4423505851352386,optimal,0.65,"[0.12333200669793118, 0.11422296838711184, 0.14548134806507459, 0.14078666945731547, 0.14875199083843726, 0.12464157399963688, 0.054666085666110961, 0.14811735688838187]"
14,1+AB,1,1.0,0.364588646583,0.0890218019188,0.4475314344855662,0.44753142144353397,optimal,0.7000000000000001,"[0.12320369952084896, 0.1133939659553512, 0.14705683637777264, 0.14200102864633973, 0.15057906705677859, 0.12461400276883972, 0.049255784563504115, 0.14989561511056509]"
15,1+AB,1,1.0,0.366193173301,0.0953805020558,0.4527123328560836,0.4527123315919265,optimal,0.75,"[0.12307539234376674, 0.11256496352359058, 0.14863232469047066, 0.143215387835364, 0.15240614327511992, 0.12458643153804255, 0.043845483460897269, 0.15167387333274832]"
16,1+AB,1,1.0,0.367900618731,0.101739202193,0.45789316213781456,0.45789316185855394,optimal,0.8,"[0.12294708516668452, 0.11173596109182996, 0.15020781300316871, 0.14442974702438827, 0.15423321949346125, 0.12455886030724539, 0.03843518235829041, 0.15345213155493154]"
17,1+AB,1,1.0,0.369709556934,0.10809790233,0.46307398589594323,0.463073985765706,optimal,0.8500000000000001,"[0.12281877798960231, 0.11090695866006932, 0.15178330131586676, 0.14564410621341253, 0.15606029571180258, 0.12453128907644823, 0.033024881255683564, 0.15523038977711476]"
18,1+AB,1,1.0,0.371618505794,0.114456602467,0.46825480891170496,0.4682548088181234,optimal,0.9,"[0.12269047081252009, 0.1100779562283087, 0.15335878962856481, 0.1468584654024368, 0.1578873719301439, 0.12450371784565106, 0.027614580153076718, 0.15700864799929798]"
19,1+AB,1,1.0,0.373625932375,0.120815302604,0.47343563149405443,0.4734356313757381,optimal,0.9500000000000001,"[0.12256216363543787, 0.10924895379654806, 0.15493427794126285, 0.14807282459146107, 0.15971444814848523, 0.1244761466148539, 0.022204279050469872, 0.1587869062214812]"
20,1+AB,1,1.0,0.375730258261,0.127174002741,0.4786164541026278,0.47861645395626057,optimal,1.0,"[0.12243385645835565, 0.10841995136478744, 0.1565097662539609, 0.14928718378048533, 0.16154152436682656, 0.12444857538405674, 0.016793977947863026, 0.16056516444366442]"
